<?xml version="1.0" encoding="UTF-8"?>
<svg xmlns="http://www.w3.org/2000/svg" xmlns:xlink="http://www.w3.org/1999/xlink" width="504pt" height="360pt" viewBox="0 0 504 360" version="1.1">
<defs>
<g>
<symbol overflow="visible" id="glyph0-0">
<path style="stroke:none;" d="M 1.101563 2.523438 L 1.101563 -8.734375 L 2.023438 -8.734375 L 2.023438 2.523438 Z M 1.101563 2.523438 "/>
</symbol>
<symbol overflow="visible" id="glyph0-1">
<path style="stroke:none;" d="M 0.539063 -2.757813 L 1.609375 -2.851563 C 1.660156 -2.421875 1.777344 -2.070313 1.964844 -1.796875 C 2.144531 -1.519531 2.433594 -1.296875 2.828125 -1.128906 C 3.214844 -0.957031 3.65625 -0.871094 4.148438 -0.875 C 4.578125 -0.871094 4.960938 -0.9375 5.296875 -1.066406 C 5.628906 -1.191406 5.875 -1.367188 6.039063 -1.59375 C 6.199219 -1.820313 6.28125 -2.066406 6.28125 -2.332031 C 6.28125 -2.597656 6.203125 -2.832031 6.046875 -3.035156 C 5.890625 -3.238281 5.632813 -3.40625 5.273438 -3.546875 C 5.042969 -3.632813 4.53125 -3.773438 3.746094 -3.964844 C 2.953125 -4.152344 2.402344 -4.332031 2.085938 -4.5 C 1.671875 -4.710938 1.363281 -4.976563 1.167969 -5.296875 C 0.964844 -5.617188 0.867188 -5.972656 0.867188 -6.367188 C 0.867188 -6.800781 0.988281 -7.207031 1.234375 -7.582031 C 1.480469 -7.957031 1.839844 -8.242188 2.3125 -8.441406 C 2.785156 -8.632813 3.3125 -8.730469 3.890625 -8.734375 C 4.523438 -8.730469 5.082031 -8.628906 5.574219 -8.425781 C 6.058594 -8.222656 6.433594 -7.921875 6.695313 -7.523438 C 6.957031 -7.125 7.097656 -6.671875 7.117188 -6.171875 L 6.03125 -6.085938 C 5.96875 -6.628906 5.769531 -7.039063 5.433594 -7.316406 C 5.09375 -7.59375 4.597656 -7.734375 3.9375 -7.734375 C 3.25 -7.734375 2.746094 -7.605469 2.433594 -7.355469 C 2.113281 -7.097656 1.957031 -6.796875 1.960938 -6.445313 C 1.957031 -6.136719 2.070313 -5.882813 2.296875 -5.683594 C 2.515625 -5.480469 3.085938 -5.273438 4.011719 -5.070313 C 4.933594 -4.859375 5.566406 -4.679688 5.914063 -4.523438 C 6.410156 -4.292969 6.78125 -4 7.019531 -3.648438 C 7.253906 -3.292969 7.371094 -2.886719 7.375 -2.425781 C 7.371094 -1.96875 7.242188 -1.535156 6.984375 -1.132813 C 6.722656 -0.726563 6.34375 -0.414063 5.855469 -0.1875 C 5.363281 0.0351563 4.8125 0.144531 4.203125 0.148438 C 3.421875 0.144531 2.769531 0.0351563 2.246094 -0.191406 C 1.71875 -0.414063 1.308594 -0.753906 1.011719 -1.214844 C 0.710938 -1.667969 0.554688 -2.183594 0.539063 -2.757813 Z M 0.539063 -2.757813 "/>
</symbol>
<symbol overflow="visible" id="glyph0-2">
<path style="stroke:none;" d="M 0.789063 0 L 0.789063 -8.589844 L 1.84375 -8.589844 L 1.84375 -5.507813 C 2.335938 -6.078125 2.957031 -6.363281 3.710938 -6.363281 C 4.164063 -6.363281 4.566406 -6.269531 4.910156 -6.089844 C 5.25 -5.90625 5.492188 -5.65625 5.640625 -5.339844 C 5.785156 -5.015625 5.859375 -4.550781 5.859375 -3.945313 L 5.859375 0 L 4.804688 0 L 4.804688 -3.945313 C 4.804688 -4.46875 4.6875 -4.851563 4.460938 -5.09375 C 4.226563 -5.328125 3.90625 -5.449219 3.492188 -5.453125 C 3.179688 -5.449219 2.882813 -5.367188 2.609375 -5.210938 C 2.328125 -5.046875 2.132813 -4.828125 2.019531 -4.550781 C 1.898438 -4.273438 1.839844 -3.890625 1.84375 -3.40625 L 1.84375 0 Z M 0.789063 0 "/>
</symbol>
<symbol overflow="visible" id="glyph0-3">
<path style="stroke:none;" d="M 5.050781 -2.003906 L 6.140625 -1.867188 C 5.96875 -1.230469 5.648438 -0.738281 5.183594 -0.386719 C 4.71875 -0.0351563 4.125 0.140625 3.40625 0.140625 C 2.492188 0.140625 1.769531 -0.136719 1.238281 -0.699219 C 0.699219 -1.253906 0.433594 -2.042969 0.4375 -3.058594 C 0.433594 -4.105469 0.703125 -4.917969 1.246094 -5.496094 C 1.78125 -6.074219 2.480469 -6.363281 3.34375 -6.363281 C 4.175781 -6.363281 4.855469 -6.078125 5.382813 -5.511719 C 5.910156 -4.945313 6.175781 -4.148438 6.175781 -3.125 C 6.175781 -3.058594 6.171875 -2.964844 6.171875 -2.84375 L 1.53125 -2.84375 C 1.5625 -2.15625 1.757813 -1.632813 2.109375 -1.269531 C 2.457031 -0.90625 2.890625 -0.726563 3.410156 -0.726563 C 3.796875 -0.726563 4.125 -0.828125 4.402344 -1.03125 C 4.671875 -1.234375 4.890625 -1.558594 5.050781 -2.003906 Z M 1.585938 -3.710938 L 5.0625 -3.710938 C 5.015625 -4.226563 4.882813 -4.621094 4.664063 -4.886719 C 4.328125 -5.292969 3.890625 -5.496094 3.359375 -5.496094 C 2.871094 -5.496094 2.464844 -5.332031 2.136719 -5.007813 C 1.804688 -4.683594 1.621094 -4.25 1.585938 -3.710938 Z M 1.585938 -3.710938 "/>
</symbol>
<symbol overflow="visible" id="glyph0-4">
<path style="stroke:none;" d="M 0.765625 0 L 0.765625 -8.589844 L 1.820313 -8.589844 L 1.820313 0 Z M 0.765625 0 "/>
</symbol>
<symbol overflow="visible" id="glyph0-5">
<path style="stroke:none;" d="M 2.519531 0 L 0.152344 -6.222656 L 1.265625 -6.222656 L 2.601563 -2.496094 C 2.746094 -2.089844 2.878906 -1.671875 3 -1.242188 C 3.09375 -1.570313 3.222656 -1.964844 3.390625 -2.425781 L 4.773438 -6.222656 L 5.859375 -6.222656 L 3.503906 0 Z M 2.519531 0 "/>
</symbol>
<symbol overflow="visible" id="glyph0-6">
<path style="stroke:none;" d="M 0.878906 0 L 0.878906 -8.589844 L 2.015625 -8.589844 L 2.015625 -1.015625 L 6.246094 -1.015625 L 6.246094 0 Z M 0.878906 0 "/>
</symbol>
<symbol overflow="visible" id="glyph0-7">
<path style="stroke:none;" d="M 0.398438 -3.109375 C 0.398438 -4.261719 0.71875 -5.117188 1.359375 -5.671875 C 1.894531 -6.132813 2.546875 -6.363281 3.316406 -6.363281 C 4.171875 -6.363281 4.871094 -6.082031 5.414063 -5.519531 C 5.953125 -4.957031 6.222656 -4.183594 6.226563 -3.199219 C 6.222656 -2.398438 6.101563 -1.765625 5.867188 -1.308594 C 5.625 -0.847656 5.277344 -0.492188 4.820313 -0.238281 C 4.359375 0.015625 3.859375 0.140625 3.316406 0.140625 C 2.441406 0.140625 1.734375 -0.136719 1.203125 -0.695313 C 0.664063 -1.253906 0.398438 -2.058594 0.398438 -3.109375 Z M 1.484375 -3.109375 C 1.480469 -2.308594 1.65625 -1.710938 2.003906 -1.320313 C 2.347656 -0.921875 2.785156 -0.726563 3.316406 -0.726563 C 3.839844 -0.726563 4.273438 -0.925781 4.621094 -1.324219 C 4.96875 -1.722656 5.144531 -2.328125 5.144531 -3.148438 C 5.144531 -3.914063 4.96875 -4.496094 4.617188 -4.894531 C 4.265625 -5.289063 3.832031 -5.488281 3.316406 -5.492188 C 2.785156 -5.488281 2.347656 -5.292969 2.003906 -4.898438 C 1.65625 -4.5 1.480469 -3.902344 1.484375 -3.109375 Z M 1.484375 -3.109375 "/>
</symbol>
<symbol overflow="visible" id="glyph0-8">
<path style="stroke:none;" d="M 4.851563 -2.28125 L 5.890625 -2.144531 C 5.773438 -1.425781 5.484375 -0.863281 5.019531 -0.464844 C 4.550781 -0.0585938 3.976563 0.140625 3.296875 0.140625 C 2.445313 0.140625 1.761719 -0.136719 1.246094 -0.695313 C 0.726563 -1.25 0.46875 -2.046875 0.46875 -3.085938 C 0.46875 -3.753906 0.578125 -4.34375 0.800781 -4.851563 C 1.023438 -5.355469 1.363281 -5.730469 1.816406 -5.984375 C 2.269531 -6.234375 2.765625 -6.363281 3.304688 -6.363281 C 3.980469 -6.363281 4.53125 -6.191406 4.964844 -5.847656 C 5.390625 -5.503906 5.667969 -5.019531 5.789063 -4.394531 L 4.765625 -4.234375 C 4.664063 -4.652344 4.492188 -4.96875 4.246094 -5.179688 C 3.996094 -5.390625 3.695313 -5.496094 3.34375 -5.496094 C 2.808594 -5.496094 2.378906 -5.304688 2.050781 -4.921875 C 1.71875 -4.539063 1.550781 -3.9375 1.554688 -3.117188 C 1.550781 -2.28125 1.710938 -1.671875 2.035156 -1.292969 C 2.351563 -0.914063 2.769531 -0.726563 3.289063 -0.726563 C 3.695313 -0.726563 4.042969 -0.851563 4.324219 -1.105469 C 4.601563 -1.359375 4.777344 -1.75 4.851563 -2.28125 Z M 4.851563 -2.28125 "/>
</symbol>
<symbol overflow="visible" id="glyph0-9">
<path style="stroke:none;" d="M 1.085938 -5.023438 L 1.085938 -6.222656 L 2.285156 -6.222656 L 2.285156 -5.023438 Z M 1.085938 0 L 1.085938 -1.203125 L 2.285156 -1.203125 L 2.285156 0 Z M 1.085938 0 "/>
</symbol>
<symbol overflow="visible" id="glyph0-10">
<path style="stroke:none;" d=""/>
</symbol>
<symbol overflow="visible" id="glyph0-11">
<path style="stroke:none;" d="M 0.878906 0 L 0.878906 -8.589844 L 4.101563 -8.589844 C 4.757813 -8.589844 5.28125 -8.5 5.679688 -8.328125 C 6.070313 -8.152344 6.382813 -7.886719 6.609375 -7.527344 C 6.835938 -7.164063 6.949219 -6.785156 6.949219 -6.390625 C 6.949219 -6.023438 6.847656 -5.679688 6.648438 -5.355469 C 6.449219 -5.027344 6.148438 -4.765625 5.75 -4.570313 C 6.265625 -4.417969 6.664063 -4.15625 6.945313 -3.792969 C 7.222656 -3.421875 7.363281 -2.988281 7.367188 -2.492188 C 7.363281 -2.085938 7.277344 -1.710938 7.109375 -1.367188 C 6.9375 -1.019531 6.730469 -0.753906 6.480469 -0.570313 C 6.230469 -0.378906 5.914063 -0.238281 5.539063 -0.144531 C 5.160156 -0.046875 4.699219 0 4.15625 0 Z M 2.015625 -4.980469 L 3.875 -4.980469 C 4.375 -4.980469 4.738281 -5.011719 4.957031 -5.078125 C 5.246094 -5.164063 5.460938 -5.308594 5.609375 -5.507813 C 5.75 -5.703125 5.824219 -5.953125 5.828125 -6.257813 C 5.824219 -6.542969 5.757813 -6.792969 5.625 -7.011719 C 5.488281 -7.226563 5.292969 -7.375 5.039063 -7.457031 C 4.78125 -7.535156 4.34375 -7.574219 3.734375 -7.578125 L 2.015625 -7.578125 Z M 2.015625 -1.015625 L 4.15625 -1.015625 C 4.515625 -1.011719 4.773438 -1.027344 4.929688 -1.054688 C 5.1875 -1.101563 5.40625 -1.179688 5.582031 -1.289063 C 5.757813 -1.398438 5.902344 -1.554688 6.015625 -1.765625 C 6.128906 -1.96875 6.1875 -2.210938 6.1875 -2.492188 C 6.1875 -2.804688 6.105469 -3.082031 5.941406 -3.324219 C 5.777344 -3.558594 5.546875 -3.726563 5.257813 -3.824219 C 4.960938 -3.917969 4.542969 -3.964844 4 -3.96875 L 2.015625 -3.96875 Z M 2.015625 -1.015625 "/>
</symbol>
<symbol overflow="visible" id="glyph0-12">
<path style="stroke:none;" d="M 4.851563 -0.765625 C 4.460938 -0.433594 4.082031 -0.199219 3.722656 -0.0625 C 3.355469 0.0742188 2.96875 0.140625 2.5625 0.140625 C 1.875 0.140625 1.351563 -0.0234375 0.984375 -0.359375 C 0.617188 -0.6875 0.433594 -1.117188 0.433594 -1.640625 C 0.433594 -1.945313 0.5 -2.222656 0.640625 -2.472656 C 0.777344 -2.722656 0.960938 -2.925781 1.1875 -3.082031 C 1.410156 -3.234375 1.664063 -3.347656 1.945313 -3.429688 C 2.152344 -3.476563 2.464844 -3.53125 2.882813 -3.585938 C 3.734375 -3.6875 4.359375 -3.808594 4.765625 -3.949219 C 4.765625 -4.089844 4.769531 -4.179688 4.769531 -4.226563 C 4.769531 -4.648438 4.667969 -4.953125 4.46875 -5.132813 C 4.199219 -5.371094 3.800781 -5.488281 3.269531 -5.492188 C 2.769531 -5.488281 2.402344 -5.402344 2.167969 -5.230469 C 1.933594 -5.054688 1.757813 -4.746094 1.648438 -4.304688 L 0.617188 -4.445313 C 0.707031 -4.886719 0.863281 -5.242188 1.078125 -5.515625 C 1.289063 -5.78125 1.597656 -5.992188 2.007813 -6.140625 C 2.410156 -6.289063 2.882813 -6.363281 3.421875 -6.363281 C 3.953125 -6.363281 4.382813 -6.300781 4.714844 -6.175781 C 5.046875 -6.050781 5.292969 -5.890625 5.449219 -5.703125 C 5.605469 -5.511719 5.714844 -5.273438 5.777344 -4.984375 C 5.808594 -4.804688 5.824219 -4.480469 5.828125 -4.015625 L 5.828125 -2.609375 C 5.824219 -1.625 5.847656 -1.003906 5.894531 -0.746094 C 5.941406 -0.484375 6.03125 -0.238281 6.164063 0 L 5.0625 0 C 4.953125 -0.21875 4.882813 -0.472656 4.851563 -0.765625 Z M 4.765625 -3.125 C 4.375 -2.964844 3.800781 -2.832031 3.039063 -2.726563 C 2.605469 -2.660156 2.300781 -2.589844 2.121094 -2.515625 C 1.941406 -2.433594 1.800781 -2.320313 1.703125 -2.171875 C 1.605469 -2.019531 1.558594 -1.851563 1.558594 -1.671875 C 1.558594 -1.386719 1.664063 -1.152344 1.875 -0.96875 C 2.085938 -0.777344 2.398438 -0.683594 2.8125 -0.6875 C 3.21875 -0.683594 3.578125 -0.773438 3.894531 -0.953125 C 4.210938 -1.128906 4.445313 -1.371094 4.59375 -1.679688 C 4.707031 -1.917969 4.761719 -2.269531 4.765625 -2.734375 Z M 4.765625 -3.125 "/>
</symbol>
<symbol overflow="visible" id="glyph0-13">
<path style="stroke:none;" d="M 4.828125 0 L 4.828125 -0.785156 C 4.429688 -0.167969 3.847656 0.140625 3.085938 0.140625 C 2.589844 0.140625 2.132813 0.00390625 1.71875 -0.269531 C 1.296875 -0.542969 0.976563 -0.921875 0.75 -1.414063 C 0.523438 -1.898438 0.410156 -2.464844 0.410156 -3.105469 C 0.410156 -3.726563 0.511719 -4.289063 0.71875 -4.796875 C 0.925781 -5.300781 1.238281 -5.6875 1.652344 -5.957031 C 2.066406 -6.226563 2.527344 -6.363281 3.039063 -6.363281 C 3.410156 -6.363281 3.746094 -6.28125 4.042969 -6.125 C 4.335938 -5.964844 4.574219 -5.761719 4.757813 -5.507813 L 4.757813 -8.589844 L 5.804688 -8.589844 L 5.804688 0 Z M 1.492188 -3.105469 C 1.488281 -2.308594 1.65625 -1.710938 1.996094 -1.316406 C 2.328125 -0.921875 2.726563 -0.726563 3.1875 -0.726563 C 3.648438 -0.726563 4.039063 -0.914063 4.359375 -1.292969 C 4.679688 -1.667969 4.839844 -2.242188 4.84375 -3.015625 C 4.839844 -3.867188 4.675781 -4.492188 4.351563 -4.894531 C 4.019531 -5.289063 3.617188 -5.488281 3.140625 -5.492188 C 2.671875 -5.488281 2.277344 -5.296875 1.964844 -4.917969 C 1.644531 -4.53125 1.488281 -3.929688 1.492188 -3.105469 Z M 1.492188 -3.105469 "/>
</symbol>
<symbol overflow="visible" id="glyph0-14">
<path style="stroke:none;" d="M 1.066406 0 L 1.066406 -1.203125 L 2.265625 -1.203125 L 2.265625 0 C 2.261719 0.441406 2.183594 0.796875 2.03125 1.070313 C 1.871094 1.339844 1.625 1.550781 1.289063 1.699219 L 0.996094 1.25 C 1.214844 1.148438 1.378906 1.003906 1.488281 0.816406 C 1.59375 0.621094 1.652344 0.351563 1.664063 0 Z M 1.066406 0 "/>
</symbol>
<symbol overflow="visible" id="glyph0-15">
<path style="stroke:none;" d="M 0.890625 0 L 0.890625 -8.589844 L 2.601563 -8.589844 L 4.632813 -2.507813 C 4.816406 -1.9375 4.953125 -1.511719 5.046875 -1.234375 C 5.140625 -1.542969 5.292969 -2.003906 5.5 -2.613281 L 7.558594 -8.589844 L 9.085938 -8.589844 L 9.085938 0 L 7.992188 0 L 7.992188 -7.1875 L 5.496094 0 L 4.46875 0 L 1.984375 -7.3125 L 1.984375 0 Z M 0.890625 0 "/>
</symbol>
<symbol overflow="visible" id="glyph0-16">
<path style="stroke:none;" d="M 0.796875 -7.375 L 0.796875 -8.589844 L 1.851563 -8.589844 L 1.851563 -7.375 Z M 0.796875 0 L 0.796875 -6.222656 L 1.851563 -6.222656 L 1.851563 0 Z M 0.796875 0 "/>
</symbol>
<symbol overflow="visible" id="glyph0-17">
<path style="stroke:none;" d="M 4.867188 0 L 4.867188 -0.914063 C 4.378906 -0.210938 3.722656 0.140625 2.894531 0.140625 C 2.527344 0.140625 2.183594 0.0703125 1.867188 -0.0703125 C 1.546875 -0.210938 1.308594 -0.386719 1.15625 -0.601563 C 1 -0.8125 0.894531 -1.074219 0.832031 -1.382813 C 0.785156 -1.589844 0.761719 -1.917969 0.765625 -2.367188 L 0.765625 -6.222656 L 1.820313 -6.222656 L 1.820313 -2.773438 C 1.816406 -2.21875 1.839844 -1.847656 1.886719 -1.65625 C 1.949219 -1.378906 2.089844 -1.160156 2.308594 -1.003906 C 2.523438 -0.839844 2.789063 -0.761719 3.105469 -0.765625 C 3.417969 -0.761719 3.714844 -0.84375 3.996094 -1.007813 C 4.273438 -1.171875 4.46875 -1.390625 4.585938 -1.671875 C 4.699219 -1.949219 4.757813 -2.355469 4.757813 -2.890625 L 4.757813 -6.222656 L 5.8125 -6.222656 L 5.8125 0 Z M 4.867188 0 "/>
</symbol>
<symbol overflow="visible" id="glyph0-18">
<path style="stroke:none;" d="M 0.789063 0 L 0.789063 -6.222656 L 1.734375 -6.222656 L 1.734375 -5.351563 C 1.929688 -5.648438 2.1875 -5.894531 2.511719 -6.082031 C 2.835938 -6.269531 3.207031 -6.363281 3.621094 -6.363281 C 4.082031 -6.363281 4.457031 -6.265625 4.753906 -6.074219 C 5.042969 -5.882813 5.253906 -5.617188 5.378906 -5.273438 C 5.871094 -6 6.511719 -6.363281 7.300781 -6.363281 C 7.917969 -6.363281 8.390625 -6.191406 8.722656 -5.847656 C 9.054688 -5.503906 9.222656 -4.976563 9.222656 -4.273438 L 9.222656 0 L 8.171875 0 L 8.171875 -3.921875 C 8.167969 -4.339844 8.132813 -4.644531 8.070313 -4.832031 C 8 -5.015625 7.878906 -5.164063 7.699219 -5.277344 C 7.519531 -5.390625 7.308594 -5.449219 7.066406 -5.449219 C 6.628906 -5.449219 6.265625 -5.300781 5.976563 -5.011719 C 5.6875 -4.71875 5.542969 -4.253906 5.542969 -3.617188 L 5.542969 0 L 4.488281 0 L 4.488281 -4.042969 C 4.488281 -4.511719 4.402344 -4.863281 4.230469 -5.097656 C 4.058594 -5.332031 3.777344 -5.449219 3.386719 -5.449219 C 3.089844 -5.449219 2.8125 -5.371094 2.5625 -5.214844 C 2.308594 -5.058594 2.128906 -4.828125 2.015625 -4.527344 C 1.898438 -4.226563 1.839844 -3.792969 1.84375 -3.226563 L 1.84375 0 Z M 0.789063 0 "/>
</symbol>
<symbol overflow="visible" id="glyph0-19">
<path style="stroke:none;" d="M 0.925781 0 L 0.925781 -8.589844 L 4.164063 -8.589844 C 4.734375 -8.589844 5.171875 -8.5625 5.472656 -8.507813 C 5.894531 -8.4375 6.246094 -8.300781 6.53125 -8.105469 C 6.816406 -7.90625 7.046875 -7.632813 7.222656 -7.277344 C 7.394531 -6.917969 7.480469 -6.527344 7.484375 -6.105469 C 7.480469 -5.371094 7.25 -4.75 6.785156 -4.25 C 6.316406 -3.742188 5.476563 -3.492188 4.265625 -3.492188 L 2.0625 -3.492188 L 2.0625 0 Z M 2.0625 -4.507813 L 4.28125 -4.507813 C 5.011719 -4.503906 5.535156 -4.640625 5.847656 -4.917969 C 6.15625 -5.1875 6.308594 -5.574219 6.3125 -6.070313 C 6.308594 -6.429688 6.21875 -6.734375 6.039063 -6.992188 C 5.855469 -7.242188 5.617188 -7.414063 5.320313 -7.5 C 5.125 -7.550781 4.769531 -7.574219 4.257813 -7.578125 L 2.0625 -7.578125 Z M 2.0625 -4.507813 "/>
</symbol>
<symbol overflow="visible" id="glyph0-20">
<path style="stroke:none;" d="M 0.78125 0 L 0.78125 -6.222656 L 1.726563 -6.222656 L 1.726563 -5.28125 C 1.96875 -5.71875 2.191406 -6.011719 2.398438 -6.152344 C 2.601563 -6.292969 2.828125 -6.363281 3.078125 -6.363281 C 3.429688 -6.363281 3.792969 -6.25 4.160156 -6.023438 L 3.796875 -5.046875 C 3.539063 -5.195313 3.28125 -5.273438 3.023438 -5.273438 C 2.792969 -5.273438 2.585938 -5.203125 2.402344 -5.066406 C 2.214844 -4.925781 2.082031 -4.734375 2.007813 -4.488281 C 1.890625 -4.113281 1.832031 -3.703125 1.835938 -3.257813 L 1.835938 0 Z M 0.78125 0 "/>
</symbol>
<symbol overflow="visible" id="glyph0-21">
<path style="stroke:none;" d="M 0.65625 -3.757813 L 0.65625 -4.742188 L 6.34375 -7.140625 L 6.34375 -6.09375 L 1.835938 -4.242188 L 6.34375 -2.375 L 6.34375 -1.324219 Z M 0.65625 -3.757813 "/>
</symbol>
<symbol overflow="visible" id="glyph0-22">
<path style="stroke:none;" d="M 0.65625 -1.984375 L 1.671875 -2.078125 C 1.75 -1.601563 1.914063 -1.257813 2.160156 -1.042969 C 2.398438 -0.824219 2.710938 -0.714844 3.09375 -0.71875 C 3.414063 -0.714844 3.695313 -0.789063 3.945313 -0.941406 C 4.1875 -1.085938 4.390625 -1.285156 4.546875 -1.535156 C 4.703125 -1.785156 4.832031 -2.121094 4.9375 -2.542969 C 5.042969 -2.964844 5.097656 -3.394531 5.097656 -3.832031 C 5.097656 -3.878906 5.09375 -3.949219 5.09375 -4.042969 C 4.875 -3.707031 4.585938 -3.433594 4.226563 -3.226563 C 3.859375 -3.015625 3.464844 -2.910156 3.039063 -2.914063 C 2.328125 -2.910156 1.726563 -3.167969 1.238281 -3.6875 C 0.742188 -4.199219 0.496094 -4.878906 0.5 -5.726563 C 0.496094 -6.59375 0.753906 -7.296875 1.269531 -7.828125 C 1.78125 -8.359375 2.425781 -8.625 3.199219 -8.625 C 3.757813 -8.625 4.265625 -8.472656 4.730469 -8.171875 C 5.191406 -7.871094 5.542969 -7.441406 5.785156 -6.886719 C 6.023438 -6.328125 6.144531 -5.523438 6.148438 -4.46875 C 6.144531 -3.371094 6.027344 -2.496094 5.789063 -1.847656 C 5.546875 -1.195313 5.191406 -0.703125 4.722656 -0.363281 C 4.253906 -0.0234375 3.703125 0.144531 3.070313 0.148438 C 2.398438 0.144531 1.847656 -0.0390625 1.421875 -0.410156 C 0.996094 -0.785156 0.742188 -1.308594 0.65625 -1.984375 Z M 4.976563 -5.777344 C 4.972656 -6.382813 4.8125 -6.863281 4.492188 -7.21875 C 4.167969 -7.570313 3.78125 -7.746094 3.328125 -7.75 C 2.859375 -7.746094 2.449219 -7.554688 2.101563 -7.175781 C 1.753906 -6.789063 1.582031 -6.292969 1.582031 -5.6875 C 1.582031 -5.136719 1.746094 -4.691406 2.074219 -4.355469 C 2.402344 -4.011719 2.808594 -3.84375 3.296875 -3.84375 C 3.785156 -3.84375 4.1875 -4.011719 4.503906 -4.355469 C 4.816406 -4.691406 4.972656 -5.167969 4.976563 -5.777344 Z M 4.976563 -5.777344 "/>
</symbol>
<symbol overflow="visible" id="glyph0-23">
<path style="stroke:none;" d="M 6.039063 -1.015625 L 6.039063 0 L 0.363281 0 C 0.355469 -0.253906 0.394531 -0.496094 0.484375 -0.734375 C 0.628906 -1.117188 0.859375 -1.5 1.179688 -1.875 C 1.492188 -2.25 1.953125 -2.683594 2.5625 -3.175781 C 3.492188 -3.941406 4.125 -4.546875 4.453125 -4.992188 C 4.78125 -5.4375 4.945313 -5.859375 4.945313 -6.265625 C 4.945313 -6.679688 4.792969 -7.03125 4.496094 -7.320313 C 4.191406 -7.601563 3.804688 -7.746094 3.328125 -7.75 C 2.820313 -7.746094 2.414063 -7.59375 2.109375 -7.292969 C 1.804688 -6.984375 1.648438 -6.5625 1.648438 -6.03125 L 0.5625 -6.140625 C 0.632813 -6.945313 0.910156 -7.558594 1.398438 -7.988281 C 1.878906 -8.410156 2.53125 -8.625 3.351563 -8.625 C 4.171875 -8.625 4.824219 -8.394531 5.308594 -7.9375 C 5.789063 -7.480469 6.027344 -6.914063 6.03125 -6.242188 C 6.027344 -5.894531 5.957031 -5.558594 5.820313 -5.226563 C 5.675781 -4.890625 5.441406 -4.539063 5.117188 -4.175781 C 4.789063 -3.804688 4.25 -3.300781 3.492188 -2.664063 C 2.859375 -2.128906 2.453125 -1.769531 2.273438 -1.582031 C 2.09375 -1.394531 1.945313 -1.203125 1.828125 -1.015625 Z M 6.039063 -1.015625 "/>
</symbol>
<symbol overflow="visible" id="glyph0-24">
<path style="stroke:none;" d="M 1.089844 0 L 1.089844 -1.203125 L 2.289063 -1.203125 L 2.289063 0 Z M 1.089844 0 "/>
</symbol>
<symbol overflow="visible" id="glyph0-25">
<path style="stroke:none;" d="M 0.5 -2.25 L 1.605469 -2.34375 C 1.683594 -1.804688 1.871094 -1.398438 2.175781 -1.125 C 2.472656 -0.851563 2.835938 -0.714844 3.257813 -0.71875 C 3.765625 -0.714844 4.195313 -0.90625 4.546875 -1.292969 C 4.898438 -1.671875 5.074219 -2.179688 5.074219 -2.820313 C 5.074219 -3.414063 4.902344 -3.890625 4.566406 -4.242188 C 4.226563 -4.589844 3.785156 -4.761719 3.242188 -4.765625 C 2.898438 -4.761719 2.59375 -4.683594 2.320313 -4.53125 C 2.046875 -4.375 1.832031 -4.175781 1.675781 -3.929688 L 0.6875 -4.0625 L 1.515625 -8.472656 L 5.789063 -8.472656 L 5.789063 -7.464844 L 2.359375 -7.464844 L 1.898438 -5.15625 C 2.414063 -5.515625 2.953125 -5.695313 3.523438 -5.695313 C 4.269531 -5.695313 4.902344 -5.433594 5.421875 -4.914063 C 5.933594 -4.394531 6.191406 -3.726563 6.195313 -2.914063 C 6.191406 -2.132813 5.964844 -1.460938 5.515625 -0.898438 C 4.960938 -0.199219 4.210938 0.144531 3.257813 0.148438 C 2.476563 0.144531 1.835938 -0.0703125 1.34375 -0.507813 C 0.84375 -0.941406 0.5625 -1.523438 0.5 -2.25 Z M 0.5 -2.25 "/>
</symbol>
<symbol overflow="visible" id="glyph0-26">
<path style="stroke:none;" d="M 1.117188 0 L 1.117188 -8.589844 L 2.257813 -8.589844 L 2.257813 0 Z M 1.117188 0 "/>
</symbol>
<symbol overflow="visible" id="glyph0-27">
<path style="stroke:none;" d="M 0.789063 0 L 0.789063 -6.222656 L 1.742188 -6.222656 L 1.742188 -5.335938 C 2.195313 -6.019531 2.855469 -6.363281 3.71875 -6.363281 C 4.089844 -6.363281 4.433594 -6.292969 4.753906 -6.160156 C 5.066406 -6.023438 5.304688 -5.847656 5.460938 -5.632813 C 5.617188 -5.410156 5.726563 -5.152344 5.789063 -4.851563 C 5.828125 -4.65625 5.847656 -4.3125 5.847656 -3.828125 L 5.847656 0 L 4.792969 0 L 4.792969 -3.785156 C 4.792969 -4.214844 4.75 -4.535156 4.667969 -4.75 C 4.585938 -4.960938 4.441406 -5.128906 4.234375 -5.257813 C 4.023438 -5.382813 3.777344 -5.449219 3.5 -5.449219 C 3.046875 -5.449219 2.660156 -5.304688 2.332031 -5.019531 C 2.003906 -4.734375 1.839844 -4.195313 1.84375 -3.398438 L 1.84375 0 Z M 0.789063 0 "/>
</symbol>
<symbol overflow="visible" id="glyph0-28">
<path style="stroke:none;" d="M 0.570313 -7.464844 L 0.570313 -8.476563 L 6.128906 -8.476563 L 6.128906 -7.65625 C 5.582031 -7.074219 5.039063 -6.300781 4.5 -5.335938 C 3.960938 -4.371094 3.546875 -3.378906 3.257813 -2.359375 C 3.046875 -1.636719 2.910156 -0.851563 2.851563 0 L 1.769531 0 C 1.78125 -0.675781 1.914063 -1.492188 2.167969 -2.449219 C 2.417969 -3.402344 2.78125 -4.324219 3.257813 -5.214844 C 3.734375 -6.105469 4.238281 -6.855469 4.773438 -7.464844 Z M 0.570313 -7.464844 "/>
</symbol>
<symbol overflow="visible" id="glyph0-29">
<path style="stroke:none;" d="M 7.054688 -3.011719 L 8.191406 -2.726563 C 7.953125 -1.789063 7.523438 -1.078125 6.90625 -0.585938 C 6.285156 -0.0976563 5.527344 0.144531 4.632813 0.148438 C 3.707031 0.144531 2.953125 -0.0390625 2.375 -0.417969 C 1.792969 -0.792969 1.351563 -1.339844 1.050781 -2.054688 C 0.746094 -2.769531 0.597656 -3.539063 0.597656 -4.359375 C 0.597656 -5.253906 0.765625 -6.03125 1.109375 -6.699219 C 1.449219 -7.363281 1.9375 -7.871094 2.570313 -8.214844 C 3.199219 -8.558594 3.894531 -8.730469 4.652344 -8.734375 C 5.511719 -8.730469 6.234375 -8.511719 6.820313 -8.078125 C 7.40625 -7.636719 7.8125 -7.023438 8.046875 -6.234375 L 6.925781 -5.96875 C 6.722656 -6.589844 6.433594 -7.046875 6.058594 -7.335938 C 5.679688 -7.621094 5.203125 -7.761719 4.628906 -7.765625 C 3.96875 -7.761719 3.414063 -7.605469 2.972656 -7.289063 C 2.527344 -6.96875 2.21875 -6.542969 2.039063 -6.011719 C 1.859375 -5.480469 1.769531 -4.929688 1.769531 -4.367188 C 1.769531 -3.632813 1.875 -2.996094 2.085938 -2.449219 C 2.296875 -1.902344 2.628906 -1.496094 3.082031 -1.230469 C 3.53125 -0.960938 4.015625 -0.824219 4.539063 -0.828125 C 5.175781 -0.824219 5.714844 -1.007813 6.15625 -1.378906 C 6.597656 -1.742188 6.898438 -2.289063 7.054688 -3.011719 Z M 7.054688 -3.011719 "/>
</symbol>
<symbol overflow="visible" id="glyph0-30">
<path style="stroke:none;" d="M 0.789063 2.382813 L 0.789063 -6.222656 L 1.75 -6.222656 L 1.75 -5.414063 C 1.976563 -5.730469 2.234375 -5.964844 2.519531 -6.125 C 2.800781 -6.28125 3.144531 -6.363281 3.554688 -6.363281 C 4.082031 -6.363281 4.550781 -6.226563 4.960938 -5.953125 C 5.363281 -5.679688 5.671875 -5.292969 5.882813 -4.792969 C 6.089844 -4.292969 6.191406 -3.746094 6.195313 -3.15625 C 6.191406 -2.519531 6.078125 -1.945313 5.851563 -1.4375 C 5.621094 -0.921875 5.289063 -0.53125 4.855469 -0.265625 C 4.417969 0.0078125 3.960938 0.140625 3.480469 0.140625 C 3.128906 0.140625 2.8125 0.0664063 2.535156 -0.0820313 C 2.253906 -0.230469 2.023438 -0.417969 1.84375 -0.644531 L 1.84375 2.382813 Z M 1.746094 -3.078125 C 1.746094 -2.273438 1.90625 -1.683594 2.230469 -1.300781 C 2.554688 -0.917969 2.949219 -0.726563 3.410156 -0.726563 C 3.878906 -0.726563 4.277344 -0.921875 4.613281 -1.320313 C 4.945313 -1.710938 5.113281 -2.328125 5.117188 -3.164063 C 5.113281 -3.953125 4.949219 -4.546875 4.625 -4.945313 C 4.296875 -5.339844 3.910156 -5.535156 3.457031 -5.539063 C 3.003906 -5.535156 2.605469 -5.324219 2.261719 -4.90625 C 1.917969 -4.484375 1.746094 -3.875 1.746094 -3.078125 Z M 1.746094 -3.078125 "/>
</symbol>
<symbol overflow="visible" id="glyph0-31">
<path style="stroke:none;" d="M 4.46875 0 L 3.414063 0 L 3.414063 -6.71875 C 3.160156 -6.476563 2.828125 -6.234375 2.414063 -5.996094 C 2 -5.75 1.628906 -5.570313 1.304688 -5.449219 L 1.304688 -6.46875 C 1.894531 -6.742188 2.410156 -7.078125 2.851563 -7.476563 C 3.292969 -7.871094 3.605469 -8.253906 3.789063 -8.625 L 4.46875 -8.625 Z M 4.46875 0 "/>
</symbol>
<symbol overflow="visible" id="glyph0-32">
<path style="stroke:none;" d="M 0.5 -4.234375 C 0.496094 -5.246094 0.601563 -6.0625 0.8125 -6.6875 C 1.019531 -7.304688 1.328125 -7.785156 1.742188 -8.121094 C 2.148438 -8.457031 2.667969 -8.625 3.296875 -8.625 C 3.757813 -8.625 4.164063 -8.53125 4.511719 -8.347656 C 4.855469 -8.160156 5.140625 -7.890625 5.371094 -7.542969 C 5.59375 -7.191406 5.773438 -6.765625 5.90625 -6.265625 C 6.035156 -5.761719 6.097656 -5.085938 6.101563 -4.234375 C 6.097656 -3.226563 5.996094 -2.414063 5.789063 -1.796875 C 5.578125 -1.175781 5.265625 -0.695313 4.859375 -0.359375 C 4.445313 -0.0195313 3.925781 0.144531 3.296875 0.148438 C 2.464844 0.144531 1.816406 -0.148438 1.347656 -0.742188 C 0.78125 -1.457031 0.496094 -2.621094 0.5 -4.234375 Z M 1.582031 -4.234375 C 1.582031 -2.824219 1.746094 -1.886719 2.074219 -1.417969 C 2.402344 -0.949219 2.808594 -0.714844 3.296875 -0.71875 C 3.777344 -0.714844 4.183594 -0.949219 4.519531 -1.421875 C 4.847656 -1.886719 5.015625 -2.824219 5.015625 -4.234375 C 5.015625 -5.648438 4.847656 -6.589844 4.519531 -7.054688 C 4.183594 -7.515625 3.773438 -7.746094 3.289063 -7.75 C 2.800781 -7.746094 2.414063 -7.542969 2.125 -7.136719 C 1.761719 -6.613281 1.582031 -5.644531 1.582031 -4.234375 Z M 1.582031 -4.234375 "/>
</symbol>
<symbol overflow="visible" id="glyph0-33">
<path style="stroke:none;" d="M 3.09375 -0.945313 L 3.246094 -0.0117188 C 2.949219 0.0507813 2.683594 0.0820313 2.449219 0.0820313 C 2.066406 0.0820313 1.769531 0.0234375 1.558594 -0.0976563 C 1.347656 -0.21875 1.199219 -0.378906 1.113281 -0.578125 C 1.027344 -0.773438 0.984375 -1.1875 0.984375 -1.820313 L 0.984375 -5.402344 L 0.210938 -5.402344 L 0.210938 -6.222656 L 0.984375 -6.222656 L 0.984375 -7.765625 L 2.03125 -8.398438 L 2.03125 -6.222656 L 3.09375 -6.222656 L 3.09375 -5.402344 L 2.03125 -5.402344 L 2.03125 -1.765625 C 2.027344 -1.460938 2.046875 -1.269531 2.085938 -1.183594 C 2.125 -1.097656 2.183594 -1.027344 2.269531 -0.976563 C 2.351563 -0.925781 2.472656 -0.902344 2.632813 -0.902344 C 2.742188 -0.902344 2.898438 -0.914063 3.09375 -0.945313 Z M 3.09375 -0.945313 "/>
</symbol>
<symbol overflow="visible" id="glyph0-34">
<path style="stroke:none;" d="M -0.015625 0 L 3.28125 -8.589844 L 4.507813 -8.589844 L 8.023438 0 L 6.726563 0 L 5.726563 -2.601563 L 2.132813 -2.601563 L 1.1875 0 Z M 2.460938 -3.527344 L 5.375 -3.527344 L 4.476563 -5.90625 C 4.203125 -6.628906 4 -7.222656 3.867188 -7.6875 C 3.757813 -7.132813 3.601563 -6.585938 3.40625 -6.046875 Z M 2.460938 -3.527344 "/>
</symbol>
<symbol overflow="visible" id="glyph0-35">
<path style="stroke:none;" d="M 0.367188 -1.859375 L 1.414063 -2.023438 C 1.46875 -1.601563 1.632813 -1.28125 1.902344 -1.058594 C 2.167969 -0.835938 2.542969 -0.726563 3.023438 -0.726563 C 3.507813 -0.726563 3.867188 -0.824219 4.101563 -1.023438 C 4.335938 -1.21875 4.453125 -1.449219 4.453125 -1.71875 C 4.453125 -1.953125 4.347656 -2.140625 4.140625 -2.28125 C 3.996094 -2.371094 3.636719 -2.492188 3.0625 -2.636719 C 2.289063 -2.832031 1.753906 -3 1.457031 -3.144531 C 1.15625 -3.285156 0.929688 -3.480469 0.777344 -3.734375 C 0.621094 -3.984375 0.542969 -4.265625 0.546875 -4.570313 C 0.542969 -4.84375 0.605469 -5.097656 0.734375 -5.339844 C 0.859375 -5.574219 1.035156 -5.773438 1.253906 -5.929688 C 1.417969 -6.046875 1.640625 -6.148438 1.925781 -6.234375 C 2.207031 -6.320313 2.511719 -6.363281 2.835938 -6.363281 C 3.324219 -6.363281 3.75 -6.292969 4.121094 -6.152344 C 4.488281 -6.011719 4.761719 -5.820313 4.9375 -5.578125 C 5.113281 -5.335938 5.234375 -5.015625 5.304688 -4.617188 L 4.273438 -4.476563 C 4.222656 -4.796875 4.085938 -5.046875 3.863281 -5.226563 C 3.636719 -5.40625 3.320313 -5.496094 2.914063 -5.496094 C 2.425781 -5.496094 2.082031 -5.414063 1.875 -5.253906 C 1.664063 -5.09375 1.558594 -4.90625 1.5625 -4.695313 C 1.558594 -4.554688 1.601563 -4.433594 1.695313 -4.324219 C 1.773438 -4.210938 1.910156 -4.117188 2.097656 -4.042969 C 2.203125 -4.003906 2.511719 -3.914063 3.03125 -3.773438 C 3.773438 -3.574219 4.292969 -3.410156 4.589844 -3.285156 C 4.878906 -3.15625 5.113281 -2.972656 5.285156 -2.730469 C 5.453125 -2.488281 5.535156 -2.1875 5.539063 -1.828125 C 5.535156 -1.476563 5.433594 -1.144531 5.230469 -0.832031 C 5.023438 -0.519531 4.726563 -0.277344 4.339844 -0.113281 C 3.953125 0.0585938 3.515625 0.140625 3.03125 0.140625 C 2.21875 0.140625 1.601563 -0.0273438 1.179688 -0.363281 C 0.753906 -0.699219 0.484375 -1.195313 0.367188 -1.859375 Z M 0.367188 -1.859375 "/>
</symbol>
<symbol overflow="visible" id="glyph0-36">
<path style="stroke:none;" d="M 0.597656 0.515625 L 1.625 0.667969 C 1.664063 0.980469 1.785156 1.210938 1.980469 1.359375 C 2.242188 1.554688 2.597656 1.652344 3.054688 1.652344 C 3.539063 1.652344 3.917969 1.554688 4.183594 1.359375 C 4.449219 1.164063 4.628906 0.890625 4.722656 0.539063 C 4.777344 0.324219 4.800781 -0.125 4.796875 -0.8125 C 4.335938 -0.269531 3.761719 0 3.078125 0 C 2.21875 0 1.558594 -0.308594 1.089844 -0.925781 C 0.621094 -1.542969 0.386719 -2.28125 0.386719 -3.148438 C 0.386719 -3.738281 0.492188 -4.285156 0.707031 -4.789063 C 0.921875 -5.289063 1.234375 -5.679688 1.644531 -5.953125 C 2.050781 -6.226563 2.53125 -6.363281 3.082031 -6.363281 C 3.816406 -6.363281 4.421875 -6.066406 4.898438 -5.472656 L 4.898438 -6.222656 L 5.871094 -6.222656 L 5.871094 -0.84375 C 5.871094 0.125 5.769531 0.808594 5.574219 1.214844 C 5.375 1.613281 5.0625 1.933594 4.636719 2.171875 C 4.207031 2.402344 3.683594 2.519531 3.058594 2.523438 C 2.316406 2.519531 1.714844 2.351563 1.257813 2.023438 C 0.800781 1.6875 0.582031 1.1875 0.597656 0.515625 Z M 1.46875 -3.222656 C 1.464844 -2.40625 1.628906 -1.808594 1.957031 -1.4375 C 2.28125 -1.058594 2.6875 -0.871094 3.175781 -0.875 C 3.660156 -0.871094 4.066406 -1.058594 4.394531 -1.433594 C 4.722656 -1.804688 4.886719 -2.390625 4.886719 -3.1875 C 4.886719 -3.945313 4.714844 -4.519531 4.378906 -4.910156 C 4.039063 -5.296875 3.632813 -5.488281 3.15625 -5.492188 C 2.683594 -5.488281 2.285156 -5.296875 1.960938 -4.917969 C 1.628906 -4.535156 1.464844 -3.972656 1.46875 -3.222656 Z M 1.46875 -3.222656 "/>
</symbol>
<symbol overflow="visible" id="glyph0-37">
<path style="stroke:none;" d="M 0.503906 -2.265625 L 1.558594 -2.40625 C 1.679688 -1.808594 1.882813 -1.378906 2.175781 -1.113281 C 2.464844 -0.847656 2.820313 -0.714844 3.242188 -0.71875 C 3.734375 -0.714844 4.152344 -0.886719 4.496094 -1.234375 C 4.832031 -1.574219 5.003906 -2 5.007813 -2.515625 C 5.003906 -2.996094 4.847656 -3.394531 4.535156 -3.710938 C 4.21875 -4.023438 3.816406 -4.183594 3.328125 -4.183594 C 3.128906 -4.183594 2.878906 -4.144531 2.585938 -4.066406 L 2.703125 -4.992188 C 2.765625 -4.984375 2.824219 -4.980469 2.871094 -4.980469 C 3.320313 -4.980469 3.722656 -5.097656 4.085938 -5.332031 C 4.441406 -5.566406 4.621094 -5.925781 4.625 -6.414063 C 4.621094 -6.800781 4.492188 -7.121094 4.230469 -7.375 C 3.964844 -7.628906 3.625 -7.757813 3.21875 -7.757813 C 2.804688 -7.757813 2.464844 -7.628906 2.191406 -7.371094 C 1.917969 -7.113281 1.742188 -6.726563 1.664063 -6.210938 L 0.609375 -6.398438 C 0.738281 -7.105469 1.03125 -7.652344 1.488281 -8.042969 C 1.941406 -8.429688 2.507813 -8.625 3.195313 -8.625 C 3.660156 -8.625 4.09375 -8.523438 4.488281 -8.324219 C 4.878906 -8.121094 5.179688 -7.847656 5.390625 -7.5 C 5.601563 -7.148438 5.707031 -6.777344 5.707031 -6.390625 C 5.707031 -6.019531 5.605469 -5.683594 5.40625 -5.378906 C 5.207031 -5.074219 4.914063 -4.832031 4.523438 -4.652344 C 5.03125 -4.535156 5.425781 -4.289063 5.707031 -3.921875 C 5.988281 -3.546875 6.128906 -3.085938 6.128906 -2.539063 C 6.128906 -1.785156 5.855469 -1.148438 5.308594 -0.628906 C 4.761719 -0.105469 4.070313 0.152344 3.234375 0.152344 C 2.476563 0.152344 1.847656 -0.0703125 1.355469 -0.519531 C 0.855469 -0.96875 0.574219 -1.550781 0.503906 -2.265625 Z M 0.503906 -2.265625 "/>
</symbol>
<symbol overflow="visible" id="glyph0-38">
<path style="stroke:none;" d="M 3.878906 0 L 3.878906 -2.054688 L 0.152344 -2.054688 L 0.152344 -3.023438 L 4.070313 -8.589844 L 4.933594 -8.589844 L 4.933594 -3.023438 L 6.09375 -3.023438 L 6.09375 -2.054688 L 4.933594 -2.054688 L 4.933594 0 Z M 3.878906 -3.023438 L 3.878906 -6.898438 L 1.1875 -3.023438 Z M 3.878906 -3.023438 "/>
</symbol>
<symbol overflow="visible" id="glyph0-39">
<path style="stroke:none;" d="M 5.96875 -6.484375 L 4.921875 -6.40625 C 4.828125 -6.8125 4.695313 -7.113281 4.523438 -7.304688 C 4.234375 -7.605469 3.882813 -7.757813 3.46875 -7.757813 C 3.132813 -7.757813 2.835938 -7.664063 2.585938 -7.476563 C 2.25 -7.234375 1.988281 -6.878906 1.796875 -6.414063 C 1.605469 -5.949219 1.507813 -5.289063 1.5 -4.429688 C 1.753906 -4.8125 2.0625 -5.097656 2.433594 -5.289063 C 2.796875 -5.472656 3.183594 -5.566406 3.585938 -5.570313 C 4.289063 -5.566406 4.886719 -5.308594 5.382813 -4.792969 C 5.875 -4.277344 6.121094 -3.609375 6.125 -2.789063 C 6.121094 -2.25 6.003906 -1.746094 5.773438 -1.285156 C 5.539063 -0.820313 5.222656 -0.46875 4.816406 -0.222656 C 4.410156 0.0234375 3.949219 0.144531 3.433594 0.148438 C 2.554688 0.144531 1.835938 -0.175781 1.285156 -0.820313 C 0.726563 -1.46875 0.449219 -2.535156 0.453125 -4.019531 C 0.449219 -5.675781 0.757813 -6.882813 1.371094 -7.640625 C 1.902344 -8.296875 2.621094 -8.625 3.53125 -8.625 C 4.207031 -8.625 4.761719 -8.433594 5.195313 -8.054688 C 5.625 -7.675781 5.882813 -7.152344 5.96875 -6.484375 Z M 1.664063 -2.78125 C 1.664063 -2.417969 1.738281 -2.070313 1.894531 -1.738281 C 2.042969 -1.40625 2.261719 -1.152344 2.542969 -0.980469 C 2.820313 -0.800781 3.109375 -0.714844 3.414063 -0.71875 C 3.859375 -0.714844 4.242188 -0.894531 4.566406 -1.257813 C 4.882813 -1.613281 5.042969 -2.101563 5.046875 -2.726563 C 5.042969 -3.316406 4.886719 -3.785156 4.570313 -4.128906 C 4.25 -4.46875 3.851563 -4.640625 3.375 -4.640625 C 2.898438 -4.640625 2.492188 -4.46875 2.160156 -4.128906 C 1.828125 -3.785156 1.664063 -3.335938 1.664063 -2.78125 Z M 1.664063 -2.78125 "/>
</symbol>
<symbol overflow="visible" id="glyph0-40">
<path style="stroke:none;" d="M 6.5625 -8.589844 L 7.699219 -8.589844 L 7.699219 -3.625 C 7.699219 -2.761719 7.601563 -2.078125 7.40625 -1.570313 C 7.210938 -1.0625 6.855469 -0.648438 6.347656 -0.328125 C 5.835938 -0.0117188 5.167969 0.144531 4.34375 0.148438 C 3.53125 0.144531 2.875 0.0078125 2.367188 -0.269531 C 1.855469 -0.546875 1.488281 -0.945313 1.273438 -1.472656 C 1.050781 -1.996094 0.941406 -2.714844 0.945313 -3.625 L 0.945313 -8.589844 L 2.078125 -8.589844 L 2.078125 -3.632813 C 2.074219 -2.886719 2.144531 -2.335938 2.285156 -1.984375 C 2.425781 -1.628906 2.664063 -1.355469 3 -1.164063 C 3.335938 -0.972656 3.75 -0.878906 4.242188 -0.878906 C 5.078125 -0.878906 5.671875 -1.066406 6.027344 -1.445313 C 6.382813 -1.824219 6.5625 -2.554688 6.5625 -3.632813 Z M 6.5625 -8.589844 "/>
</symbol>
<symbol overflow="visible" id="glyph0-41">
<path style="stroke:none;" d="M 0.914063 0 L 0.914063 -8.589844 L 2.078125 -8.589844 L 6.59375 -1.84375 L 6.59375 -8.589844 L 7.679688 -8.589844 L 7.679688 0 L 6.515625 0 L 2.003906 -6.75 L 2.003906 0 Z M 0.914063 0 "/>
</symbol>
<symbol overflow="visible" id="glyph0-42">
<path style="stroke:none;" d="M 3.34375 0 L 3.34375 -3.640625 L 0.0351563 -8.589844 L 1.417969 -8.589844 L 3.109375 -6 C 3.417969 -5.515625 3.710938 -5.03125 3.984375 -4.546875 C 4.242188 -4.992188 4.554688 -5.496094 4.921875 -6.0625 L 6.585938 -8.589844 L 7.910156 -8.589844 L 4.484375 -3.640625 L 4.484375 0 Z M 3.34375 0 "/>
</symbol>
</g>
<clipPath id="clip1">
  <path d="M 59.039063 59.039063 L 474.757813 59.039063 L 474.757813 287.558594 L 59.039063 287.558594 Z M 59.039063 59.039063 "/>
</clipPath>
</defs>
<g id="surface26">
<rect x="0" y="0" width="504" height="360" style="fill:rgb(100%,100%,100%);fill-opacity:1;stroke:none;"/>
<g clip-path="url(#clip1)" clip-rule="nonzero">
<g style="fill:rgb(0%,0%,0%);fill-opacity:1;">
  <use xlink:href="#glyph0-0" x="308.339844" y="70.570313"/>
</g>
<path style="fill:none;stroke-width:0.75;stroke-linecap:round;stroke-linejoin:round;stroke:rgb(0%,0%,0%);stroke-opacity:1;stroke-miterlimit:10;" d="M 185.398438 132.753906 L 185.398438 67.464844 L 434.398438 67.464844 L 434.398438 132.753906 "/>
<path style="fill:none;stroke-width:0.75;stroke-linecap:round;stroke-linejoin:round;stroke:rgb(0%,0%,0%);stroke-opacity:1;stroke-miterlimit:10;" d="M 96.554688 169.726563 L 96.554688 132.753906 L 274.246094 132.753906 L 274.246094 169.726563 "/>
<path style="fill:none;stroke-width:0.75;stroke-linecap:round;stroke-linejoin:round;stroke:rgb(0%,0%,0%);stroke-opacity:1;stroke-miterlimit:10;" d="M 81.785156 179.265625 L 81.785156 169.726563 L 111.324219 169.726563 L 111.324219 179.265625 "/>
<path style="fill:none;stroke-width:0.75;stroke-linecap:round;stroke-linejoin:round;stroke:rgb(0%,0%,0%);stroke-opacity:1;stroke-miterlimit:10;" d="M 74.398438 185.179688 L 74.398438 179.265625 L 89.167969 179.265625 L 89.167969 185.179688 "/>
<path style="fill:none;stroke-width:0.75;stroke-linecap:round;stroke-linejoin:round;stroke:rgb(0%,0%,0%);stroke-opacity:1;stroke-miterlimit:10;" d="M 89.167969 185.179688 L 89.167969 179.265625 L 74.398438 179.265625 L 74.398438 185.179688 "/>
<path style="fill:none;stroke-width:0.75;stroke-linecap:round;stroke-linejoin:round;stroke:rgb(0%,0%,0%);stroke-opacity:1;stroke-miterlimit:10;" d="M 111.324219 179.265625 L 111.324219 169.726563 L 81.785156 169.726563 L 81.785156 179.265625 "/>
<path style="fill:none;stroke-width:0.75;stroke-linecap:round;stroke-linejoin:round;stroke:rgb(0%,0%,0%);stroke-opacity:1;stroke-miterlimit:10;" d="M 103.9375 186.117188 L 103.9375 179.265625 L 118.707031 179.265625 L 118.707031 186.117188 "/>
<path style="fill:none;stroke-width:0.75;stroke-linecap:round;stroke-linejoin:round;stroke:rgb(0%,0%,0%);stroke-opacity:1;stroke-miterlimit:10;" d="M 118.707031 186.117188 L 118.707031 179.265625 L 103.9375 179.265625 L 103.9375 186.117188 "/>
<path style="fill:none;stroke-width:0.75;stroke-linecap:round;stroke-linejoin:round;stroke:rgb(0%,0%,0%);stroke-opacity:1;stroke-miterlimit:10;" d="M 274.246094 169.726563 L 274.246094 132.753906 L 96.554688 132.753906 L 96.554688 169.726563 "/>
<path style="fill:none;stroke-width:0.75;stroke-linecap:round;stroke-linejoin:round;stroke:rgb(0%,0%,0%);stroke-opacity:1;stroke-miterlimit:10;" d="M 200.863281 196.351563 L 200.863281 169.726563 L 347.628906 169.726563 L 347.628906 196.351563 "/>
<path style="fill:none;stroke-width:0.75;stroke-linecap:round;stroke-linejoin:round;stroke:rgb(0%,0%,0%);stroke-opacity:1;stroke-miterlimit:10;" d="M 164.863281 215.929688 L 164.863281 196.351563 L 236.863281 196.351563 L 236.863281 215.929688 "/>
<path style="fill:none;stroke-width:0.75;stroke-linecap:round;stroke-linejoin:round;stroke:rgb(0%,0%,0%);stroke-opacity:1;stroke-miterlimit:10;" d="M 151.9375 228.585938 L 151.9375 215.929688 L 177.785156 215.929688 L 177.785156 228.585938 "/>
<path style="fill:none;stroke-width:0.75;stroke-linecap:round;stroke-linejoin:round;stroke:rgb(0%,0%,0%);stroke-opacity:1;stroke-miterlimit:10;" d="M 140.863281 237.609375 L 140.863281 228.585938 L 163.015625 228.585938 L 163.015625 237.609375 "/>
<path style="fill:none;stroke-width:0.75;stroke-linecap:round;stroke-linejoin:round;stroke:rgb(0%,0%,0%);stroke-opacity:1;stroke-miterlimit:10;" d="M 133.476563 249.351563 L 133.476563 237.609375 L 148.246094 237.609375 L 148.246094 249.351563 "/>
<path style="fill:none;stroke-width:0.75;stroke-linecap:round;stroke-linejoin:round;stroke:rgb(0%,0%,0%);stroke-opacity:1;stroke-miterlimit:10;" d="M 148.246094 249.351563 L 148.246094 237.609375 L 133.476563 237.609375 L 133.476563 249.351563 "/>
<path style="fill:none;stroke-width:0.75;stroke-linecap:round;stroke-linejoin:round;stroke:rgb(0%,0%,0%);stroke-opacity:1;stroke-miterlimit:10;" d="M 163.015625 237.609375 L 163.015625 228.585938 L 140.863281 228.585938 L 140.863281 237.609375 "/>
<path style="fill:none;stroke-width:0.75;stroke-linecap:round;stroke-linejoin:round;stroke:rgb(0%,0%,0%);stroke-opacity:1;stroke-miterlimit:10;" d="M 177.785156 228.585938 L 177.785156 215.929688 L 151.9375 215.929688 L 151.9375 228.585938 "/>
<path style="fill:none;stroke-width:0.75;stroke-linecap:round;stroke-linejoin:round;stroke:rgb(0%,0%,0%);stroke-opacity:1;stroke-miterlimit:10;" d="M 236.863281 215.929688 L 236.863281 196.351563 L 164.863281 196.351563 L 164.863281 215.929688 "/>
<path style="fill:none;stroke-width:0.75;stroke-linecap:round;stroke-linejoin:round;stroke:rgb(0%,0%,0%);stroke-opacity:1;stroke-miterlimit:10;" d="M 205.476563 241.753906 L 205.476563 215.929688 L 268.246094 215.929688 L 268.246094 241.753906 "/>
<path style="fill:none;stroke-width:0.75;stroke-linecap:round;stroke-linejoin:round;stroke:rgb(0%,0%,0%);stroke-opacity:1;stroke-miterlimit:10;" d="M 192.554688 253.671875 L 192.554688 241.753906 L 218.398438 241.753906 L 218.398438 253.671875 "/>
<path style="fill:none;stroke-width:0.75;stroke-linecap:round;stroke-linejoin:round;stroke:rgb(0%,0%,0%);stroke-opacity:1;stroke-miterlimit:10;" d="M 218.398438 253.671875 L 218.398438 241.753906 L 192.554688 241.753906 L 192.554688 253.671875 "/>
<path style="fill:none;stroke-width:0.75;stroke-linecap:round;stroke-linejoin:round;stroke:rgb(0%,0%,0%);stroke-opacity:1;stroke-miterlimit:10;" d="M 207.324219 267.515625 L 207.324219 253.671875 L 229.476563 253.671875 L 229.476563 267.515625 "/>
<path style="fill:none;stroke-width:0.75;stroke-linecap:round;stroke-linejoin:round;stroke:rgb(0%,0%,0%);stroke-opacity:1;stroke-miterlimit:10;" d="M 229.476563 267.515625 L 229.476563 253.671875 L 207.324219 253.671875 L 207.324219 267.515625 "/>
<path style="fill:none;stroke-width:0.75;stroke-linecap:round;stroke-linejoin:round;stroke:rgb(0%,0%,0%);stroke-opacity:1;stroke-miterlimit:10;" d="M 222.09375 278.132813 L 222.09375 267.515625 L 236.863281 267.515625 L 236.863281 278.132813 "/>
<path style="fill:none;stroke-width:0.75;stroke-linecap:round;stroke-linejoin:round;stroke:rgb(0%,0%,0%);stroke-opacity:1;stroke-miterlimit:10;" d="M 236.863281 278.132813 L 236.863281 267.515625 L 222.09375 267.515625 L 222.09375 278.132813 "/>
<path style="fill:none;stroke-width:0.75;stroke-linecap:round;stroke-linejoin:round;stroke:rgb(0%,0%,0%);stroke-opacity:1;stroke-miterlimit:10;" d="M 268.246094 241.753906 L 268.246094 215.929688 L 205.476563 215.929688 L 205.476563 241.753906 "/>
<path style="fill:none;stroke-width:0.75;stroke-linecap:round;stroke-linejoin:round;stroke:rgb(0%,0%,0%);stroke-opacity:1;stroke-miterlimit:10;" d="M 251.628906 255.914063 L 251.628906 241.753906 L 284.863281 241.753906 L 284.863281 255.914063 "/>
<path style="fill:none;stroke-width:0.75;stroke-linecap:round;stroke-linejoin:round;stroke:rgb(0%,0%,0%);stroke-opacity:1;stroke-miterlimit:10;" d="M 284.863281 255.914063 L 284.863281 241.753906 L 251.628906 241.753906 L 251.628906 255.914063 "/>
<path style="fill:none;stroke-width:0.75;stroke-linecap:round;stroke-linejoin:round;stroke:rgb(0%,0%,0%);stroke-opacity:1;stroke-miterlimit:10;" d="M 273.785156 265.300781 L 273.785156 255.914063 L 295.9375 255.914063 L 295.9375 265.300781 "/>
<path style="fill:none;stroke-width:0.75;stroke-linecap:round;stroke-linejoin:round;stroke:rgb(0%,0%,0%);stroke-opacity:1;stroke-miterlimit:10;" d="M 266.398438 271.289063 L 266.398438 265.300781 L 281.167969 265.300781 L 281.167969 271.289063 "/>
<path style="fill:none;stroke-width:0.75;stroke-linecap:round;stroke-linejoin:round;stroke:rgb(0%,0%,0%);stroke-opacity:1;stroke-miterlimit:10;" d="M 281.167969 271.289063 L 281.167969 265.300781 L 266.398438 265.300781 L 266.398438 271.289063 "/>
<path style="fill:none;stroke-width:0.75;stroke-linecap:round;stroke-linejoin:round;stroke:rgb(0%,0%,0%);stroke-opacity:1;stroke-miterlimit:10;" d="M 295.9375 265.300781 L 295.9375 255.914063 L 273.785156 255.914063 L 273.785156 265.300781 "/>
<path style="fill:none;stroke-width:0.75;stroke-linecap:round;stroke-linejoin:round;stroke:rgb(0%,0%,0%);stroke-opacity:1;stroke-miterlimit:10;" d="M 347.628906 196.351563 L 347.628906 169.726563 L 200.863281 169.726563 L 200.863281 196.351563 "/>
<path style="fill:none;stroke-width:0.75;stroke-linecap:round;stroke-linejoin:round;stroke:rgb(0%,0%,0%);stroke-opacity:1;stroke-miterlimit:10;" d="M 329.167969 211.78125 L 329.167969 196.351563 L 366.09375 196.351563 L 366.09375 211.78125 "/>
<path style="fill:none;stroke-width:0.75;stroke-linecap:round;stroke-linejoin:round;stroke:rgb(0%,0%,0%);stroke-opacity:1;stroke-miterlimit:10;" d="M 318.09375 219.078125 L 318.09375 211.78125 L 340.246094 211.78125 L 340.246094 219.078125 "/>
<path style="fill:none;stroke-width:0.75;stroke-linecap:round;stroke-linejoin:round;stroke:rgb(0%,0%,0%);stroke-opacity:1;stroke-miterlimit:10;" d="M 310.707031 225.421875 L 310.707031 219.078125 L 325.476563 219.078125 L 325.476563 225.421875 "/>
<path style="fill:none;stroke-width:0.75;stroke-linecap:round;stroke-linejoin:round;stroke:rgb(0%,0%,0%);stroke-opacity:1;stroke-miterlimit:10;" d="M 325.476563 225.421875 L 325.476563 219.078125 L 310.707031 219.078125 L 310.707031 225.421875 "/>
<path style="fill:none;stroke-width:0.75;stroke-linecap:round;stroke-linejoin:round;stroke:rgb(0%,0%,0%);stroke-opacity:1;stroke-miterlimit:10;" d="M 340.246094 219.078125 L 340.246094 211.78125 L 318.09375 211.78125 L 318.09375 219.078125 "/>
<path style="fill:none;stroke-width:0.75;stroke-linecap:round;stroke-linejoin:round;stroke:rgb(0%,0%,0%);stroke-opacity:1;stroke-miterlimit:10;" d="M 366.09375 211.78125 L 366.09375 196.351563 L 329.167969 196.351563 L 329.167969 211.78125 "/>
<path style="fill:none;stroke-width:0.75;stroke-linecap:round;stroke-linejoin:round;stroke:rgb(0%,0%,0%);stroke-opacity:1;stroke-miterlimit:10;" d="M 355.015625 221.082031 L 355.015625 211.78125 L 377.167969 211.78125 L 377.167969 221.082031 "/>
<path style="fill:none;stroke-width:0.75;stroke-linecap:round;stroke-linejoin:round;stroke:rgb(0%,0%,0%);stroke-opacity:1;stroke-miterlimit:10;" d="M 377.167969 221.082031 L 377.167969 211.78125 L 355.015625 211.78125 L 355.015625 221.082031 "/>
<path style="fill:none;stroke-width:0.75;stroke-linecap:round;stroke-linejoin:round;stroke:rgb(0%,0%,0%);stroke-opacity:1;stroke-miterlimit:10;" d="M 369.785156 236.027344 L 369.785156 221.082031 L 384.554688 221.082031 L 384.554688 236.027344 "/>
<path style="fill:none;stroke-width:0.75;stroke-linecap:round;stroke-linejoin:round;stroke:rgb(0%,0%,0%);stroke-opacity:1;stroke-miterlimit:10;" d="M 384.554688 236.027344 L 384.554688 221.082031 L 369.785156 221.082031 L 369.785156 236.027344 "/>
<path style="fill:none;stroke-width:0.75;stroke-linecap:round;stroke-linejoin:round;stroke:rgb(0%,0%,0%);stroke-opacity:1;stroke-miterlimit:10;" d="M 434.398438 132.753906 L 434.398438 67.464844 L 185.398438 67.464844 L 185.398438 132.753906 "/>
<path style="fill:none;stroke-width:0.75;stroke-linecap:round;stroke-linejoin:round;stroke:rgb(0%,0%,0%);stroke-opacity:1;stroke-miterlimit:10;" d="M 417.785156 153.226563 L 417.785156 132.753906 L 451.015625 132.753906 L 451.015625 153.226563 "/>
<path style="fill:none;stroke-width:0.75;stroke-linecap:round;stroke-linejoin:round;stroke:rgb(0%,0%,0%);stroke-opacity:1;stroke-miterlimit:10;" d="M 406.707031 164.34375 L 406.707031 153.226563 L 428.863281 153.226563 L 428.863281 164.34375 "/>
<path style="fill:none;stroke-width:0.75;stroke-linecap:round;stroke-linejoin:round;stroke:rgb(0%,0%,0%);stroke-opacity:1;stroke-miterlimit:10;" d="M 399.324219 175.789063 L 399.324219 164.34375 L 414.09375 164.34375 L 414.09375 175.789063 "/>
<path style="fill:none;stroke-width:0.75;stroke-linecap:round;stroke-linejoin:round;stroke:rgb(0%,0%,0%);stroke-opacity:1;stroke-miterlimit:10;" d="M 414.09375 175.789063 L 414.09375 164.34375 L 399.324219 164.34375 L 399.324219 175.789063 "/>
<path style="fill:none;stroke-width:0.75;stroke-linecap:round;stroke-linejoin:round;stroke:rgb(0%,0%,0%);stroke-opacity:1;stroke-miterlimit:10;" d="M 428.863281 164.34375 L 428.863281 153.226563 L 406.707031 153.226563 L 406.707031 164.34375 "/>
<path style="fill:none;stroke-width:0.75;stroke-linecap:round;stroke-linejoin:round;stroke:rgb(0%,0%,0%);stroke-opacity:1;stroke-miterlimit:10;" d="M 451.015625 153.226563 L 451.015625 132.753906 L 417.785156 132.753906 L 417.785156 153.226563 "/>
<path style="fill:none;stroke-width:0.75;stroke-linecap:round;stroke-linejoin:round;stroke:rgb(0%,0%,0%);stroke-opacity:1;stroke-miterlimit:10;" d="M 443.628906 160.683594 L 443.628906 153.226563 L 458.398438 153.226563 L 458.398438 160.683594 "/>
<path style="fill:none;stroke-width:0.75;stroke-linecap:round;stroke-linejoin:round;stroke:rgb(0%,0%,0%);stroke-opacity:1;stroke-miterlimit:10;" d="M 458.398438 160.683594 L 458.398438 153.226563 L 443.628906 153.226563 L 443.628906 160.683594 "/>
</g>
<g style="fill:rgb(0%,0%,0%);fill-opacity:1;">
  <use xlink:href="#glyph0-1" x="244.863281" y="63.785156"/>
  <use xlink:href="#glyph0-2" x="252.867188" y="63.785156"/>
  <use xlink:href="#glyph0-3" x="259.541016" y="63.785156"/>
  <use xlink:href="#glyph0-4" x="266.214844" y="63.785156"/>
  <use xlink:href="#glyph0-5" x="268.880859" y="63.785156"/>
  <use xlink:href="#glyph0-3" x="274.880859" y="63.785156"/>
  <use xlink:href="#glyph0-6" x="281.554688" y="63.785156"/>
  <use xlink:href="#glyph0-7" x="288.228516" y="63.785156"/>
  <use xlink:href="#glyph0-8" x="294.902344" y="63.785156"/>
  <use xlink:href="#glyph0-9" x="300.902344" y="63.785156"/>
  <use xlink:href="#glyph0-10" x="304.236328" y="63.785156"/>
  <use xlink:href="#glyph0-11" x="307.570313" y="63.785156"/>
  <use xlink:href="#glyph0-12" x="315.574219" y="63.785156"/>
  <use xlink:href="#glyph0-13" x="322.248047" y="63.785156"/>
  <use xlink:href="#glyph0-14" x="328.921875" y="63.785156"/>
  <use xlink:href="#glyph0-15" x="332.255859" y="63.785156"/>
  <use xlink:href="#glyph0-3" x="342.251953" y="63.785156"/>
  <use xlink:href="#glyph0-13" x="348.925781" y="63.785156"/>
  <use xlink:href="#glyph0-16" x="355.599609" y="63.785156"/>
  <use xlink:href="#glyph0-17" x="358.265625" y="63.785156"/>
  <use xlink:href="#glyph0-18" x="364.939453" y="63.785156"/>
</g>
<g style="fill:rgb(0%,0%,0%);fill-opacity:1;">
  <use xlink:href="#glyph0-19" x="153.210938" y="129.792969"/>
  <use xlink:href="#glyph0-20" x="161.214844" y="129.792969"/>
  <use xlink:href="#glyph0-16" x="165.210938" y="129.792969"/>
  <use xlink:href="#glyph0-8" x="167.876953" y="129.792969"/>
  <use xlink:href="#glyph0-3" x="173.876953" y="129.792969"/>
  <use xlink:href="#glyph0-10" x="180.550781" y="129.792969"/>
  <use xlink:href="#glyph0-21" x="183.884766" y="129.792969"/>
  <use xlink:href="#glyph0-10" x="190.892578" y="129.792969"/>
  <use xlink:href="#glyph0-22" x="194.226563" y="129.792969"/>
  <use xlink:href="#glyph0-23" x="200.900391" y="129.792969"/>
  <use xlink:href="#glyph0-24" x="207.574219" y="129.792969"/>
  <use xlink:href="#glyph0-25" x="210.908203" y="129.792969"/>
</g>
<g style="fill:rgb(0%,0%,0%);fill-opacity:1;">
  <use xlink:href="#glyph0-26" x="63.367188" y="166.75"/>
  <use xlink:href="#glyph0-27" x="66.701172" y="166.75"/>
  <use xlink:href="#glyph0-8" x="73.375" y="166.75"/>
  <use xlink:href="#glyph0-7" x="79.375" y="166.75"/>
  <use xlink:href="#glyph0-18" x="86.048828" y="166.75"/>
  <use xlink:href="#glyph0-3" x="96.044922" y="166.75"/>
  <use xlink:href="#glyph0-10" x="102.71875" y="166.75"/>
  <use xlink:href="#glyph0-21" x="106.052734" y="166.75"/>
  <use xlink:href="#glyph0-10" x="113.060547" y="166.75"/>
  <use xlink:href="#glyph0-25" x="116.394531" y="166.75"/>
  <use xlink:href="#glyph0-28" x="123.068359" y="166.75"/>
</g>
<g style="fill:rgb(0%,0%,0%);fill-opacity:1;">
  <use xlink:href="#glyph0-29" x="30.257813" y="175.242188"/>
  <use xlink:href="#glyph0-7" x="38.923828" y="175.242188"/>
  <use xlink:href="#glyph0-18" x="45.597656" y="175.242188"/>
  <use xlink:href="#glyph0-30" x="55.59375" y="175.242188"/>
  <use xlink:href="#glyph0-19" x="62.267578" y="175.242188"/>
  <use xlink:href="#glyph0-20" x="70.271484" y="175.242188"/>
  <use xlink:href="#glyph0-16" x="74.267578" y="175.242188"/>
  <use xlink:href="#glyph0-8" x="76.933594" y="175.242188"/>
  <use xlink:href="#glyph0-3" x="82.933594" y="175.242188"/>
  <use xlink:href="#glyph0-10" x="89.607422" y="175.242188"/>
  <use xlink:href="#glyph0-21" x="92.941406" y="175.242188"/>
  <use xlink:href="#glyph0-10" x="99.949219" y="175.242188"/>
  <use xlink:href="#glyph0-31" x="103.283203" y="175.242188"/>
  <use xlink:href="#glyph0-31" x="109.957031" y="175.242188"/>
  <use xlink:href="#glyph0-32" x="116.630859" y="175.242188"/>
  <use xlink:href="#glyph0-24" x="123.304688" y="175.242188"/>
  <use xlink:href="#glyph0-25" x="126.638672" y="175.242188"/>
</g>
<g style="fill:rgb(0%,0%,0%);fill-opacity:1;">
  <use xlink:href="#glyph0-19" x="61.113281" y="175.1875"/>
  <use xlink:href="#glyph0-7" x="69.117188" y="175.1875"/>
  <use xlink:href="#glyph0-30" x="75.791016" y="175.1875"/>
  <use xlink:href="#glyph0-17" x="82.464844" y="175.1875"/>
  <use xlink:href="#glyph0-4" x="89.138672" y="175.1875"/>
  <use xlink:href="#glyph0-12" x="91.804688" y="175.1875"/>
  <use xlink:href="#glyph0-33" x="98.478516" y="175.1875"/>
  <use xlink:href="#glyph0-16" x="101.8125" y="175.1875"/>
  <use xlink:href="#glyph0-7" x="104.478516" y="175.1875"/>
  <use xlink:href="#glyph0-27" x="111.152344" y="175.1875"/>
  <use xlink:href="#glyph0-10" x="117.826172" y="175.1875"/>
  <use xlink:href="#glyph0-21" x="121.160156" y="175.1875"/>
  <use xlink:href="#glyph0-10" x="128.167969" y="175.1875"/>
  <use xlink:href="#glyph0-23" x="131.501953" y="175.1875"/>
  <use xlink:href="#glyph0-32" x="138.175781" y="175.1875"/>
  <use xlink:href="#glyph0-28" x="144.849609" y="175.1875"/>
  <use xlink:href="#glyph0-24" x="151.523438" y="175.1875"/>
  <use xlink:href="#glyph0-25" x="154.857422" y="175.1875"/>
</g>
<g style="fill:rgb(0%,0%,0%);fill-opacity:1;">
  <use xlink:href="#glyph0-34" x="226.050781" y="165.578125"/>
  <use xlink:href="#glyph0-13" x="234.054688" y="165.578125"/>
  <use xlink:href="#glyph0-5" x="240.728516" y="165.578125"/>
  <use xlink:href="#glyph0-3" x="246.728516" y="165.578125"/>
  <use xlink:href="#glyph0-20" x="253.402344" y="165.578125"/>
  <use xlink:href="#glyph0-33" x="257.398438" y="165.578125"/>
  <use xlink:href="#glyph0-16" x="260.732422" y="165.578125"/>
  <use xlink:href="#glyph0-35" x="263.398438" y="165.578125"/>
  <use xlink:href="#glyph0-16" x="269.398438" y="165.578125"/>
  <use xlink:href="#glyph0-27" x="272.064453" y="165.578125"/>
  <use xlink:href="#glyph0-36" x="278.738281" y="165.578125"/>
  <use xlink:href="#glyph0-10" x="285.412109" y="165.578125"/>
  <use xlink:href="#glyph0-21" x="288.746094" y="165.578125"/>
  <use xlink:href="#glyph0-10" x="295.753906" y="165.578125"/>
  <use xlink:href="#glyph0-31" x="299.087891" y="165.578125"/>
  <use xlink:href="#glyph0-37" x="305.761719" y="165.578125"/>
  <use xlink:href="#glyph0-24" x="312.435547" y="165.578125"/>
  <use xlink:href="#glyph0-25" x="315.769531" y="165.578125"/>
</g>
<g style="fill:rgb(0%,0%,0%);fill-opacity:1;">
  <use xlink:href="#glyph0-29" x="149.335938" y="192.328125"/>
  <use xlink:href="#glyph0-7" x="158.001953" y="192.328125"/>
  <use xlink:href="#glyph0-18" x="164.675781" y="192.328125"/>
  <use xlink:href="#glyph0-30" x="174.671875" y="192.328125"/>
  <use xlink:href="#glyph0-19" x="181.345703" y="192.328125"/>
  <use xlink:href="#glyph0-20" x="189.349609" y="192.328125"/>
  <use xlink:href="#glyph0-16" x="193.345703" y="192.328125"/>
  <use xlink:href="#glyph0-8" x="196.011719" y="192.328125"/>
  <use xlink:href="#glyph0-3" x="202.011719" y="192.328125"/>
  <use xlink:href="#glyph0-10" x="208.685547" y="192.328125"/>
  <use xlink:href="#glyph0-21" x="212.019531" y="192.328125"/>
  <use xlink:href="#glyph0-10" x="219.027344" y="192.328125"/>
  <use xlink:href="#glyph0-31" x="222.361328" y="192.328125"/>
  <use xlink:href="#glyph0-23" x="229.035156" y="192.328125"/>
  <use xlink:href="#glyph0-38" x="235.708984" y="192.328125"/>
  <use xlink:href="#glyph0-24" x="242.382813" y="192.328125"/>
  <use xlink:href="#glyph0-25" x="245.716797" y="192.328125"/>
</g>
<g style="fill:rgb(0%,0%,0%);fill-opacity:1;">
  <use xlink:href="#glyph0-19" x="129.339844" y="212.96875"/>
  <use xlink:href="#glyph0-20" x="137.34375" y="212.96875"/>
  <use xlink:href="#glyph0-16" x="141.339844" y="212.96875"/>
  <use xlink:href="#glyph0-8" x="144.005859" y="212.96875"/>
  <use xlink:href="#glyph0-3" x="150.005859" y="212.96875"/>
  <use xlink:href="#glyph0-10" x="156.679688" y="212.96875"/>
  <use xlink:href="#glyph0-21" x="160.013672" y="212.96875"/>
  <use xlink:href="#glyph0-10" x="167.021484" y="212.96875"/>
  <use xlink:href="#glyph0-31" x="170.355469" y="212.96875"/>
  <use xlink:href="#glyph0-32" x="177.029297" y="212.96875"/>
  <use xlink:href="#glyph0-39" x="183.703125" y="212.96875"/>
  <use xlink:href="#glyph0-24" x="190.376953" y="212.96875"/>
  <use xlink:href="#glyph0-25" x="193.710938" y="212.96875"/>
</g>
<g style="fill:rgb(0%,0%,0%);fill-opacity:1;">
  <use xlink:href="#glyph0-19" x="106.734375" y="224.503906"/>
  <use xlink:href="#glyph0-7" x="114.738281" y="224.503906"/>
  <use xlink:href="#glyph0-30" x="121.412109" y="224.503906"/>
  <use xlink:href="#glyph0-17" x="128.085938" y="224.503906"/>
  <use xlink:href="#glyph0-4" x="134.759766" y="224.503906"/>
  <use xlink:href="#glyph0-12" x="137.425781" y="224.503906"/>
  <use xlink:href="#glyph0-33" x="144.099609" y="224.503906"/>
  <use xlink:href="#glyph0-16" x="147.433594" y="224.503906"/>
  <use xlink:href="#glyph0-7" x="150.099609" y="224.503906"/>
  <use xlink:href="#glyph0-27" x="156.773438" y="224.503906"/>
  <use xlink:href="#glyph0-10" x="163.447266" y="224.503906"/>
  <use xlink:href="#glyph0-21" x="166.78125" y="224.503906"/>
  <use xlink:href="#glyph0-10" x="173.789063" y="224.503906"/>
  <use xlink:href="#glyph0-31" x="177.123047" y="224.503906"/>
  <use xlink:href="#glyph0-28" x="183.796875" y="224.503906"/>
  <use xlink:href="#glyph0-28" x="190.470703" y="224.503906"/>
</g>
<g style="fill:rgb(0%,0%,0%);fill-opacity:1;">
  <use xlink:href="#glyph0-26" x="102.671875" y="234.648438"/>
  <use xlink:href="#glyph0-27" x="106.005859" y="234.648438"/>
  <use xlink:href="#glyph0-8" x="112.679688" y="234.648438"/>
  <use xlink:href="#glyph0-7" x="118.679688" y="234.648438"/>
  <use xlink:href="#glyph0-18" x="125.353516" y="234.648438"/>
  <use xlink:href="#glyph0-3" x="135.349609" y="234.648438"/>
  <use xlink:href="#glyph0-10" x="142.023438" y="234.648438"/>
  <use xlink:href="#glyph0-21" x="145.357422" y="234.648438"/>
  <use xlink:href="#glyph0-10" x="152.365234" y="234.648438"/>
  <use xlink:href="#glyph0-39" x="155.699219" y="234.648438"/>
  <use xlink:href="#glyph0-32" x="162.373047" y="234.648438"/>
  <use xlink:href="#glyph0-24" x="169.046875" y="234.648438"/>
  <use xlink:href="#glyph0-25" x="172.380859" y="234.648438"/>
</g>
<g style="fill:rgb(0%,0%,0%);fill-opacity:1;">
  <use xlink:href="#glyph0-19" x="201.339844" y="212.96875"/>
  <use xlink:href="#glyph0-20" x="209.34375" y="212.96875"/>
  <use xlink:href="#glyph0-16" x="213.339844" y="212.96875"/>
  <use xlink:href="#glyph0-8" x="216.005859" y="212.96875"/>
  <use xlink:href="#glyph0-3" x="222.005859" y="212.96875"/>
  <use xlink:href="#glyph0-10" x="228.679688" y="212.96875"/>
  <use xlink:href="#glyph0-21" x="232.013672" y="212.96875"/>
  <use xlink:href="#glyph0-10" x="239.021484" y="212.96875"/>
  <use xlink:href="#glyph0-31" x="242.355469" y="212.96875"/>
  <use xlink:href="#glyph0-23" x="249.029297" y="212.96875"/>
  <use xlink:href="#glyph0-23" x="255.703125" y="212.96875"/>
  <use xlink:href="#glyph0-24" x="262.376953" y="212.96875"/>
  <use xlink:href="#glyph0-25" x="265.710938" y="212.96875"/>
</g>
<g style="fill:rgb(0%,0%,0%);fill-opacity:1;">
  <use xlink:href="#glyph0-1" x="163.445313" y="238.851563"/>
  <use xlink:href="#glyph0-2" x="171.449219" y="238.851563"/>
  <use xlink:href="#glyph0-3" x="178.123047" y="238.851563"/>
  <use xlink:href="#glyph0-4" x="184.796875" y="238.851563"/>
  <use xlink:href="#glyph0-5" x="187.462891" y="238.851563"/>
  <use xlink:href="#glyph0-3" x="193.462891" y="238.851563"/>
  <use xlink:href="#glyph0-6" x="200.136719" y="238.851563"/>
  <use xlink:href="#glyph0-7" x="206.810547" y="238.851563"/>
  <use xlink:href="#glyph0-8" x="213.484375" y="238.851563"/>
  <use xlink:href="#glyph0-9" x="219.484375" y="238.851563"/>
  <use xlink:href="#glyph0-10" x="222.818359" y="238.851563"/>
  <use xlink:href="#glyph0-11" x="226.152344" y="238.851563"/>
  <use xlink:href="#glyph0-12" x="234.15625" y="238.851563"/>
  <use xlink:href="#glyph0-13" x="240.830078" y="238.851563"/>
</g>
<g style="fill:rgb(0%,0%,0%);fill-opacity:1;">
  <use xlink:href="#glyph0-19" x="182.875" y="250.710938"/>
  <use xlink:href="#glyph0-20" x="190.878906" y="250.710938"/>
  <use xlink:href="#glyph0-16" x="194.875" y="250.710938"/>
  <use xlink:href="#glyph0-8" x="197.541016" y="250.710938"/>
  <use xlink:href="#glyph0-3" x="203.541016" y="250.710938"/>
  <use xlink:href="#glyph0-10" x="210.214844" y="250.710938"/>
  <use xlink:href="#glyph0-21" x="213.548828" y="250.710938"/>
  <use xlink:href="#glyph0-10" x="220.556641" y="250.710938"/>
  <use xlink:href="#glyph0-31" x="223.890625" y="250.710938"/>
  <use xlink:href="#glyph0-32" x="230.564453" y="250.710938"/>
  <use xlink:href="#glyph0-22" x="237.238281" y="250.710938"/>
  <use xlink:href="#glyph0-24" x="243.912109" y="250.710938"/>
  <use xlink:href="#glyph0-25" x="247.246094" y="250.710938"/>
</g>
<g style="fill:rgb(0%,0%,0%);fill-opacity:1;">
  <use xlink:href="#glyph0-34" x="200.285156" y="263.363281"/>
  <use xlink:href="#glyph0-36" x="208.289063" y="263.363281"/>
  <use xlink:href="#glyph0-3" x="214.962891" y="263.363281"/>
  <use xlink:href="#glyph0-10" x="221.636719" y="263.363281"/>
  <use xlink:href="#glyph0-21" x="224.970703" y="263.363281"/>
  <use xlink:href="#glyph0-10" x="231.978516" y="263.363281"/>
  <use xlink:href="#glyph0-38" x="235.3125" y="263.363281"/>
  <use xlink:href="#glyph0-22" x="241.986328" y="263.363281"/>
  <use xlink:href="#glyph0-24" x="248.660156" y="263.363281"/>
  <use xlink:href="#glyph0-25" x="251.994141" y="263.363281"/>
</g>
<g style="fill:rgb(0%,0%,0%);fill-opacity:1;">
  <use xlink:href="#glyph0-29" x="216.71875" y="237.730469"/>
  <use xlink:href="#glyph0-7" x="225.384766" y="237.730469"/>
  <use xlink:href="#glyph0-18" x="232.058594" y="237.730469"/>
  <use xlink:href="#glyph0-30" x="242.054688" y="237.730469"/>
  <use xlink:href="#glyph0-19" x="248.728516" y="237.730469"/>
  <use xlink:href="#glyph0-20" x="256.732422" y="237.730469"/>
  <use xlink:href="#glyph0-16" x="260.728516" y="237.730469"/>
  <use xlink:href="#glyph0-8" x="263.394531" y="237.730469"/>
  <use xlink:href="#glyph0-3" x="269.394531" y="237.730469"/>
  <use xlink:href="#glyph0-10" x="276.068359" y="237.730469"/>
  <use xlink:href="#glyph0-21" x="279.402344" y="237.730469"/>
  <use xlink:href="#glyph0-10" x="286.410156" y="237.730469"/>
  <use xlink:href="#glyph0-31" x="289.744141" y="237.730469"/>
  <use xlink:href="#glyph0-38" x="296.417969" y="237.730469"/>
  <use xlink:href="#glyph0-28" x="303.091797" y="237.730469"/>
  <use xlink:href="#glyph0-24" x="309.765625" y="237.730469"/>
  <use xlink:href="#glyph0-25" x="313.099609" y="237.730469"/>
</g>
<g style="fill:rgb(0%,0%,0%);fill-opacity:1;">
  <use xlink:href="#glyph0-19" x="254.34375" y="252.957031"/>
  <use xlink:href="#glyph0-20" x="262.347656" y="252.957031"/>
  <use xlink:href="#glyph0-16" x="266.34375" y="252.957031"/>
  <use xlink:href="#glyph0-8" x="269.009766" y="252.957031"/>
  <use xlink:href="#glyph0-3" x="275.009766" y="252.957031"/>
  <use xlink:href="#glyph0-10" x="281.683594" y="252.957031"/>
  <use xlink:href="#glyph0-21" x="285.017578" y="252.957031"/>
  <use xlink:href="#glyph0-10" x="292.025391" y="252.957031"/>
  <use xlink:href="#glyph0-31" x="295.359375" y="252.957031"/>
  <use xlink:href="#glyph0-38" x="302.033203" y="252.957031"/>
  <use xlink:href="#glyph0-28" x="308.707031" y="252.957031"/>
</g>
<g style="fill:rgb(0%,0%,0%);fill-opacity:1;">
  <use xlink:href="#glyph0-29" x="222.257813" y="261.277344"/>
  <use xlink:href="#glyph0-7" x="230.923828" y="261.277344"/>
  <use xlink:href="#glyph0-18" x="237.597656" y="261.277344"/>
  <use xlink:href="#glyph0-30" x="247.59375" y="261.277344"/>
  <use xlink:href="#glyph0-19" x="254.267578" y="261.277344"/>
  <use xlink:href="#glyph0-20" x="262.271484" y="261.277344"/>
  <use xlink:href="#glyph0-16" x="266.267578" y="261.277344"/>
  <use xlink:href="#glyph0-8" x="268.933594" y="261.277344"/>
  <use xlink:href="#glyph0-3" x="274.933594" y="261.277344"/>
  <use xlink:href="#glyph0-10" x="281.607422" y="261.277344"/>
  <use xlink:href="#glyph0-21" x="284.941406" y="261.277344"/>
  <use xlink:href="#glyph0-10" x="291.949219" y="261.277344"/>
  <use xlink:href="#glyph0-31" x="295.283203" y="261.277344"/>
  <use xlink:href="#glyph0-25" x="301.957031" y="261.277344"/>
  <use xlink:href="#glyph0-23" x="308.630859" y="261.277344"/>
  <use xlink:href="#glyph0-24" x="315.304688" y="261.277344"/>
  <use xlink:href="#glyph0-25" x="318.638672" y="261.277344"/>
</g>
<g style="fill:rgb(0%,0%,0%);fill-opacity:1;">
  <use xlink:href="#glyph0-34" x="318.4375" y="192.183594"/>
  <use xlink:href="#glyph0-36" x="326.441406" y="192.183594"/>
  <use xlink:href="#glyph0-3" x="333.115234" y="192.183594"/>
  <use xlink:href="#glyph0-10" x="339.789063" y="192.183594"/>
  <use xlink:href="#glyph0-21" x="343.123047" y="192.183594"/>
  <use xlink:href="#glyph0-10" x="350.130859" y="192.183594"/>
  <use xlink:href="#glyph0-25" x="353.464844" y="192.183594"/>
  <use xlink:href="#glyph0-38" x="360.138672" y="192.183594"/>
  <use xlink:href="#glyph0-24" x="366.8125" y="192.183594"/>
  <use xlink:href="#glyph0-25" x="370.146484" y="192.183594"/>
</g>
<g style="fill:rgb(0%,0%,0%);fill-opacity:1;">
  <use xlink:href="#glyph0-29" x="277.640625" y="207.757813"/>
  <use xlink:href="#glyph0-7" x="286.306641" y="207.757813"/>
  <use xlink:href="#glyph0-18" x="292.980469" y="207.757813"/>
  <use xlink:href="#glyph0-30" x="302.976563" y="207.757813"/>
  <use xlink:href="#glyph0-19" x="309.650391" y="207.757813"/>
  <use xlink:href="#glyph0-20" x="317.654297" y="207.757813"/>
  <use xlink:href="#glyph0-16" x="321.650391" y="207.757813"/>
  <use xlink:href="#glyph0-8" x="324.316406" y="207.757813"/>
  <use xlink:href="#glyph0-3" x="330.316406" y="207.757813"/>
  <use xlink:href="#glyph0-10" x="336.990234" y="207.757813"/>
  <use xlink:href="#glyph0-21" x="340.324219" y="207.757813"/>
  <use xlink:href="#glyph0-10" x="347.332031" y="207.757813"/>
  <use xlink:href="#glyph0-31" x="350.666016" y="207.757813"/>
  <use xlink:href="#glyph0-37" x="357.339844" y="207.757813"/>
  <use xlink:href="#glyph0-32" x="364.013672" y="207.757813"/>
  <use xlink:href="#glyph0-24" x="370.6875" y="207.757813"/>
  <use xlink:href="#glyph0-25" x="374.021484" y="207.757813"/>
</g>
<g style="fill:rgb(0%,0%,0%);fill-opacity:1;">
  <use xlink:href="#glyph0-26" x="281.570313" y="216.117188"/>
  <use xlink:href="#glyph0-27" x="284.904297" y="216.117188"/>
  <use xlink:href="#glyph0-8" x="291.578125" y="216.117188"/>
  <use xlink:href="#glyph0-7" x="297.578125" y="216.117188"/>
  <use xlink:href="#glyph0-18" x="304.251953" y="216.117188"/>
  <use xlink:href="#glyph0-3" x="314.248047" y="216.117188"/>
  <use xlink:href="#glyph0-10" x="320.921875" y="216.117188"/>
  <use xlink:href="#glyph0-21" x="324.255859" y="216.117188"/>
  <use xlink:href="#glyph0-10" x="331.263672" y="216.117188"/>
  <use xlink:href="#glyph0-31" x="334.597656" y="216.117188"/>
  <use xlink:href="#glyph0-32" x="341.271484" y="216.117188"/>
  <use xlink:href="#glyph0-32" x="347.945313" y="216.117188"/>
</g>
<g style="fill:rgb(0%,0%,0%);fill-opacity:1;">
  <use xlink:href="#glyph0-29" x="314.566406" y="207.757813"/>
  <use xlink:href="#glyph0-7" x="323.232422" y="207.757813"/>
  <use xlink:href="#glyph0-18" x="329.90625" y="207.757813"/>
  <use xlink:href="#glyph0-30" x="339.902344" y="207.757813"/>
  <use xlink:href="#glyph0-19" x="346.576172" y="207.757813"/>
  <use xlink:href="#glyph0-20" x="354.580078" y="207.757813"/>
  <use xlink:href="#glyph0-16" x="358.576172" y="207.757813"/>
  <use xlink:href="#glyph0-8" x="361.242188" y="207.757813"/>
  <use xlink:href="#glyph0-3" x="367.242188" y="207.757813"/>
  <use xlink:href="#glyph0-10" x="373.916016" y="207.757813"/>
  <use xlink:href="#glyph0-21" x="377.25" y="207.757813"/>
  <use xlink:href="#glyph0-10" x="384.257813" y="207.757813"/>
  <use xlink:href="#glyph0-31" x="387.591797" y="207.757813"/>
  <use xlink:href="#glyph0-23" x="394.265625" y="207.757813"/>
  <use xlink:href="#glyph0-23" x="400.939453" y="207.757813"/>
  <use xlink:href="#glyph0-24" x="407.613281" y="207.757813"/>
  <use xlink:href="#glyph0-25" x="410.947266" y="207.757813"/>
</g>
<g style="fill:rgb(0%,0%,0%);fill-opacity:1;">
  <use xlink:href="#glyph0-19" x="346.648438" y="218.121094"/>
  <use xlink:href="#glyph0-20" x="354.652344" y="218.121094"/>
  <use xlink:href="#glyph0-16" x="358.648438" y="218.121094"/>
  <use xlink:href="#glyph0-8" x="361.314453" y="218.121094"/>
  <use xlink:href="#glyph0-3" x="367.314453" y="218.121094"/>
  <use xlink:href="#glyph0-10" x="373.988281" y="218.121094"/>
  <use xlink:href="#glyph0-21" x="377.322266" y="218.121094"/>
  <use xlink:href="#glyph0-10" x="384.330078" y="218.121094"/>
  <use xlink:href="#glyph0-31" x="387.664063" y="218.121094"/>
  <use xlink:href="#glyph0-23" x="394.337891" y="218.121094"/>
  <use xlink:href="#glyph0-25" x="401.011719" y="218.121094"/>
</g>
<g style="fill:rgb(0%,0%,0%);fill-opacity:1;">
  <use xlink:href="#glyph0-19" x="403.878906" y="129.792969"/>
  <use xlink:href="#glyph0-20" x="411.882813" y="129.792969"/>
  <use xlink:href="#glyph0-16" x="415.878906" y="129.792969"/>
  <use xlink:href="#glyph0-8" x="418.544922" y="129.792969"/>
  <use xlink:href="#glyph0-3" x="424.544922" y="129.792969"/>
  <use xlink:href="#glyph0-10" x="431.21875" y="129.792969"/>
  <use xlink:href="#glyph0-21" x="434.552734" y="129.792969"/>
  <use xlink:href="#glyph0-10" x="441.560547" y="129.792969"/>
  <use xlink:href="#glyph0-31" x="444.894531" y="129.792969"/>
  <use xlink:href="#glyph0-37" x="451.568359" y="129.792969"/>
  <use xlink:href="#glyph0-25" x="458.242188" y="129.792969"/>
</g>
<g style="fill:rgb(0%,0%,0%);fill-opacity:1;">
  <use xlink:href="#glyph0-40" x="398.445313" y="150.324219"/>
  <use xlink:href="#glyph0-1" x="407.111328" y="150.324219"/>
  <use xlink:href="#glyph0-9" x="415.115234" y="150.324219"/>
  <use xlink:href="#glyph0-10" x="418.449219" y="150.324219"/>
  <use xlink:href="#glyph0-41" x="421.783203" y="150.324219"/>
  <use xlink:href="#glyph0-7" x="430.449219" y="150.324219"/>
</g>
<g style="fill:rgb(0%,0%,0%);fill-opacity:1;">
  <use xlink:href="#glyph0-19" x="376.1875" y="161.382813"/>
  <use xlink:href="#glyph0-20" x="384.191406" y="161.382813"/>
  <use xlink:href="#glyph0-16" x="388.1875" y="161.382813"/>
  <use xlink:href="#glyph0-8" x="390.853516" y="161.382813"/>
  <use xlink:href="#glyph0-3" x="396.853516" y="161.382813"/>
  <use xlink:href="#glyph0-10" x="403.527344" y="161.382813"/>
  <use xlink:href="#glyph0-21" x="406.861328" y="161.382813"/>
  <use xlink:href="#glyph0-10" x="413.869141" y="161.382813"/>
  <use xlink:href="#glyph0-31" x="417.203125" y="161.382813"/>
  <use xlink:href="#glyph0-32" x="423.876953" y="161.382813"/>
  <use xlink:href="#glyph0-22" x="430.550781" y="161.382813"/>
</g>
<g style="fill:rgb(0%,0%,0%);fill-opacity:1;">
  <use xlink:href="#glyph0-26" x="417.828125" y="150.265625"/>
  <use xlink:href="#glyph0-27" x="421.162109" y="150.265625"/>
  <use xlink:href="#glyph0-8" x="427.835938" y="150.265625"/>
  <use xlink:href="#glyph0-7" x="433.835938" y="150.265625"/>
  <use xlink:href="#glyph0-18" x="440.509766" y="150.265625"/>
  <use xlink:href="#glyph0-3" x="450.505859" y="150.265625"/>
  <use xlink:href="#glyph0-10" x="457.179688" y="150.265625"/>
  <use xlink:href="#glyph0-21" x="460.513672" y="150.265625"/>
  <use xlink:href="#glyph0-10" x="467.521484" y="150.265625"/>
  <use xlink:href="#glyph0-38" x="470.855469" y="150.265625"/>
  <use xlink:href="#glyph0-39" x="477.529297" y="150.265625"/>
</g>
<g style="fill:rgb(0%,0%,0%);fill-opacity:1;">
  <use xlink:href="#glyph0-41" x="66.726563" y="196.605469"/>
  <use xlink:href="#glyph0-7" x="75.392578" y="196.605469"/>
</g>
<g style="fill:rgb(0%,0%,0%);fill-opacity:1;">
  <use xlink:href="#glyph0-42" x="78.828125" y="196.605469"/>
  <use xlink:href="#glyph0-3" x="86.832031" y="196.605469"/>
  <use xlink:href="#glyph0-35" x="93.505859" y="196.605469"/>
</g>
<g style="fill:rgb(0%,0%,0%);fill-opacity:1;">
  <use xlink:href="#glyph0-42" x="93.597656" y="197.542969"/>
  <use xlink:href="#glyph0-3" x="101.601563" y="197.542969"/>
  <use xlink:href="#glyph0-35" x="108.275391" y="197.542969"/>
</g>
<g style="fill:rgb(0%,0%,0%);fill-opacity:1;">
  <use xlink:href="#glyph0-42" x="108.367188" y="197.542969"/>
  <use xlink:href="#glyph0-3" x="116.371094" y="197.542969"/>
  <use xlink:href="#glyph0-35" x="123.044922" y="197.542969"/>
</g>
<g style="fill:rgb(0%,0%,0%);fill-opacity:1;">
  <use xlink:href="#glyph0-41" x="125.804688" y="260.777344"/>
  <use xlink:href="#glyph0-7" x="134.470703" y="260.777344"/>
</g>
<g style="fill:rgb(0%,0%,0%);fill-opacity:1;">
  <use xlink:href="#glyph0-42" x="137.90625" y="260.777344"/>
  <use xlink:href="#glyph0-3" x="145.910156" y="260.777344"/>
  <use xlink:href="#glyph0-35" x="152.583984" y="260.777344"/>
</g>
<g style="fill:rgb(0%,0%,0%);fill-opacity:1;">
  <use xlink:href="#glyph0-41" x="155.34375" y="249.03125"/>
  <use xlink:href="#glyph0-7" x="164.009766" y="249.03125"/>
</g>
<g style="fill:rgb(0%,0%,0%);fill-opacity:1;">
  <use xlink:href="#glyph0-41" x="170.113281" y="240.007813"/>
  <use xlink:href="#glyph0-7" x="178.779297" y="240.007813"/>
</g>
<g style="fill:rgb(0%,0%,0%);fill-opacity:1;">
  <use xlink:href="#glyph0-41" x="184.882813" y="265.09375"/>
  <use xlink:href="#glyph0-7" x="193.548828" y="265.09375"/>
</g>
<g style="fill:rgb(0%,0%,0%);fill-opacity:1;">
  <use xlink:href="#glyph0-42" x="196.984375" y="278.9375"/>
  <use xlink:href="#glyph0-3" x="204.988281" y="278.9375"/>
  <use xlink:href="#glyph0-35" x="211.662109" y="278.9375"/>
</g>
<g style="fill:rgb(0%,0%,0%);fill-opacity:1;">
  <use xlink:href="#glyph0-42" x="211.753906" y="289.558594"/>
  <use xlink:href="#glyph0-3" x="219.757813" y="289.558594"/>
  <use xlink:href="#glyph0-35" x="226.431641" y="289.558594"/>
</g>
<g style="fill:rgb(0%,0%,0%);fill-opacity:1;">
  <use xlink:href="#glyph0-41" x="229.191406" y="289.558594"/>
  <use xlink:href="#glyph0-7" x="237.857422" y="289.558594"/>
</g>
<g style="fill:rgb(0%,0%,0%);fill-opacity:1;">
  <use xlink:href="#glyph0-41" x="243.957031" y="267.339844"/>
  <use xlink:href="#glyph0-7" x="252.623047" y="267.339844"/>
</g>
<g style="fill:rgb(0%,0%,0%);fill-opacity:1;">
  <use xlink:href="#glyph0-42" x="256.058594" y="282.714844"/>
  <use xlink:href="#glyph0-3" x="264.0625" y="282.714844"/>
  <use xlink:href="#glyph0-35" x="270.736328" y="282.714844"/>
</g>
<g style="fill:rgb(0%,0%,0%);fill-opacity:1;">
  <use xlink:href="#glyph0-41" x="273.496094" y="282.714844"/>
  <use xlink:href="#glyph0-7" x="282.162109" y="282.714844"/>
</g>
<g style="fill:rgb(0%,0%,0%);fill-opacity:1;">
  <use xlink:href="#glyph0-41" x="288.265625" y="276.726563"/>
  <use xlink:href="#glyph0-7" x="296.931641" y="276.726563"/>
</g>
<g style="fill:rgb(0%,0%,0%);fill-opacity:1;">
  <use xlink:href="#glyph0-41" x="303.035156" y="236.847656"/>
  <use xlink:href="#glyph0-7" x="311.701172" y="236.847656"/>
</g>
<g style="fill:rgb(0%,0%,0%);fill-opacity:1;">
  <use xlink:href="#glyph0-42" x="315.136719" y="236.847656"/>
  <use xlink:href="#glyph0-3" x="323.140625" y="236.847656"/>
  <use xlink:href="#glyph0-35" x="329.814453" y="236.847656"/>
</g>
<g style="fill:rgb(0%,0%,0%);fill-opacity:1;">
  <use xlink:href="#glyph0-42" x="329.90625" y="230.503906"/>
  <use xlink:href="#glyph0-3" x="337.910156" y="230.503906"/>
  <use xlink:href="#glyph0-35" x="344.583984" y="230.503906"/>
</g>
<g style="fill:rgb(0%,0%,0%);fill-opacity:1;">
  <use xlink:href="#glyph0-41" x="347.34375" y="232.507813"/>
  <use xlink:href="#glyph0-7" x="356.009766" y="232.507813"/>
</g>
<g style="fill:rgb(0%,0%,0%);fill-opacity:1;">
  <use xlink:href="#glyph0-42" x="359.445313" y="247.453125"/>
  <use xlink:href="#glyph0-3" x="367.449219" y="247.453125"/>
  <use xlink:href="#glyph0-35" x="374.123047" y="247.453125"/>
</g>
<g style="fill:rgb(0%,0%,0%);fill-opacity:1;">
  <use xlink:href="#glyph0-41" x="376.882813" y="247.453125"/>
  <use xlink:href="#glyph0-7" x="385.548828" y="247.453125"/>
</g>
<g style="fill:rgb(0%,0%,0%);fill-opacity:1;">
  <use xlink:href="#glyph0-42" x="388.984375" y="187.210938"/>
  <use xlink:href="#glyph0-3" x="396.988281" y="187.210938"/>
  <use xlink:href="#glyph0-35" x="403.662109" y="187.210938"/>
</g>
<g style="fill:rgb(0%,0%,0%);fill-opacity:1;">
  <use xlink:href="#glyph0-41" x="406.421875" y="187.210938"/>
  <use xlink:href="#glyph0-7" x="415.087891" y="187.210938"/>
</g>
<g style="fill:rgb(0%,0%,0%);fill-opacity:1;">
  <use xlink:href="#glyph0-42" x="418.523438" y="175.765625"/>
  <use xlink:href="#glyph0-3" x="426.527344" y="175.765625"/>
  <use xlink:href="#glyph0-35" x="433.201172" y="175.765625"/>
</g>
<g style="fill:rgb(0%,0%,0%);fill-opacity:1;">
  <use xlink:href="#glyph0-41" x="435.957031" y="172.109375"/>
  <use xlink:href="#glyph0-7" x="444.623047" y="172.109375"/>
</g>
<g style="fill:rgb(0%,0%,0%);fill-opacity:1;">
  <use xlink:href="#glyph0-42" x="448.058594" y="172.109375"/>
  <use xlink:href="#glyph0-3" x="456.0625" y="172.109375"/>
  <use xlink:href="#glyph0-35" x="462.736328" y="172.109375"/>
</g>
</g>
</svg>
