<?xml version="1.0" encoding="UTF-8"?>
<svg xmlns="http://www.w3.org/2000/svg" xmlns:xlink="http://www.w3.org/1999/xlink" width="504pt" height="216pt" viewBox="0 0 504 216" version="1.1">
<defs>
<g>
<symbol overflow="visible" id="glyph0-0">
<path style="stroke:none;" d="M 0.367188 -3.105469 C 0.363281 -3.847656 0.4375 -4.445313 0.59375 -4.902344 C 0.742188 -5.355469 0.972656 -5.707031 1.277344 -5.953125 C 1.578125 -6.199219 1.957031 -6.320313 2.417969 -6.324219 C 2.753906 -6.320313 3.050781 -6.253906 3.308594 -6.121094 C 3.5625 -5.984375 3.773438 -5.789063 3.9375 -5.53125 C 4.101563 -5.273438 4.230469 -4.960938 4.328125 -4.59375 C 4.421875 -4.226563 4.46875 -3.730469 4.472656 -3.105469 C 4.46875 -2.367188 4.394531 -1.769531 4.242188 -1.316406 C 4.089844 -0.859375 3.863281 -0.507813 3.5625 -0.261719 C 3.257813 -0.015625 2.875 0.105469 2.417969 0.109375 C 1.808594 0.105469 1.332031 -0.109375 0.988281 -0.546875 C 0.570313 -1.066406 0.363281 -1.921875 0.367188 -3.105469 Z M 1.160156 -3.105469 C 1.160156 -2.070313 1.28125 -1.378906 1.523438 -1.039063 C 1.765625 -0.695313 2.0625 -0.527344 2.417969 -0.527344 C 2.773438 -0.527344 3.074219 -0.699219 3.316406 -1.042969 C 3.558594 -1.386719 3.679688 -2.074219 3.679688 -3.105469 C 3.679688 -4.144531 3.558594 -4.832031 3.316406 -5.171875 C 3.074219 -5.511719 2.769531 -5.683594 2.410156 -5.683594 C 2.050781 -5.683594 1.769531 -5.53125 1.558594 -5.234375 C 1.292969 -4.84375 1.160156 -4.136719 1.160156 -3.105469 Z M 1.160156 -3.105469 "/>
</symbol>
<symbol overflow="visible" id="glyph0-1">
<path style="stroke:none;" d="M 4.429688 -0.742188 L 4.429688 0 L 0.265625 0 C 0.257813 -0.1875 0.289063 -0.367188 0.355469 -0.539063 C 0.460938 -0.820313 0.628906 -1.097656 0.863281 -1.375 C 1.09375 -1.648438 1.433594 -1.964844 1.878906 -2.328125 C 2.5625 -2.886719 3.023438 -3.332031 3.265625 -3.664063 C 3.5 -3.988281 3.621094 -4.300781 3.625 -4.59375 C 3.621094 -4.898438 3.511719 -5.15625 3.296875 -5.367188 C 3.074219 -5.578125 2.789063 -5.683594 2.441406 -5.683594 C 2.066406 -5.683594 1.769531 -5.570313 1.546875 -5.347656 C 1.320313 -5.125 1.207031 -4.816406 1.207031 -4.421875 L 0.414063 -4.503906 C 0.464844 -5.09375 0.667969 -5.542969 1.027344 -5.855469 C 1.378906 -6.164063 1.855469 -6.320313 2.457031 -6.324219 C 3.058594 -6.320313 3.539063 -6.152344 3.890625 -5.820313 C 4.242188 -5.484375 4.417969 -5.070313 4.421875 -4.578125 C 4.417969 -4.320313 4.367188 -4.074219 4.265625 -3.832031 C 4.164063 -3.589844 3.992188 -3.332031 3.753906 -3.0625 C 3.511719 -2.792969 3.113281 -2.425781 2.5625 -1.957031 C 2.09375 -1.566406 1.796875 -1.300781 1.664063 -1.160156 C 1.53125 -1.019531 1.421875 -0.878906 1.339844 -0.742188 Z M 4.429688 -0.742188 "/>
</symbol>
<symbol overflow="visible" id="glyph0-2">
<path style="stroke:none;" d="M 0.367188 -1.648438 L 1.175781 -1.71875 C 1.234375 -1.320313 1.375 -1.023438 1.59375 -0.824219 C 1.8125 -0.625 2.078125 -0.527344 2.390625 -0.527344 C 2.761719 -0.527344 3.074219 -0.667969 3.335938 -0.949219 C 3.589844 -1.230469 3.71875 -1.601563 3.722656 -2.066406 C 3.71875 -2.503906 3.59375 -2.851563 3.347656 -3.109375 C 3.097656 -3.363281 2.773438 -3.492188 2.375 -3.492188 C 2.125 -3.492188 1.902344 -3.433594 1.703125 -3.320313 C 1.5 -3.207031 1.34375 -3.0625 1.230469 -2.882813 L 0.503906 -2.976563 L 1.113281 -6.214844 L 4.246094 -6.214844 L 4.246094 -5.472656 L 1.730469 -5.472656 L 1.390625 -3.78125 C 1.765625 -4.039063 2.164063 -4.171875 2.582031 -4.175781 C 3.128906 -4.171875 3.59375 -3.980469 3.972656 -3.605469 C 4.351563 -3.222656 4.539063 -2.734375 4.542969 -2.136719 C 4.539063 -1.5625 4.375 -1.070313 4.042969 -0.65625 C 3.636719 -0.148438 3.085938 0.105469 2.390625 0.109375 C 1.816406 0.105469 1.347656 -0.0507813 0.984375 -0.371094 C 0.621094 -0.691406 0.414063 -1.117188 0.367188 -1.648438 Z M 0.367188 -1.648438 "/>
</symbol>
<symbol overflow="visible" id="glyph0-3">
<path style="stroke:none;" d="M 0.417969 -5.472656 L 0.417969 -6.21875 L 4.496094 -6.21875 L 4.496094 -5.617188 C 4.089844 -5.1875 3.691406 -4.621094 3.300781 -3.914063 C 2.902344 -3.203125 2.601563 -2.472656 2.390625 -1.730469 C 2.234375 -1.199219 2.132813 -0.625 2.09375 0 L 1.296875 0 C 1.304688 -0.492188 1.402344 -1.089844 1.589844 -1.792969 C 1.773438 -2.496094 2.042969 -3.171875 2.390625 -3.824219 C 2.738281 -4.476563 3.109375 -5.027344 3.503906 -5.472656 Z M 0.417969 -5.472656 "/>
</symbol>
<symbol overflow="visible" id="glyph0-4">
<path style="stroke:none;" d="M 3.277344 0 L 2.503906 0 L 2.503906 -4.929688 C 2.316406 -4.75 2.074219 -4.574219 1.773438 -4.394531 C 1.46875 -4.214844 1.195313 -4.082031 0.957031 -3.996094 L 0.957031 -4.742188 C 1.386719 -4.941406 1.765625 -5.1875 2.089844 -5.480469 C 2.414063 -5.769531 2.644531 -6.050781 2.78125 -6.324219 L 3.277344 -6.324219 Z M 3.277344 0 "/>
</symbol>
<symbol overflow="visible" id="glyph0-5">
<path style="stroke:none;" d="M 0.671875 0 L 0.671875 -6.300781 L 1.527344 -6.300781 L 4.835938 -1.351563 L 4.835938 -6.300781 L 5.632813 -6.300781 L 5.632813 0 L 4.777344 0 L 1.46875 -4.949219 L 1.46875 0 Z M 0.671875 0 "/>
</symbol>
<symbol overflow="visible" id="glyph0-6">
<path style="stroke:none;" d="M 0.292969 -2.28125 C 0.292969 -3.125 0.527344 -3.753906 0.996094 -4.160156 C 1.386719 -4.496094 1.863281 -4.664063 2.433594 -4.667969 C 3.058594 -4.664063 3.570313 -4.457031 3.96875 -4.050781 C 4.363281 -3.636719 4.5625 -3.070313 4.566406 -2.347656 C 4.5625 -1.757813 4.476563 -1.296875 4.300781 -0.960938 C 4.125 -0.625 3.867188 -0.363281 3.535156 -0.175781 C 3.195313 0.0078125 2.828125 0.0976563 2.433594 0.101563 C 1.789063 0.0976563 1.273438 -0.101563 0.882813 -0.511719 C 0.488281 -0.917969 0.292969 -1.507813 0.292969 -2.28125 Z M 1.085938 -2.28125 C 1.082031 -1.695313 1.210938 -1.257813 1.46875 -0.96875 C 1.722656 -0.671875 2.042969 -0.527344 2.433594 -0.53125 C 2.8125 -0.527344 3.132813 -0.671875 3.390625 -0.96875 C 3.644531 -1.257813 3.773438 -1.707031 3.773438 -2.308594 C 3.773438 -2.871094 3.644531 -3.296875 3.386719 -3.589844 C 3.128906 -3.878906 2.808594 -4.023438 2.433594 -4.027344 C 2.042969 -4.023438 1.722656 -3.878906 1.46875 -3.59375 C 1.210938 -3.300781 1.082031 -2.863281 1.085938 -2.28125 Z M 1.085938 -2.28125 "/>
</symbol>
<symbol overflow="visible" id="glyph0-7">
<path style="stroke:none;" d="M 0.578125 0 L 0.578125 -4.5625 L 1.277344 -4.5625 L 1.277344 -3.914063 C 1.609375 -4.414063 2.089844 -4.664063 2.726563 -4.667969 C 3 -4.664063 3.253906 -4.613281 3.484375 -4.519531 C 3.714844 -4.417969 3.886719 -4.289063 4.003906 -4.128906 C 4.113281 -3.96875 4.195313 -3.777344 4.246094 -3.558594 C 4.273438 -3.410156 4.289063 -3.160156 4.289063 -2.804688 L 4.289063 0 L 3.515625 0 L 3.515625 -2.777344 C 3.515625 -3.089844 3.484375 -3.324219 3.425781 -3.484375 C 3.363281 -3.636719 3.257813 -3.761719 3.105469 -3.855469 C 2.949219 -3.949219 2.769531 -3.996094 2.566406 -3.996094 C 2.234375 -3.996094 1.949219 -3.890625 1.710938 -3.679688 C 1.46875 -3.46875 1.347656 -3.070313 1.351563 -2.492188 L 1.351563 0 Z M 0.578125 0 "/>
</symbol>
<symbol overflow="visible" id="glyph0-8">
<path style="stroke:none;" d="M 0.28125 -1.890625 L 0.28125 -2.667969 L 2.65625 -2.667969 L 2.65625 -1.890625 Z M 0.28125 -1.890625 "/>
</symbol>
<symbol overflow="visible" id="glyph0-9">
<path style="stroke:none;" d="M 2.28125 0 L 2.28125 -5.554688 L 0.207031 -5.554688 L 0.207031 -6.300781 L 5.199219 -6.300781 L 5.199219 -5.554688 L 3.117188 -5.554688 L 3.117188 0 Z M 2.28125 0 "/>
</symbol>
<symbol overflow="visible" id="glyph0-10">
<path style="stroke:none;" d="M 0.570313 0 L 0.570313 -4.5625 L 1.265625 -4.5625 L 1.265625 -3.871094 C 1.445313 -4.191406 1.609375 -4.40625 1.757813 -4.511719 C 1.90625 -4.613281 2.070313 -4.664063 2.257813 -4.667969 C 2.515625 -4.664063 2.78125 -4.582031 3.050781 -4.417969 L 2.785156 -3.699219 C 2.589844 -3.808594 2.402344 -3.867188 2.21875 -3.867188 C 2.046875 -3.867188 1.894531 -3.816406 1.761719 -3.714844 C 1.625 -3.613281 1.527344 -3.472656 1.472656 -3.292969 C 1.382813 -3.015625 1.339844 -2.714844 1.34375 -2.390625 L 1.34375 0 Z M 0.570313 0 "/>
</symbol>
<symbol overflow="visible" id="glyph0-11">
<path style="stroke:none;" d="M 3.558594 -0.5625 C 3.269531 -0.320313 2.996094 -0.148438 2.730469 -0.046875 C 2.464844 0.0507813 2.179688 0.0976563 1.878906 0.101563 C 1.375 0.0976563 0.988281 -0.0195313 0.71875 -0.265625 C 0.449219 -0.507813 0.316406 -0.820313 0.316406 -1.203125 C 0.316406 -1.421875 0.367188 -1.628906 0.46875 -1.816406 C 0.570313 -2 0.703125 -2.148438 0.871094 -2.261719 C 1.03125 -2.371094 1.214844 -2.453125 1.425781 -2.515625 C 1.574219 -2.550781 1.804688 -2.589844 2.113281 -2.628906 C 2.734375 -2.703125 3.195313 -2.792969 3.492188 -2.894531 C 3.492188 -3 3.492188 -3.066406 3.496094 -3.097656 C 3.492188 -3.410156 3.417969 -3.632813 3.277344 -3.765625 C 3.074219 -3.9375 2.78125 -4.023438 2.398438 -4.027344 C 2.03125 -4.023438 1.761719 -3.960938 1.589844 -3.835938 C 1.414063 -3.707031 1.289063 -3.480469 1.207031 -3.160156 L 0.453125 -3.261719 C 0.515625 -3.582031 0.628906 -3.84375 0.789063 -4.042969 C 0.945313 -4.242188 1.171875 -4.394531 1.472656 -4.503906 C 1.769531 -4.609375 2.117188 -4.664063 2.507813 -4.667969 C 2.898438 -4.664063 3.214844 -4.617188 3.457031 -4.527344 C 3.699219 -4.433594 3.878906 -4.320313 3.996094 -4.183594 C 4.109375 -4.042969 4.1875 -3.867188 4.238281 -3.65625 C 4.257813 -3.523438 4.269531 -3.285156 4.273438 -2.945313 L 4.273438 -1.914063 C 4.269531 -1.191406 4.289063 -0.734375 4.324219 -0.546875 C 4.355469 -0.351563 4.417969 -0.171875 4.519531 0 L 3.710938 0 C 3.628906 -0.160156 3.578125 -0.347656 3.558594 -0.5625 Z M 3.492188 -2.289063 C 3.210938 -2.171875 2.789063 -2.074219 2.230469 -2 C 1.910156 -1.949219 1.683594 -1.898438 1.554688 -1.84375 C 1.421875 -1.785156 1.320313 -1.699219 1.25 -1.589844 C 1.175781 -1.476563 1.140625 -1.355469 1.144531 -1.226563 C 1.140625 -1.015625 1.21875 -0.84375 1.378906 -0.707031 C 1.53125 -0.570313 1.761719 -0.503906 2.0625 -0.503906 C 2.359375 -0.503906 2.621094 -0.566406 2.855469 -0.699219 C 3.085938 -0.824219 3.257813 -1.003906 3.367188 -1.234375 C 3.449219 -1.40625 3.492188 -1.664063 3.492188 -2.007813 Z M 3.492188 -2.289063 "/>
</symbol>
<symbol overflow="visible" id="glyph0-12">
<path style="stroke:none;" d="M 1.847656 0 L 0.113281 -4.5625 L 0.929688 -4.5625 L 1.90625 -1.832031 C 2.007813 -1.53125 2.105469 -1.222656 2.199219 -0.910156 C 2.265625 -1.148438 2.363281 -1.4375 2.488281 -1.777344 L 3.503906 -4.5625 L 4.296875 -4.5625 L 2.570313 0 Z M 1.847656 0 "/>
</symbol>
<symbol overflow="visible" id="glyph0-13">
<path style="stroke:none;" d="M 3.703125 -1.46875 L 4.503906 -1.371094 C 4.375 -0.902344 4.140625 -0.539063 3.800781 -0.285156 C 3.460938 -0.0273438 3.027344 0.0976563 2.496094 0.101563 C 1.828125 0.0976563 1.296875 -0.101563 0.90625 -0.511719 C 0.511719 -0.917969 0.316406 -1.496094 0.320313 -2.242188 C 0.316406 -3.007813 0.515625 -3.605469 0.914063 -4.03125 C 1.308594 -4.453125 1.820313 -4.664063 2.453125 -4.667969 C 3.058594 -4.664063 3.554688 -4.457031 3.945313 -4.042969 C 4.328125 -3.628906 4.523438 -3.042969 4.527344 -2.289063 C 4.523438 -2.242188 4.523438 -2.175781 4.523438 -2.085938 L 1.121094 -2.085938 C 1.144531 -1.582031 1.289063 -1.195313 1.546875 -0.929688 C 1.800781 -0.660156 2.117188 -0.527344 2.5 -0.53125 C 2.78125 -0.527344 3.023438 -0.601563 3.226563 -0.753906 C 3.425781 -0.902344 3.585938 -1.140625 3.703125 -1.46875 Z M 1.164063 -2.71875 L 3.710938 -2.71875 C 3.671875 -3.101563 3.578125 -3.386719 3.421875 -3.582031 C 3.171875 -3.878906 2.851563 -4.03125 2.460938 -4.03125 C 2.105469 -4.03125 1.804688 -3.910156 1.566406 -3.671875 C 1.320313 -3.433594 1.1875 -3.117188 1.164063 -2.71875 Z M 1.164063 -2.71875 "/>
</symbol>
<symbol overflow="visible" id="glyph0-14">
<path style="stroke:none;" d="M 0.5625 0 L 0.5625 -6.300781 L 1.335938 -6.300781 L 1.335938 0 Z M 0.5625 0 "/>
</symbol>
<symbol overflow="visible" id="glyph0-15">
<path style="stroke:none;" d="M -0.132813 1.75 L -0.132813 1.191406 L 4.992188 1.191406 L 4.992188 1.75 Z M -0.132813 1.75 "/>
</symbol>
<symbol overflow="visible" id="glyph0-16">
<path style="stroke:none;" d="M 0.722656 0 L 0.722656 -6.300781 L 4.972656 -6.300781 L 4.972656 -5.554688 L 1.554688 -5.554688 L 1.554688 -3.605469 L 4.511719 -3.605469 L 4.511719 -2.863281 L 1.554688 -2.863281 L 1.554688 0 Z M 0.722656 0 "/>
</symbol>
<symbol overflow="visible" id="glyph0-17">
<path style="stroke:none;" d="M 3.488281 1.75 L 3.488281 -0.484375 C 3.363281 -0.3125 3.195313 -0.171875 2.984375 -0.0625 C 2.765625 0.046875 2.535156 0.0976563 2.292969 0.101563 C 1.75 0.0976563 1.285156 -0.113281 0.894531 -0.546875 C 0.5 -0.976563 0.304688 -1.570313 0.308594 -2.324219 C 0.304688 -2.78125 0.382813 -3.191406 0.546875 -3.554688 C 0.703125 -3.917969 0.933594 -4.195313 1.238281 -4.382813 C 1.535156 -4.570313 1.867188 -4.664063 2.234375 -4.667969 C 2.796875 -4.664063 3.242188 -4.425781 3.566406 -3.953125 L 3.566406 -4.5625 L 4.261719 -4.5625 L 4.261719 1.75 Z M 1.105469 -2.292969 C 1.101563 -1.703125 1.222656 -1.265625 1.472656 -0.972656 C 1.714844 -0.675781 2.011719 -0.527344 2.359375 -0.53125 C 2.683594 -0.527344 2.964844 -0.667969 3.207031 -0.949219 C 3.441406 -1.230469 3.5625 -1.65625 3.566406 -2.226563 C 3.5625 -2.832031 3.4375 -3.285156 3.191406 -3.59375 C 2.9375 -3.898438 2.644531 -4.054688 2.308594 -4.054688 C 1.972656 -4.054688 1.6875 -3.910156 1.453125 -3.628906 C 1.21875 -3.339844 1.101563 -2.894531 1.105469 -2.292969 Z M 1.105469 -2.292969 "/>
</symbol>
<symbol overflow="visible" id="glyph0-18">
<path style="stroke:none;" d="M 3.570313 0 L 3.570313 -0.671875 C 3.210938 -0.15625 2.730469 0.0976563 2.121094 0.101563 C 1.851563 0.0976563 1.597656 0.0507813 1.367188 -0.0507813 C 1.132813 -0.152344 0.960938 -0.28125 0.847656 -0.441406 C 0.734375 -0.59375 0.65625 -0.785156 0.609375 -1.015625 C 0.578125 -1.164063 0.5625 -1.40625 0.5625 -1.734375 L 0.5625 -4.5625 L 1.335938 -4.5625 L 1.335938 -2.03125 C 1.335938 -1.625 1.351563 -1.351563 1.382813 -1.214844 C 1.429688 -1.007813 1.53125 -0.847656 1.691406 -0.734375 C 1.847656 -0.617188 2.042969 -0.5625 2.277344 -0.5625 C 2.507813 -0.5625 2.726563 -0.621094 2.929688 -0.738281 C 3.132813 -0.855469 3.273438 -1.015625 3.359375 -1.226563 C 3.441406 -1.429688 3.484375 -1.726563 3.488281 -2.117188 L 3.488281 -4.5625 L 4.261719 -4.5625 L 4.261719 0 Z M 3.570313 0 "/>
</symbol>
<symbol overflow="visible" id="glyph0-19">
<path style="stroke:none;" d="M 2.269531 -0.691406 L 2.378906 -0.0078125 C 2.160156 0.0390625 1.964844 0.0585938 1.796875 0.0585938 C 1.511719 0.0585938 1.292969 0.015625 1.140625 -0.0742188 C 0.984375 -0.160156 0.875 -0.277344 0.816406 -0.421875 C 0.75 -0.566406 0.71875 -0.871094 0.722656 -1.335938 L 0.722656 -3.960938 L 0.15625 -3.960938 L 0.15625 -4.5625 L 0.722656 -4.5625 L 0.722656 -5.695313 L 1.492188 -6.15625 L 1.492188 -4.5625 L 2.269531 -4.5625 L 2.269531 -3.960938 L 1.492188 -3.960938 L 1.492188 -1.292969 C 1.488281 -1.070313 1.5 -0.929688 1.53125 -0.867188 C 1.554688 -0.804688 1.601563 -0.753906 1.664063 -0.714844 C 1.726563 -0.675781 1.8125 -0.65625 1.929688 -0.660156 C 2.011719 -0.65625 2.125 -0.667969 2.269531 -0.691406 Z M 2.269531 -0.691406 "/>
</symbol>
<symbol overflow="visible" id="glyph0-20">
<path style="stroke:none;" d="M 0.546875 1.757813 L 0.460938 1.03125 C 0.628906 1.078125 0.777344 1.101563 0.902344 1.101563 C 1.074219 1.101563 1.210938 1.070313 1.3125 1.015625 C 1.414063 0.953125 1.5 0.875 1.570313 0.773438 C 1.617188 0.695313 1.695313 0.503906 1.804688 0.199219 C 1.820313 0.152344 1.84375 0.0859375 1.875 0.0078125 L 0.140625 -4.5625 L 0.976563 -4.5625 L 1.925781 -1.921875 C 2.046875 -1.585938 2.15625 -1.230469 2.257813 -0.863281 C 2.34375 -1.214844 2.449219 -1.5625 2.574219 -1.902344 L 3.550781 -4.5625 L 4.324219 -4.5625 L 2.585938 0.078125 C 2.398438 0.574219 2.253906 0.921875 2.152344 1.113281 C 2.011719 1.367188 1.855469 1.550781 1.679688 1.671875 C 1.5 1.789063 1.289063 1.851563 1.042969 1.851563 C 0.894531 1.851563 0.726563 1.820313 0.546875 1.757813 Z M 0.546875 1.757813 "/>
</symbol>
<symbol overflow="visible" id="glyph0-21">
<path style="stroke:none;" d="M 0.691406 0 L 0.691406 -6.300781 L 3.484375 -6.300781 C 4.042969 -6.296875 4.46875 -6.242188 4.765625 -6.128906 C 5.054688 -6.015625 5.289063 -5.816406 5.464844 -5.53125 C 5.636719 -5.242188 5.722656 -4.925781 5.726563 -4.582031 C 5.722656 -4.132813 5.578125 -3.753906 5.292969 -3.449219 C 5 -3.140625 4.554688 -2.945313 3.953125 -2.867188 C 4.171875 -2.757813 4.339844 -2.652344 4.457031 -2.550781 C 4.695313 -2.324219 4.925781 -2.046875 5.148438 -1.714844 L 6.242188 0 L 5.195313 0 L 4.359375 -1.3125 C 4.117188 -1.6875 3.914063 -1.976563 3.757813 -2.179688 C 3.597656 -2.378906 3.457031 -2.515625 3.335938 -2.597656 C 3.207031 -2.675781 3.082031 -2.734375 2.957031 -2.765625 C 2.859375 -2.785156 2.703125 -2.792969 2.492188 -2.796875 L 1.527344 -2.796875 L 1.527344 0 Z M 1.527344 -3.519531 L 3.316406 -3.519531 C 3.699219 -3.515625 3.996094 -3.554688 4.210938 -3.636719 C 4.421875 -3.710938 4.585938 -3.835938 4.699219 -4.011719 C 4.808594 -4.183594 4.863281 -4.375 4.867188 -4.582031 C 4.863281 -4.878906 4.753906 -5.121094 4.542969 -5.3125 C 4.324219 -5.503906 3.984375 -5.601563 3.519531 -5.601563 L 1.527344 -5.601563 Z M 1.527344 -3.519531 "/>
</symbol>
<symbol overflow="visible" id="glyph0-22">
<path style="stroke:none;" d="M 2.453125 0 L 2.453125 -2.667969 L 0.0273438 -6.300781 L 1.039063 -6.300781 L 2.28125 -4.398438 C 2.507813 -4.042969 2.722656 -3.6875 2.921875 -3.335938 C 3.109375 -3.660156 3.339844 -4.03125 3.609375 -4.445313 L 4.828125 -6.300781 L 5.800781 -6.300781 L 3.289063 -2.667969 L 3.289063 0 Z M 2.453125 0 "/>
</symbol>
<symbol overflow="visible" id="glyph0-23">
<path style="stroke:none;" d="M 0.269531 -1.363281 L 1.035156 -1.484375 C 1.078125 -1.171875 1.199219 -0.9375 1.394531 -0.777344 C 1.589844 -0.609375 1.863281 -0.527344 2.21875 -0.53125 C 2.570313 -0.527344 2.832031 -0.601563 3.007813 -0.75 C 3.175781 -0.894531 3.261719 -1.0625 3.265625 -1.257813 C 3.261719 -1.429688 3.1875 -1.566406 3.039063 -1.671875 C 2.929688 -1.734375 2.664063 -1.824219 2.246094 -1.933594 C 1.675781 -2.074219 1.285156 -2.195313 1.066406 -2.304688 C 0.847656 -2.40625 0.679688 -2.550781 0.566406 -2.738281 C 0.453125 -2.917969 0.398438 -3.125 0.398438 -3.351563 C 0.398438 -3.554688 0.445313 -3.742188 0.539063 -3.914063 C 0.632813 -4.085938 0.757813 -4.230469 0.917969 -4.347656 C 1.039063 -4.433594 1.203125 -4.507813 1.410156 -4.574219 C 1.617188 -4.632813 1.839844 -4.664063 2.078125 -4.667969 C 2.433594 -4.664063 2.75 -4.613281 3.023438 -4.511719 C 3.292969 -4.40625 3.492188 -4.265625 3.621094 -4.089844 C 3.75 -3.914063 3.839844 -3.679688 3.890625 -3.386719 L 3.132813 -3.28125 C 3.097656 -3.515625 2.996094 -3.699219 2.832031 -3.832031 C 2.664063 -3.964844 2.433594 -4.03125 2.136719 -4.03125 C 1.777344 -4.03125 1.523438 -3.972656 1.375 -3.855469 C 1.222656 -3.738281 1.148438 -3.597656 1.148438 -3.441406 C 1.148438 -3.339844 1.179688 -3.25 1.242188 -3.171875 C 1.304688 -3.085938 1.402344 -3.019531 1.539063 -2.964844 C 1.613281 -2.933594 1.839844 -2.867188 2.222656 -2.765625 C 2.765625 -2.617188 3.148438 -2.496094 3.367188 -2.40625 C 3.582031 -2.3125 3.75 -2.175781 3.875 -2 C 3.996094 -1.820313 4.058594 -1.601563 4.0625 -1.339844 C 4.058594 -1.078125 3.984375 -0.835938 3.835938 -0.609375 C 3.683594 -0.382813 3.464844 -0.207031 3.183594 -0.0820313 C 2.894531 0.0390625 2.574219 0.0976563 2.222656 0.101563 C 1.625 0.0976563 1.171875 -0.0195313 0.863281 -0.265625 C 0.550781 -0.507813 0.355469 -0.875 0.269531 -1.363281 Z M 0.269531 -1.363281 "/>
</symbol>
<symbol overflow="visible" id="glyph1-0">
<path style="stroke:none;" d="M 0.804688 0 L 0.804688 -7.875 L 3.757813 -7.875 C 4.359375 -7.875 4.84375 -7.792969 5.207031 -7.632813 C 5.570313 -7.472656 5.855469 -7.226563 6.0625 -6.898438 C 6.265625 -6.5625 6.367188 -6.21875 6.371094 -5.859375 C 6.367188 -5.523438 6.277344 -5.207031 6.09375 -4.910156 C 5.910156 -4.613281 5.632813 -4.371094 5.269531 -4.1875 C 5.742188 -4.046875 6.109375 -3.808594 6.367188 -3.472656 C 6.621094 -3.132813 6.75 -2.734375 6.75 -2.28125 C 6.75 -1.910156 6.671875 -1.570313 6.515625 -1.253906 C 6.359375 -0.933594 6.167969 -0.6875 5.941406 -0.519531 C 5.710938 -0.34375 5.421875 -0.214844 5.078125 -0.128906 C 4.730469 -0.0429688 4.308594 0 3.808594 0 Z M 1.847656 -4.566406 L 3.550781 -4.566406 C 4.011719 -4.5625 4.339844 -4.59375 4.542969 -4.65625 C 4.804688 -4.730469 5.003906 -4.859375 5.140625 -5.046875 C 5.273438 -5.226563 5.34375 -5.457031 5.34375 -5.734375 C 5.34375 -5.996094 5.28125 -6.226563 5.15625 -6.425781 C 5.03125 -6.625 4.851563 -6.761719 4.617188 -6.835938 C 4.382813 -6.90625 3.984375 -6.941406 3.421875 -6.945313 L 1.847656 -6.945313 Z M 1.847656 -0.929688 L 3.808594 -0.929688 C 4.144531 -0.925781 4.378906 -0.9375 4.515625 -0.96875 C 4.753906 -1.007813 4.953125 -1.078125 5.117188 -1.179688 C 5.273438 -1.277344 5.40625 -1.425781 5.515625 -1.617188 C 5.617188 -1.808594 5.671875 -2.027344 5.671875 -2.28125 C 5.671875 -2.570313 5.59375 -2.828125 5.445313 -3.046875 C 5.289063 -3.265625 5.082031 -3.417969 4.820313 -3.503906 C 4.550781 -3.589844 4.167969 -3.632813 3.667969 -3.636719 L 1.847656 -3.636719 Z M 1.847656 -0.929688 "/>
</symbol>
<symbol overflow="visible" id="glyph1-1">
<path style="stroke:none;" d="M 4.464844 0 L 4.464844 -0.835938 C 4.019531 -0.191406 3.414063 0.128906 2.652344 0.128906 C 2.3125 0.128906 2 0.0664063 1.710938 -0.0625 C 1.417969 -0.191406 1.199219 -0.355469 1.058594 -0.550781 C 0.914063 -0.746094 0.816406 -0.984375 0.761719 -1.265625 C 0.722656 -1.453125 0.703125 -1.753906 0.703125 -2.171875 L 0.703125 -5.703125 L 1.671875 -5.703125 L 1.671875 -2.539063 C 1.667969 -2.03125 1.6875 -1.691406 1.730469 -1.519531 C 1.785156 -1.261719 1.914063 -1.0625 2.113281 -0.921875 C 2.308594 -0.773438 2.554688 -0.703125 2.847656 -0.703125 C 3.136719 -0.703125 3.40625 -0.777344 3.660156 -0.925781 C 3.914063 -1.074219 4.09375 -1.273438 4.199219 -1.53125 C 4.304688 -1.785156 4.359375 -2.160156 4.359375 -2.648438 L 4.359375 -5.703125 L 5.328125 -5.703125 L 5.328125 0 Z M 4.464844 0 "/>
</symbol>
<symbol overflow="visible" id="glyph1-2">
<path style="stroke:none;" d="M 0.339844 -1.703125 L 1.292969 -1.851563 C 1.34375 -1.46875 1.492188 -1.171875 1.742188 -0.96875 C 1.984375 -0.761719 2.328125 -0.660156 2.773438 -0.664063 C 3.210938 -0.660156 3.539063 -0.75 3.757813 -0.933594 C 3.96875 -1.113281 4.078125 -1.328125 4.082031 -1.574219 C 4.078125 -1.789063 3.984375 -1.960938 3.796875 -2.089844 C 3.664063 -2.171875 3.332031 -2.28125 2.808594 -2.417969 C 2.097656 -2.59375 1.605469 -2.75 1.332031 -2.882813 C 1.054688 -3.011719 0.847656 -3.191406 0.710938 -3.421875 C 0.566406 -3.652344 0.496094 -3.90625 0.5 -4.1875 C 0.496094 -4.441406 0.554688 -4.675781 0.671875 -4.894531 C 0.785156 -5.105469 0.945313 -5.289063 1.148438 -5.4375 C 1.296875 -5.546875 1.5 -5.636719 1.761719 -5.714844 C 2.019531 -5.789063 2.300781 -5.828125 2.601563 -5.832031 C 3.046875 -5.828125 3.4375 -5.765625 3.777344 -5.636719 C 4.113281 -5.507813 4.363281 -5.332031 4.527344 -5.113281 C 4.6875 -4.890625 4.796875 -4.597656 4.859375 -4.234375 L 3.914063 -4.101563 C 3.871094 -4.394531 3.746094 -4.621094 3.542969 -4.789063 C 3.335938 -4.953125 3.042969 -5.039063 2.667969 -5.039063 C 2.222656 -5.039063 1.90625 -4.964844 1.71875 -4.816406 C 1.523438 -4.667969 1.429688 -4.496094 1.433594 -4.300781 C 1.429688 -4.175781 1.46875 -4.0625 1.550781 -3.964844 C 1.628906 -3.859375 1.753906 -3.773438 1.921875 -3.707031 C 2.015625 -3.667969 2.300781 -3.585938 2.777344 -3.460938 C 3.460938 -3.273438 3.9375 -3.121094 4.207031 -3.007813 C 4.476563 -2.890625 4.6875 -2.722656 4.84375 -2.503906 C 4.996094 -2.277344 5.074219 -2.003906 5.074219 -1.675781 C 5.074219 -1.351563 4.980469 -1.046875 4.792969 -0.765625 C 4.605469 -0.480469 4.332031 -0.261719 3.980469 -0.105469 C 3.621094 0.0507813 3.222656 0.128906 2.777344 0.128906 C 2.035156 0.128906 1.46875 -0.0234375 1.082031 -0.332031 C 0.691406 -0.640625 0.445313 -1.097656 0.339844 -1.703125 Z M 0.339844 -1.703125 "/>
</symbol>
<symbol overflow="visible" id="glyph1-3">
<path style="stroke:none;" d="M 0.730469 -6.761719 L 0.730469 -7.875 L 1.695313 -7.875 L 1.695313 -6.761719 Z M 0.730469 0 L 0.730469 -5.703125 L 1.695313 -5.703125 L 1.695313 0 Z M 0.730469 0 "/>
</symbol>
<symbol overflow="visible" id="glyph1-4">
<path style="stroke:none;" d="M 0.726563 0 L 0.726563 -5.703125 L 1.59375 -5.703125 L 1.59375 -4.894531 C 2.011719 -5.515625 2.617188 -5.828125 3.410156 -5.832031 C 3.753906 -5.828125 4.066406 -5.765625 4.355469 -5.644531 C 4.640625 -5.519531 4.859375 -5.359375 5.003906 -5.160156 C 5.144531 -4.957031 5.242188 -4.71875 5.304688 -4.445313 C 5.335938 -4.265625 5.355469 -3.953125 5.359375 -3.507813 L 5.359375 0 L 4.394531 0 L 4.394531 -3.46875 C 4.394531 -3.863281 4.355469 -4.15625 4.28125 -4.351563 C 4.203125 -4.542969 4.070313 -4.699219 3.878906 -4.820313 C 3.6875 -4.933594 3.460938 -4.992188 3.207031 -4.996094 C 2.792969 -4.992188 2.4375 -4.859375 2.140625 -4.601563 C 1.835938 -4.335938 1.6875 -3.84375 1.691406 -3.117188 L 1.691406 0 Z M 0.726563 0 "/>
</symbol>
<symbol overflow="visible" id="glyph1-5">
<path style="stroke:none;" d="M 4.628906 -1.835938 L 5.628906 -1.714844 C 5.46875 -1.125 5.175781 -0.671875 4.75 -0.351563 C 4.324219 -0.03125 3.78125 0.128906 3.121094 0.128906 C 2.28125 0.128906 1.617188 -0.125 1.132813 -0.640625 C 0.640625 -1.152344 0.398438 -1.875 0.402344 -2.804688 C 0.398438 -3.761719 0.644531 -4.503906 1.144531 -5.035156 C 1.636719 -5.5625 2.277344 -5.828125 3.066406 -5.832031 C 3.824219 -5.828125 4.449219 -5.570313 4.933594 -5.050781 C 5.417969 -4.53125 5.660156 -3.800781 5.660156 -2.863281 C 5.660156 -2.804688 5.65625 -2.71875 5.65625 -2.605469 L 1.402344 -2.605469 C 1.433594 -1.976563 1.613281 -1.496094 1.933594 -1.164063 C 2.25 -0.828125 2.644531 -0.660156 3.125 -0.664063 C 3.476563 -0.660156 3.78125 -0.753906 4.03125 -0.945313 C 4.28125 -1.128906 4.480469 -1.425781 4.628906 -1.835938 Z M 1.457031 -3.398438 L 4.640625 -3.398438 C 4.597656 -3.878906 4.472656 -4.238281 4.273438 -4.480469 C 3.960938 -4.851563 3.5625 -5.039063 3.078125 -5.039063 C 2.628906 -5.039063 2.257813 -4.890625 1.957031 -4.59375 C 1.652344 -4.296875 1.484375 -3.898438 1.457031 -3.398438 Z M 1.457031 -3.398438 "/>
</symbol>
<symbol overflow="visible" id="glyph1-6">
<path style="stroke:none;" d="M 2.851563 0 L 2.851563 -6.945313 L 0.257813 -6.945313 L 0.257813 -7.875 L 6.5 -7.875 L 6.5 -6.945313 L 3.894531 -6.945313 L 3.894531 0 Z M 2.851563 0 "/>
</symbol>
<symbol overflow="visible" id="glyph1-7">
<path style="stroke:none;" d="M 0.714844 0 L 0.714844 -5.703125 L 1.585938 -5.703125 L 1.585938 -4.839844 C 1.804688 -5.242188 2.007813 -5.507813 2.199219 -5.636719 C 2.382813 -5.765625 2.589844 -5.828125 2.820313 -5.832031 C 3.140625 -5.828125 3.472656 -5.726563 3.8125 -5.523438 L 3.480469 -4.625 C 3.242188 -4.761719 3.003906 -4.832031 2.773438 -4.835938 C 2.554688 -4.832031 2.363281 -4.769531 2.199219 -4.644531 C 2.027344 -4.515625 1.910156 -4.339844 1.84375 -4.113281 C 1.730469 -3.769531 1.675781 -3.390625 1.679688 -2.984375 L 1.679688 0 Z M 0.714844 0 "/>
</symbol>
<symbol overflow="visible" id="glyph1-8">
<path style="stroke:none;" d="M 4.445313 -0.703125 C 4.085938 -0.398438 3.742188 -0.183594 3.414063 -0.0585938 C 3.082031 0.0664063 2.726563 0.128906 2.347656 0.128906 C 1.71875 0.128906 1.238281 -0.0234375 0.902344 -0.328125 C 0.566406 -0.632813 0.398438 -1.023438 0.398438 -1.503906 C 0.398438 -1.78125 0.460938 -2.035156 0.585938 -2.269531 C 0.710938 -2.496094 0.875 -2.683594 1.085938 -2.824219 C 1.289063 -2.964844 1.523438 -3.070313 1.78125 -3.140625 C 1.96875 -3.191406 2.253906 -3.238281 2.640625 -3.289063 C 3.417969 -3.375 3.992188 -3.488281 4.367188 -3.621094 C 4.367188 -3.753906 4.371094 -3.835938 4.371094 -3.871094 C 4.371094 -4.265625 4.277344 -4.542969 4.097656 -4.703125 C 3.847656 -4.917969 3.480469 -5.027344 2.996094 -5.03125 C 2.539063 -5.027344 2.203125 -4.949219 1.988281 -4.792969 C 1.769531 -4.632813 1.609375 -4.351563 1.507813 -3.949219 L 0.5625 -4.078125 C 0.648438 -4.480469 0.789063 -4.804688 0.988281 -5.054688 C 1.183594 -5.300781 1.46875 -5.492188 1.84375 -5.628906 C 2.214844 -5.761719 2.644531 -5.828125 3.136719 -5.832031 C 3.621094 -5.828125 4.019531 -5.773438 4.324219 -5.660156 C 4.628906 -5.542969 4.851563 -5.398438 4.996094 -5.226563 C 5.136719 -5.054688 5.238281 -4.835938 5.296875 -4.570313 C 5.328125 -4.40625 5.34375 -4.109375 5.34375 -3.679688 L 5.34375 -2.390625 C 5.34375 -1.492188 5.363281 -0.921875 5.40625 -0.683594 C 5.445313 -0.445313 5.527344 -0.21875 5.648438 0 L 4.640625 0 C 4.539063 -0.199219 4.472656 -0.433594 4.445313 -0.703125 Z M 4.367188 -2.863281 C 4.011719 -2.71875 3.488281 -2.597656 2.789063 -2.496094 C 2.390625 -2.4375 2.105469 -2.371094 1.941406 -2.300781 C 1.773438 -2.226563 1.648438 -2.121094 1.5625 -1.988281 C 1.472656 -1.847656 1.429688 -1.695313 1.429688 -1.53125 C 1.429688 -1.269531 1.527344 -1.054688 1.722656 -0.886719 C 1.917969 -0.710938 2.203125 -0.625 2.578125 -0.628906 C 2.949219 -0.625 3.277344 -0.707031 3.570313 -0.871094 C 3.859375 -1.03125 4.074219 -1.253906 4.210938 -1.542969 C 4.3125 -1.753906 4.363281 -2.078125 4.367188 -2.507813 Z M 4.367188 -2.863281 "/>
</symbol>
<symbol overflow="visible" id="glyph1-9">
<path style="stroke:none;" d="M 2.308594 0 L 0.140625 -5.703125 L 1.160156 -5.703125 L 2.382813 -2.289063 C 2.511719 -1.917969 2.632813 -1.535156 2.75 -1.140625 C 2.832031 -1.4375 2.953125 -1.796875 3.109375 -2.222656 L 4.378906 -5.703125 L 5.371094 -5.703125 L 3.210938 0 Z M 2.308594 0 "/>
</symbol>
<symbol overflow="visible" id="glyph1-10">
<path style="stroke:none;" d="M 0.703125 0 L 0.703125 -7.875 L 1.671875 -7.875 L 1.671875 0 Z M 0.703125 0 "/>
</symbol>
<symbol overflow="visible" id="glyph1-11">
<path style="stroke:none;" d="M -0.015625 0 L 3.007813 -7.875 L 4.128906 -7.875 L 7.351563 0 L 6.164063 0 L 5.246094 -2.382813 L 1.953125 -2.382813 L 1.089844 0 Z M 2.257813 -3.234375 L 4.925781 -3.234375 L 4.101563 -5.414063 C 3.851563 -6.074219 3.664063 -6.617188 3.546875 -7.046875 C 3.441406 -6.539063 3.300781 -6.039063 3.121094 -5.542969 Z M 2.257813 -3.234375 "/>
</symbol>
<symbol overflow="visible" id="glyph1-12">
<path style="stroke:none;" d="M 2.835938 -0.863281 L 2.976563 -0.0117188 C 2.703125 0.0429688 2.457031 0.0703125 2.246094 0.0742188 C 1.890625 0.0703125 1.621094 0.0195313 1.429688 -0.0898438 C 1.234375 -0.199219 1.097656 -0.347656 1.019531 -0.527344 C 0.941406 -0.707031 0.902344 -1.085938 0.902344 -1.671875 L 0.902344 -4.953125 L 0.195313 -4.953125 L 0.195313 -5.703125 L 0.902344 -5.703125 L 0.902344 -7.117188 L 1.863281 -7.695313 L 1.863281 -5.703125 L 2.835938 -5.703125 L 2.835938 -4.953125 L 1.863281 -4.953125 L 1.863281 -1.617188 C 1.863281 -1.339844 1.878906 -1.160156 1.914063 -1.085938 C 1.945313 -1.003906 2 -0.941406 2.078125 -0.898438 C 2.152344 -0.847656 2.261719 -0.824219 2.410156 -0.828125 C 2.515625 -0.824219 2.660156 -0.835938 2.835938 -0.863281 Z M 2.835938 -0.863281 "/>
</symbol>
<symbol overflow="visible" id="glyph1-13">
<path style="stroke:none;" d="M 0.367188 -2.851563 C 0.363281 -3.90625 0.65625 -4.6875 1.246094 -5.199219 C 1.734375 -5.617188 2.332031 -5.828125 3.039063 -5.832031 C 3.820313 -5.828125 4.460938 -5.574219 4.960938 -5.0625 C 5.457031 -4.546875 5.707031 -3.835938 5.710938 -2.933594 C 5.707031 -2.195313 5.597656 -1.617188 5.378906 -1.199219 C 5.15625 -0.777344 4.832031 -0.449219 4.414063 -0.21875 C 3.992188 0.015625 3.535156 0.128906 3.039063 0.128906 C 2.238281 0.128906 1.59375 -0.125 1.105469 -0.636719 C 0.609375 -1.148438 0.363281 -1.886719 0.367188 -2.851563 Z M 1.359375 -2.851563 C 1.359375 -2.121094 1.515625 -1.574219 1.835938 -1.210938 C 2.152344 -0.84375 2.554688 -0.660156 3.039063 -0.664063 C 3.515625 -0.660156 3.914063 -0.84375 4.234375 -1.210938 C 4.550781 -1.574219 4.710938 -2.132813 4.714844 -2.882813 C 4.710938 -3.585938 4.550781 -4.117188 4.234375 -4.484375 C 3.910156 -4.84375 3.511719 -5.027344 3.039063 -5.03125 C 2.554688 -5.027344 2.152344 -4.847656 1.835938 -4.488281 C 1.515625 -4.128906 1.359375 -3.582031 1.359375 -2.851563 Z M 1.359375 -2.851563 "/>
</symbol>
<symbol overflow="visible" id="glyph2-0">
<path style="stroke:none;" d="M -2.089844 -4.445313 L -1.964844 -5.398438 C -1.308594 -5.289063 -0.796875 -5.023438 -0.425781 -4.597656 C -0.0546875 -4.167969 0.128906 -3.644531 0.128906 -3.023438 C 0.128906 -2.242188 -0.125 -1.613281 -0.636719 -1.140625 C -1.144531 -0.664063 -1.875 -0.425781 -2.832031 -0.429688 C -3.441406 -0.425781 -3.980469 -0.527344 -4.445313 -0.734375 C -4.90625 -0.9375 -5.253906 -1.25 -5.484375 -1.667969 C -5.714844 -2.082031 -5.828125 -2.535156 -5.832031 -3.03125 C -5.828125 -3.644531 -5.671875 -4.152344 -5.363281 -4.546875 C -5.046875 -4.941406 -4.601563 -5.191406 -4.027344 -5.304688 L -3.882813 -4.367188 C -4.261719 -4.273438 -4.550781 -4.117188 -4.746094 -3.890625 C -4.941406 -3.664063 -5.039063 -3.386719 -5.039063 -3.066406 C -5.039063 -2.574219 -4.863281 -2.179688 -4.515625 -1.878906 C -4.164063 -1.570313 -3.613281 -1.417969 -2.859375 -1.421875 C -2.089844 -1.417969 -1.53125 -1.566406 -1.183594 -1.863281 C -0.835938 -2.15625 -0.660156 -2.539063 -0.664063 -3.011719 C -0.660156 -3.390625 -0.777344 -3.707031 -1.011719 -3.960938 C -1.242188 -4.214844 -1.601563 -4.375 -2.089844 -4.445313 Z M -2.089844 -4.445313 "/>
</symbol>
<symbol overflow="visible" id="glyph2-1">
<path style="stroke:none;" d="M -2.851563 -0.367188 C -3.90625 -0.363281 -4.6875 -0.65625 -5.199219 -1.246094 C -5.617188 -1.734375 -5.828125 -2.332031 -5.832031 -3.039063 C -5.828125 -3.820313 -5.574219 -4.460938 -5.0625 -4.960938 C -4.546875 -5.457031 -3.835938 -5.707031 -2.933594 -5.710938 C -2.195313 -5.707031 -1.617188 -5.597656 -1.199219 -5.378906 C -0.777344 -5.15625 -0.449219 -4.832031 -0.21875 -4.414063 C 0.015625 -3.992188 0.128906 -3.535156 0.128906 -3.039063 C 0.128906 -2.238281 -0.125 -1.59375 -0.636719 -1.105469 C -1.148438 -0.609375 -1.886719 -0.363281 -2.851563 -0.367188 Z M -2.851563 -1.359375 C -2.121094 -1.359375 -1.574219 -1.515625 -1.210938 -1.835938 C -0.84375 -2.152344 -0.660156 -2.554688 -0.664063 -3.039063 C -0.660156 -3.515625 -0.84375 -3.914063 -1.210938 -4.234375 C -1.574219 -4.550781 -2.132813 -4.710938 -2.882813 -4.714844 C -3.585938 -4.710938 -4.117188 -4.550781 -4.484375 -4.234375 C -4.84375 -3.910156 -5.027344 -3.511719 -5.03125 -3.039063 C -5.027344 -2.554688 -4.847656 -2.152344 -4.488281 -1.835938 C -4.128906 -1.515625 -3.582031 -1.359375 -2.851563 -1.359375 Z M -2.851563 -1.359375 "/>
</symbol>
<symbol overflow="visible" id="glyph2-2">
<path style="stroke:none;" d="M 0 -4.464844 L -0.835938 -4.464844 C -0.191406 -4.019531 0.128906 -3.414063 0.128906 -2.652344 C 0.128906 -2.3125 0.0664063 -2 -0.0625 -1.710938 C -0.191406 -1.417969 -0.355469 -1.199219 -0.550781 -1.058594 C -0.746094 -0.914063 -0.984375 -0.816406 -1.265625 -0.761719 C -1.453125 -0.722656 -1.753906 -0.703125 -2.171875 -0.703125 L -5.703125 -0.703125 L -5.703125 -1.671875 L -2.539063 -1.671875 C -2.03125 -1.667969 -1.691406 -1.6875 -1.519531 -1.730469 C -1.261719 -1.785156 -1.0625 -1.914063 -0.917969 -2.113281 C -0.773438 -2.308594 -0.703125 -2.554688 -0.703125 -2.847656 C -0.703125 -3.136719 -0.777344 -3.40625 -0.925781 -3.660156 C -1.074219 -3.914063 -1.273438 -4.09375 -1.53125 -4.199219 C -1.785156 -4.304688 -2.160156 -4.359375 -2.648438 -4.359375 L -5.703125 -4.359375 L -5.703125 -5.328125 L 0 -5.328125 Z M 0 -4.464844 "/>
</symbol>
<symbol overflow="visible" id="glyph2-3">
<path style="stroke:none;" d="M 0 -0.726563 L -5.703125 -0.726563 L -5.703125 -1.59375 L -4.894531 -1.59375 C -5.515625 -2.011719 -5.828125 -2.617188 -5.832031 -3.410156 C -5.828125 -3.753906 -5.765625 -4.066406 -5.644531 -4.355469 C -5.519531 -4.640625 -5.359375 -4.859375 -5.160156 -5.003906 C -4.957031 -5.144531 -4.71875 -5.242188 -4.445313 -5.304688 C -4.265625 -5.335938 -3.953125 -5.355469 -3.507813 -5.359375 L 0 -5.359375 L 0 -4.394531 L -3.46875 -4.394531 C -3.863281 -4.394531 -4.15625 -4.355469 -4.351563 -4.28125 C -4.542969 -4.203125 -4.699219 -4.070313 -4.820313 -3.878906 C -4.933594 -3.6875 -4.992188 -3.460938 -4.996094 -3.207031 C -4.992188 -2.792969 -4.859375 -2.4375 -4.601563 -2.140625 C -4.335938 -1.835938 -3.84375 -1.6875 -3.117188 -1.691406 L 0 -1.691406 Z M 0 -0.726563 "/>
</symbol>
<symbol overflow="visible" id="glyph2-4">
<path style="stroke:none;" d="M -0.863281 -2.835938 L -0.0117188 -2.976563 C 0.0429688 -2.703125 0.0703125 -2.457031 0.0742188 -2.246094 C 0.0703125 -1.890625 0.0195313 -1.621094 -0.0898438 -1.429688 C -0.199219 -1.234375 -0.347656 -1.097656 -0.527344 -1.019531 C -0.707031 -0.941406 -1.085938 -0.902344 -1.671875 -0.902344 L -4.953125 -0.902344 L -4.953125 -0.195313 L -5.703125 -0.195313 L -5.703125 -0.902344 L -7.117188 -0.902344 L -7.695313 -1.863281 L -5.703125 -1.863281 L -5.703125 -2.835938 L -4.953125 -2.835938 L -4.953125 -1.863281 L -1.617188 -1.863281 C -1.339844 -1.863281 -1.160156 -1.878906 -1.082031 -1.914063 C -1 -1.945313 -0.9375 -2 -0.894531 -2.078125 C -0.847656 -2.152344 -0.824219 -2.261719 -0.828125 -2.410156 C -0.824219 -2.515625 -0.835938 -2.660156 -0.863281 -2.835938 Z M -0.863281 -2.835938 "/>
</symbol>
</g>
<clipPath id="clip1">
  <path d="M 43.519531 5.480469 L 439.386719 5.480469 L 439.386719 186.757813 L 43.519531 186.757813 Z M 43.519531 5.480469 "/>
</clipPath>
</defs>
<g id="surface46">
<rect x="0" y="0" width="504" height="216" style="fill:rgb(100%,100%,100%);fill-opacity:1;stroke:none;"/>
<rect x="0" y="0" width="504" height="216" style="fill:rgb(100%,100%,100%);fill-opacity:1;stroke:none;"/>
<path style="fill:none;stroke-width:1.066978;stroke-linecap:round;stroke-linejoin:round;stroke:rgb(100%,100%,100%);stroke-opacity:1;stroke-miterlimit:10;" d="M 0 216 L 504 216 L 504 0 L 0 0 Z M 0 216 "/>
<g clip-path="url(#clip1)" clip-rule="nonzero">
<path style=" stroke:none;fill-rule:nonzero;fill:rgb(92.156863%,92.156863%,92.156863%);fill-opacity:1;" d="M 43.519531 185.757813 L 438.386719 185.757813 L 438.386719 5.480469 L 43.519531 5.480469 Z M 43.519531 185.757813 "/>
<path style="fill:none;stroke-width:0.533489;stroke-linecap:butt;stroke-linejoin:round;stroke:rgb(100%,100%,100%);stroke-opacity:1;stroke-miterlimit:10;" d="M 43.519531 157.921875 L 438.386719 157.921875 "/>
<path style="fill:none;stroke-width:0.533489;stroke-linecap:butt;stroke-linejoin:round;stroke:rgb(100%,100%,100%);stroke-opacity:1;stroke-miterlimit:10;" d="M 43.519531 118.636719 L 438.386719 118.636719 "/>
<path style="fill:none;stroke-width:0.533489;stroke-linecap:butt;stroke-linejoin:round;stroke:rgb(100%,100%,100%);stroke-opacity:1;stroke-miterlimit:10;" d="M 43.519531 79.355469 L 438.386719 79.355469 "/>
<path style="fill:none;stroke-width:0.533489;stroke-linecap:butt;stroke-linejoin:round;stroke:rgb(100%,100%,100%);stroke-opacity:1;stroke-miterlimit:10;" d="M 43.519531 40.070313 L 438.386719 40.070313 "/>
<path style="fill:none;stroke-width:1.066978;stroke-linecap:butt;stroke-linejoin:round;stroke:rgb(100%,100%,100%);stroke-opacity:1;stroke-miterlimit:10;" d="M 43.519531 177.5625 L 438.386719 177.5625 "/>
<path style="fill:none;stroke-width:1.066978;stroke-linecap:butt;stroke-linejoin:round;stroke:rgb(100%,100%,100%);stroke-opacity:1;stroke-miterlimit:10;" d="M 43.519531 138.277344 L 438.386719 138.277344 "/>
<path style="fill:none;stroke-width:1.066978;stroke-linecap:butt;stroke-linejoin:round;stroke:rgb(100%,100%,100%);stroke-opacity:1;stroke-miterlimit:10;" d="M 43.519531 98.996094 L 438.386719 98.996094 "/>
<path style="fill:none;stroke-width:1.066978;stroke-linecap:butt;stroke-linejoin:round;stroke:rgb(100%,100%,100%);stroke-opacity:1;stroke-miterlimit:10;" d="M 43.519531 59.714844 L 438.386719 59.714844 "/>
<path style="fill:none;stroke-width:1.066978;stroke-linecap:butt;stroke-linejoin:round;stroke:rgb(100%,100%,100%);stroke-opacity:1;stroke-miterlimit:10;" d="M 43.519531 20.429688 L 438.386719 20.429688 "/>
<path style="fill:none;stroke-width:1.066978;stroke-linecap:butt;stroke-linejoin:round;stroke:rgb(100%,100%,100%);stroke-opacity:1;stroke-miterlimit:10;" d="M 117.558594 185.757813 L 117.558594 5.480469 "/>
<path style="fill:none;stroke-width:1.066978;stroke-linecap:butt;stroke-linejoin:round;stroke:rgb(100%,100%,100%);stroke-opacity:1;stroke-miterlimit:10;" d="M 240.953125 185.757813 L 240.953125 5.480469 "/>
<path style="fill:none;stroke-width:1.066978;stroke-linecap:butt;stroke-linejoin:round;stroke:rgb(100%,100%,100%);stroke-opacity:1;stroke-miterlimit:10;" d="M 364.351563 185.757813 L 364.351563 5.480469 "/>
<path style=" stroke:none;fill-rule:nonzero;fill:rgb(0%,74.901961%,76.862745%);fill-opacity:1;" d="M 62.03125 177.5625 L 173.085938 177.5625 L 173.085938 175.675781 L 62.03125 175.675781 Z M 62.03125 177.5625 "/>
<path style=" stroke:none;fill-rule:nonzero;fill:rgb(97.254902%,46.27451%,42.745098%);fill-opacity:1;" d="M 62.03125 175.675781 L 173.085938 175.675781 L 173.085938 153.992188 L 62.03125 153.992188 Z M 62.03125 175.675781 "/>
<path style=" stroke:none;fill-rule:nonzero;fill:rgb(0%,74.901961%,76.862745%);fill-opacity:1;" d="M 185.425781 177.5625 L 296.480469 177.5625 L 296.480469 166.71875 L 185.425781 166.71875 Z M 185.425781 177.5625 "/>
<path style=" stroke:none;fill-rule:nonzero;fill:rgb(97.254902%,46.27451%,42.745098%);fill-opacity:1;" d="M 185.425781 166.71875 L 296.480469 166.71875 L 296.480469 134.035156 L 185.425781 134.035156 Z M 185.425781 166.71875 "/>
<path style=" stroke:none;fill-rule:nonzero;fill:rgb(0%,74.901961%,76.862745%);fill-opacity:1;" d="M 308.824219 177.5625 L 419.878906 177.5625 L 419.878906 153.050781 L 308.824219 153.050781 Z M 308.824219 177.5625 "/>
<path style=" stroke:none;fill-rule:nonzero;fill:rgb(97.254902%,46.27451%,42.745098%);fill-opacity:1;" d="M 308.824219 153.050781 L 419.878906 153.050781 L 419.878906 13.675781 L 308.824219 13.675781 Z M 308.824219 153.050781 "/>
</g>
<g style="fill:rgb(30.196078%,30.196078%,30.196078%);fill-opacity:1;">
  <use xlink:href="#glyph0-0" x="33.695313" y="180.710938"/>
</g>
<g style="fill:rgb(30.196078%,30.196078%,30.196078%);fill-opacity:1;">
  <use xlink:href="#glyph0-1" x="23.90625" y="141.429688"/>
  <use xlink:href="#glyph0-2" x="28.800391" y="141.429688"/>
  <use xlink:href="#glyph0-0" x="33.694531" y="141.429688"/>
</g>
<g style="fill:rgb(30.196078%,30.196078%,30.196078%);fill-opacity:1;">
  <use xlink:href="#glyph0-2" x="23.90625" y="102.144531"/>
  <use xlink:href="#glyph0-0" x="28.800391" y="102.144531"/>
  <use xlink:href="#glyph0-0" x="33.694531" y="102.144531"/>
</g>
<g style="fill:rgb(30.196078%,30.196078%,30.196078%);fill-opacity:1;">
  <use xlink:href="#glyph0-3" x="23.90625" y="62.863281"/>
  <use xlink:href="#glyph0-2" x="28.800391" y="62.863281"/>
  <use xlink:href="#glyph0-0" x="33.694531" y="62.863281"/>
</g>
<g style="fill:rgb(30.196078%,30.196078%,30.196078%);fill-opacity:1;">
  <use xlink:href="#glyph0-4" x="19.011719" y="23.582031"/>
  <use xlink:href="#glyph0-0" x="23.905859" y="23.582031"/>
  <use xlink:href="#glyph0-0" x="28.8" y="23.582031"/>
  <use xlink:href="#glyph0-0" x="33.694141" y="23.582031"/>
</g>
<path style="fill:none;stroke-width:1.066978;stroke-linecap:butt;stroke-linejoin:round;stroke:rgb(20%,20%,20%);stroke-opacity:1;stroke-miterlimit:10;" d="M 40.78125 177.5625 L 43.519531 177.5625 "/>
<path style="fill:none;stroke-width:1.066978;stroke-linecap:butt;stroke-linejoin:round;stroke:rgb(20%,20%,20%);stroke-opacity:1;stroke-miterlimit:10;" d="M 40.78125 138.277344 L 43.519531 138.277344 "/>
<path style="fill:none;stroke-width:1.066978;stroke-linecap:butt;stroke-linejoin:round;stroke:rgb(20%,20%,20%);stroke-opacity:1;stroke-miterlimit:10;" d="M 40.78125 98.996094 L 43.519531 98.996094 "/>
<path style="fill:none;stroke-width:1.066978;stroke-linecap:butt;stroke-linejoin:round;stroke:rgb(20%,20%,20%);stroke-opacity:1;stroke-miterlimit:10;" d="M 40.78125 59.714844 L 43.519531 59.714844 "/>
<path style="fill:none;stroke-width:1.066978;stroke-linecap:butt;stroke-linejoin:round;stroke:rgb(20%,20%,20%);stroke-opacity:1;stroke-miterlimit:10;" d="M 40.78125 20.429688 L 43.519531 20.429688 "/>
<path style="fill:none;stroke-width:1.066978;stroke-linecap:butt;stroke-linejoin:round;stroke:rgb(20%,20%,20%);stroke-opacity:1;stroke-miterlimit:10;" d="M 117.558594 188.496094 L 117.558594 185.757813 "/>
<path style="fill:none;stroke-width:1.066978;stroke-linecap:butt;stroke-linejoin:round;stroke:rgb(20%,20%,20%);stroke-opacity:1;stroke-miterlimit:10;" d="M 240.953125 188.496094 L 240.953125 185.757813 "/>
<path style="fill:none;stroke-width:1.066978;stroke-linecap:butt;stroke-linejoin:round;stroke:rgb(20%,20%,20%);stroke-opacity:1;stroke-miterlimit:10;" d="M 364.351563 188.496094 L 364.351563 185.757813 "/>
<g style="fill:rgb(30.196078%,30.196078%,30.196078%);fill-opacity:1;">
  <use xlink:href="#glyph0-5" x="95.796875" y="196.988281"/>
  <use xlink:href="#glyph0-6" x="102.151953" y="196.988281"/>
  <use xlink:href="#glyph0-7" x="107.046094" y="196.988281"/>
  <use xlink:href="#glyph0-8" x="111.940234" y="196.988281"/>
  <use xlink:href="#glyph0-9" x="114.870703" y="196.988281"/>
  <use xlink:href="#glyph0-10" x="120.246094" y="196.988281"/>
  <use xlink:href="#glyph0-11" x="123.176563" y="196.988281"/>
  <use xlink:href="#glyph0-12" x="128.070703" y="196.988281"/>
  <use xlink:href="#glyph0-13" x="132.470703" y="196.988281"/>
  <use xlink:href="#glyph0-14" x="137.364844" y="196.988281"/>
</g>
<g style="fill:rgb(30.196078%,30.196078%,30.196078%);fill-opacity:1;">
  <use xlink:href="#glyph0-9" x="205.492188" y="196.988281"/>
  <use xlink:href="#glyph0-10" x="210.867578" y="196.988281"/>
  <use xlink:href="#glyph0-11" x="213.798047" y="196.988281"/>
  <use xlink:href="#glyph0-12" x="218.692187" y="196.988281"/>
  <use xlink:href="#glyph0-13" x="223.092187" y="196.988281"/>
  <use xlink:href="#glyph0-14" x="227.986328" y="196.988281"/>
  <use xlink:href="#glyph0-15" x="229.941406" y="196.988281"/>
  <use xlink:href="#glyph0-16" x="234.835547" y="196.988281"/>
  <use xlink:href="#glyph0-10" x="240.210938" y="196.988281"/>
  <use xlink:href="#glyph0-13" x="243.141406" y="196.988281"/>
  <use xlink:href="#glyph0-17" x="248.035547" y="196.988281"/>
  <use xlink:href="#glyph0-18" x="252.929688" y="196.988281"/>
  <use xlink:href="#glyph0-13" x="257.823828" y="196.988281"/>
  <use xlink:href="#glyph0-7" x="262.717969" y="196.988281"/>
  <use xlink:href="#glyph0-19" x="267.612109" y="196.988281"/>
  <use xlink:href="#glyph0-14" x="270.057031" y="196.988281"/>
  <use xlink:href="#glyph0-20" x="272.012109" y="196.988281"/>
</g>
<g style="fill:rgb(30.196078%,30.196078%,30.196078%);fill-opacity:1;">
  <use xlink:href="#glyph0-9" x="336.964844" y="196.988281"/>
  <use xlink:href="#glyph0-10" x="342.340234" y="196.988281"/>
  <use xlink:href="#glyph0-11" x="345.270703" y="196.988281"/>
  <use xlink:href="#glyph0-12" x="350.164844" y="196.988281"/>
  <use xlink:href="#glyph0-13" x="354.564844" y="196.988281"/>
  <use xlink:href="#glyph0-14" x="359.458984" y="196.988281"/>
  <use xlink:href="#glyph0-15" x="361.414062" y="196.988281"/>
  <use xlink:href="#glyph0-21" x="366.308203" y="196.988281"/>
  <use xlink:href="#glyph0-11" x="372.663281" y="196.988281"/>
  <use xlink:href="#glyph0-10" x="377.557422" y="196.988281"/>
  <use xlink:href="#glyph0-13" x="380.487891" y="196.988281"/>
  <use xlink:href="#glyph0-14" x="385.382031" y="196.988281"/>
  <use xlink:href="#glyph0-20" x="387.337109" y="196.988281"/>
</g>
<g style="fill:rgb(0%,0%,0%);fill-opacity:1;">
  <use xlink:href="#glyph1-0" x="203.355469" y="210.339844"/>
  <use xlink:href="#glyph1-1" x="210.692383" y="210.339844"/>
  <use xlink:href="#glyph1-2" x="216.810059" y="210.339844"/>
  <use xlink:href="#glyph1-3" x="222.310059" y="210.339844"/>
  <use xlink:href="#glyph1-4" x="224.753906" y="210.339844"/>
  <use xlink:href="#glyph1-5" x="230.871582" y="210.339844"/>
  <use xlink:href="#glyph1-2" x="236.989258" y="210.339844"/>
  <use xlink:href="#glyph1-2" x="242.489258" y="210.339844"/>
  <use xlink:href="#glyph1-6" x="247.989258" y="210.339844"/>
  <use xlink:href="#glyph1-7" x="254.708496" y="210.339844"/>
  <use xlink:href="#glyph1-8" x="258.371582" y="210.339844"/>
  <use xlink:href="#glyph1-9" x="264.489258" y="210.339844"/>
  <use xlink:href="#glyph1-5" x="269.989258" y="210.339844"/>
  <use xlink:href="#glyph1-10" x="276.106934" y="210.339844"/>
</g>
<g style="fill:rgb(0%,0%,0%);fill-opacity:1;">
  <use xlink:href="#glyph2-0" x="13.351563" y="109.070313"/>
  <use xlink:href="#glyph2-1" x="13.351563" y="103.570313"/>
  <use xlink:href="#glyph2-2" x="13.351563" y="97.452637"/>
  <use xlink:href="#glyph2-3" x="13.351563" y="91.334961"/>
  <use xlink:href="#glyph2-4" x="13.351563" y="85.217285"/>
</g>
<path style=" stroke:none;fill-rule:nonzero;fill:rgb(100%,100%,100%);fill-opacity:1;" d="M 449.726563 124.675781 L 498.519531 124.675781 L 498.519531 66.558594 L 449.726563 66.558594 Z M 449.726563 124.675781 "/>
<g style="fill:rgb(0%,0%,0%);fill-opacity:1;">
  <use xlink:href="#glyph1-11" x="455.394531" y="80.113281"/>
  <use xlink:href="#glyph1-12" x="462.731445" y="80.113281"/>
  <use xlink:href="#glyph1-12" x="465.787598" y="80.113281"/>
  <use xlink:href="#glyph1-7" x="468.84375" y="80.113281"/>
  <use xlink:href="#glyph1-3" x="472.506836" y="80.113281"/>
  <use xlink:href="#glyph1-12" x="474.950684" y="80.113281"/>
  <use xlink:href="#glyph1-3" x="478.006836" y="80.113281"/>
  <use xlink:href="#glyph1-13" x="480.450684" y="80.113281"/>
  <use xlink:href="#glyph1-4" x="486.568359" y="80.113281"/>
</g>
<path style="fill-rule:nonzero;fill:rgb(94.901961%,94.901961%,94.901961%);fill-opacity:1;stroke-width:1.066978;stroke-linecap:round;stroke-linejoin:round;stroke:rgb(100%,100%,100%);stroke-opacity:1;stroke-miterlimit:10;" d="M 455.394531 101.726563 L 472.675781 101.726563 L 472.675781 84.445313 L 455.394531 84.445313 Z M 455.394531 101.726563 "/>
<path style=" stroke:none;fill-rule:nonzero;fill:rgb(97.254902%,46.27451%,42.745098%);fill-opacity:1;" d="M 456.105469 101.019531 L 471.96875 101.019531 L 471.96875 85.15625 L 456.105469 85.15625 Z M 456.105469 101.019531 "/>
<path style="fill-rule:nonzero;fill:rgb(94.901961%,94.901961%,94.901961%);fill-opacity:1;stroke-width:1.066978;stroke-linecap:round;stroke-linejoin:round;stroke:rgb(100%,100%,100%);stroke-opacity:1;stroke-miterlimit:10;" d="M 455.394531 119.007813 L 472.675781 119.007813 L 472.675781 101.726563 L 455.394531 101.726563 Z M 455.394531 119.007813 "/>
<path style=" stroke:none;fill-rule:nonzero;fill:rgb(0%,74.901961%,76.862745%);fill-opacity:1;" d="M 456.105469 118.296875 L 471.96875 118.296875 L 471.96875 102.433594 L 456.105469 102.433594 Z M 456.105469 118.296875 "/>
<g style="fill:rgb(0%,0%,0%);fill-opacity:1;">
  <use xlink:href="#glyph0-5" x="474.835938" y="96.238281"/>
  <use xlink:href="#glyph0-6" x="481.191016" y="96.238281"/>
</g>
<g style="fill:rgb(0%,0%,0%);fill-opacity:1;">
  <use xlink:href="#glyph0-22" x="474.835938" y="113.515625"/>
  <use xlink:href="#glyph0-13" x="480.705469" y="113.515625"/>
  <use xlink:href="#glyph0-23" x="485.599609" y="113.515625"/>
</g>
</g>
</svg>
