<?xml version="1.0" encoding="UTF-8"?>
<svg xmlns="http://www.w3.org/2000/svg" xmlns:xlink="http://www.w3.org/1999/xlink" width="504pt" height="288pt" viewBox="0 0 504 288" version="1.1">
<defs>
<g>
<symbol overflow="visible" id="glyph0-0">
<path style="stroke:none;" d="M 0.601563 0.148438 L 1.113281 -2.351563 L 0.125 -2.351563 L 0.125 -3.222656 L 1.289063 -3.222656 L 1.722656 -5.351563 L 0.125 -5.351563 L 0.125 -6.222656 L 1.898438 -6.222656 L 2.40625 -8.734375 L 3.289063 -8.734375 L 2.777344 -6.222656 L 4.625 -6.222656 L 5.132813 -8.734375 L 6.015625 -8.734375 L 5.507813 -6.222656 L 6.523438 -6.222656 L 6.523438 -5.351563 L 5.332031 -5.351563 L 4.890625 -3.222656 L 6.523438 -3.222656 L 6.523438 -2.351563 L 4.71875 -2.351563 L 4.207031 0.148438 L 3.328125 0.148438 L 3.832031 -2.351563 L 1.992188 -2.351563 L 1.484375 0.148438 Z M 2.167969 -3.222656 L 4.007813 -3.222656 L 4.445313 -5.351563 L 2.601563 -5.351563 Z M 2.167969 -3.222656 "/>
</symbol>
<symbol overflow="visible" id="glyph0-1">
<path style="stroke:none;" d="M 0.914063 0 L 0.914063 -8.589844 L 2.078125 -8.589844 L 6.59375 -1.84375 L 6.59375 -8.589844 L 7.679688 -8.589844 L 7.679688 0 L 6.515625 0 L 2.003906 -6.75 L 2.003906 0 Z M 0.914063 0 "/>
</symbol>
<symbol overflow="visible" id="glyph0-2">
<path style="stroke:none;" d="M 5.050781 -2.003906 L 6.140625 -1.867188 C 5.96875 -1.230469 5.648438 -0.738281 5.183594 -0.386719 C 4.71875 -0.0351563 4.125 0.140625 3.40625 0.140625 C 2.492188 0.140625 1.769531 -0.136719 1.238281 -0.699219 C 0.699219 -1.253906 0.433594 -2.042969 0.4375 -3.058594 C 0.433594 -4.105469 0.703125 -4.917969 1.246094 -5.496094 C 1.78125 -6.074219 2.480469 -6.363281 3.34375 -6.363281 C 4.175781 -6.363281 4.855469 -6.078125 5.382813 -5.511719 C 5.910156 -4.945313 6.175781 -4.148438 6.175781 -3.125 C 6.175781 -3.058594 6.171875 -2.964844 6.171875 -2.84375 L 1.53125 -2.84375 C 1.5625 -2.15625 1.757813 -1.632813 2.109375 -1.269531 C 2.457031 -0.90625 2.890625 -0.726563 3.410156 -0.726563 C 3.796875 -0.726563 4.125 -0.828125 4.402344 -1.03125 C 4.671875 -1.234375 4.890625 -1.558594 5.050781 -2.003906 Z M 1.585938 -3.710938 L 5.0625 -3.710938 C 5.015625 -4.226563 4.882813 -4.621094 4.664063 -4.886719 C 4.328125 -5.292969 3.890625 -5.496094 3.359375 -5.496094 C 2.871094 -5.496094 2.464844 -5.332031 2.136719 -5.007813 C 1.804688 -4.683594 1.621094 -4.25 1.585938 -3.710938 Z M 1.585938 -3.710938 "/>
</symbol>
<symbol overflow="visible" id="glyph0-3">
<path style="stroke:none;" d="M 0.796875 -7.375 L 0.796875 -8.589844 L 1.851563 -8.589844 L 1.851563 -7.375 Z M 0.796875 0 L 0.796875 -6.222656 L 1.851563 -6.222656 L 1.851563 0 Z M 0.796875 0 "/>
</symbol>
<symbol overflow="visible" id="glyph0-4">
<path style="stroke:none;" d="M 0.597656 0.515625 L 1.625 0.667969 C 1.664063 0.980469 1.785156 1.210938 1.980469 1.359375 C 2.242188 1.554688 2.597656 1.652344 3.054688 1.652344 C 3.539063 1.652344 3.917969 1.554688 4.183594 1.359375 C 4.449219 1.164063 4.628906 0.890625 4.722656 0.539063 C 4.777344 0.324219 4.800781 -0.125 4.796875 -0.8125 C 4.335938 -0.269531 3.761719 0 3.078125 0 C 2.21875 0 1.558594 -0.308594 1.089844 -0.925781 C 0.621094 -1.542969 0.386719 -2.28125 0.386719 -3.148438 C 0.386719 -3.738281 0.492188 -4.285156 0.707031 -4.789063 C 0.921875 -5.289063 1.234375 -5.679688 1.644531 -5.953125 C 2.050781 -6.226563 2.53125 -6.363281 3.082031 -6.363281 C 3.816406 -6.363281 4.421875 -6.066406 4.898438 -5.472656 L 4.898438 -6.222656 L 5.871094 -6.222656 L 5.871094 -0.84375 C 5.871094 0.125 5.769531 0.808594 5.574219 1.214844 C 5.375 1.613281 5.0625 1.933594 4.636719 2.171875 C 4.207031 2.402344 3.683594 2.519531 3.058594 2.523438 C 2.316406 2.519531 1.714844 2.351563 1.257813 2.023438 C 0.800781 1.6875 0.582031 1.1875 0.597656 0.515625 Z M 1.46875 -3.222656 C 1.464844 -2.40625 1.628906 -1.808594 1.957031 -1.4375 C 2.28125 -1.058594 2.6875 -0.871094 3.175781 -0.875 C 3.660156 -0.871094 4.066406 -1.058594 4.394531 -1.433594 C 4.722656 -1.804688 4.886719 -2.390625 4.886719 -3.1875 C 4.886719 -3.945313 4.714844 -4.519531 4.378906 -4.910156 C 4.039063 -5.296875 3.632813 -5.488281 3.15625 -5.492188 C 2.683594 -5.488281 2.285156 -5.296875 1.960938 -4.917969 C 1.628906 -4.535156 1.464844 -3.972656 1.46875 -3.222656 Z M 1.46875 -3.222656 "/>
</symbol>
<symbol overflow="visible" id="glyph0-5">
<path style="stroke:none;" d="M 0.789063 0 L 0.789063 -8.589844 L 1.84375 -8.589844 L 1.84375 -5.507813 C 2.335938 -6.078125 2.957031 -6.363281 3.710938 -6.363281 C 4.164063 -6.363281 4.566406 -6.269531 4.910156 -6.089844 C 5.25 -5.90625 5.492188 -5.65625 5.640625 -5.339844 C 5.785156 -5.015625 5.859375 -4.550781 5.859375 -3.945313 L 5.859375 0 L 4.804688 0 L 4.804688 -3.945313 C 4.804688 -4.46875 4.6875 -4.851563 4.460938 -5.09375 C 4.226563 -5.328125 3.90625 -5.449219 3.492188 -5.453125 C 3.179688 -5.449219 2.882813 -5.367188 2.609375 -5.210938 C 2.328125 -5.046875 2.132813 -4.828125 2.019531 -4.550781 C 1.898438 -4.273438 1.839844 -3.890625 1.84375 -3.40625 L 1.84375 0 Z M 0.789063 0 "/>
</symbol>
<symbol overflow="visible" id="glyph0-6">
<path style="stroke:none;" d="M 1.765625 0 L 0.785156 0 L 0.785156 -8.589844 L 1.839844 -8.589844 L 1.839844 -5.523438 C 2.285156 -6.082031 2.851563 -6.363281 3.546875 -6.363281 C 3.921875 -6.363281 4.285156 -6.285156 4.628906 -6.128906 C 4.972656 -5.972656 5.253906 -5.753906 5.472656 -5.480469 C 5.691406 -5.199219 5.863281 -4.863281 5.992188 -4.46875 C 6.113281 -4.074219 6.175781 -3.652344 6.179688 -3.203125 C 6.175781 -2.136719 5.914063 -1.3125 5.390625 -0.730469 C 4.863281 -0.148438 4.230469 0.140625 3.492188 0.140625 C 2.757813 0.140625 2.179688 -0.164063 1.765625 -0.78125 Z M 1.75 -3.15625 C 1.746094 -2.410156 1.847656 -1.871094 2.054688 -1.539063 C 2.386719 -0.996094 2.835938 -0.726563 3.40625 -0.726563 C 3.859375 -0.726563 4.257813 -0.925781 4.597656 -1.328125 C 4.929688 -1.726563 5.097656 -2.324219 5.101563 -3.117188 C 5.097656 -3.929688 4.9375 -4.527344 4.617188 -4.914063 C 4.296875 -5.300781 3.90625 -5.496094 3.453125 -5.496094 C 2.984375 -5.496094 2.585938 -5.292969 2.253906 -4.894531 C 1.914063 -4.492188 1.746094 -3.914063 1.75 -3.15625 Z M 1.75 -3.15625 "/>
</symbol>
<symbol overflow="visible" id="glyph0-7">
<path style="stroke:none;" d="M 0.398438 -3.109375 C 0.398438 -4.261719 0.71875 -5.117188 1.359375 -5.671875 C 1.894531 -6.132813 2.546875 -6.363281 3.316406 -6.363281 C 4.171875 -6.363281 4.871094 -6.082031 5.414063 -5.519531 C 5.953125 -4.957031 6.222656 -4.183594 6.226563 -3.199219 C 6.222656 -2.398438 6.101563 -1.765625 5.867188 -1.308594 C 5.625 -0.847656 5.277344 -0.492188 4.820313 -0.238281 C 4.359375 0.015625 3.859375 0.140625 3.316406 0.140625 C 2.441406 0.140625 1.734375 -0.136719 1.203125 -0.695313 C 0.664063 -1.253906 0.398438 -2.058594 0.398438 -3.109375 Z M 1.484375 -3.109375 C 1.480469 -2.308594 1.65625 -1.710938 2.003906 -1.320313 C 2.347656 -0.921875 2.785156 -0.726563 3.316406 -0.726563 C 3.839844 -0.726563 4.273438 -0.925781 4.621094 -1.324219 C 4.96875 -1.722656 5.144531 -2.328125 5.144531 -3.148438 C 5.144531 -3.914063 4.96875 -4.496094 4.617188 -4.894531 C 4.265625 -5.289063 3.832031 -5.488281 3.316406 -5.492188 C 2.785156 -5.488281 2.347656 -5.292969 2.003906 -4.898438 C 1.65625 -4.5 1.480469 -3.902344 1.484375 -3.109375 Z M 1.484375 -3.109375 "/>
</symbol>
<symbol overflow="visible" id="glyph0-8">
<path style="stroke:none;" d="M 0.78125 0 L 0.78125 -6.222656 L 1.726563 -6.222656 L 1.726563 -5.28125 C 1.96875 -5.71875 2.191406 -6.011719 2.398438 -6.152344 C 2.601563 -6.292969 2.828125 -6.363281 3.078125 -6.363281 C 3.429688 -6.363281 3.792969 -6.25 4.160156 -6.023438 L 3.796875 -5.046875 C 3.539063 -5.195313 3.28125 -5.273438 3.023438 -5.273438 C 2.792969 -5.273438 2.585938 -5.203125 2.402344 -5.066406 C 2.214844 -4.925781 2.082031 -4.734375 2.007813 -4.488281 C 1.890625 -4.113281 1.832031 -3.703125 1.835938 -3.257813 L 1.835938 0 Z M 0.78125 0 "/>
</symbol>
<symbol overflow="visible" id="glyph0-9">
<path style="stroke:none;" d="M 0.367188 -1.859375 L 1.414063 -2.023438 C 1.46875 -1.601563 1.632813 -1.28125 1.902344 -1.058594 C 2.167969 -0.835938 2.542969 -0.726563 3.023438 -0.726563 C 3.507813 -0.726563 3.867188 -0.824219 4.101563 -1.023438 C 4.335938 -1.21875 4.453125 -1.449219 4.453125 -1.71875 C 4.453125 -1.953125 4.347656 -2.140625 4.140625 -2.28125 C 3.996094 -2.371094 3.636719 -2.492188 3.0625 -2.636719 C 2.289063 -2.832031 1.753906 -3 1.457031 -3.144531 C 1.15625 -3.285156 0.929688 -3.480469 0.777344 -3.734375 C 0.621094 -3.984375 0.542969 -4.265625 0.546875 -4.570313 C 0.542969 -4.84375 0.605469 -5.097656 0.734375 -5.339844 C 0.859375 -5.574219 1.035156 -5.773438 1.253906 -5.929688 C 1.417969 -6.046875 1.640625 -6.148438 1.925781 -6.234375 C 2.207031 -6.320313 2.511719 -6.363281 2.835938 -6.363281 C 3.324219 -6.363281 3.75 -6.292969 4.121094 -6.152344 C 4.488281 -6.011719 4.761719 -5.820313 4.9375 -5.578125 C 5.113281 -5.335938 5.234375 -5.015625 5.304688 -4.617188 L 4.273438 -4.476563 C 4.222656 -4.796875 4.085938 -5.046875 3.863281 -5.226563 C 3.636719 -5.40625 3.320313 -5.496094 2.914063 -5.496094 C 2.425781 -5.496094 2.082031 -5.414063 1.875 -5.253906 C 1.664063 -5.09375 1.558594 -4.90625 1.5625 -4.695313 C 1.558594 -4.554688 1.601563 -4.433594 1.695313 -4.324219 C 1.773438 -4.210938 1.910156 -4.117188 2.097656 -4.042969 C 2.203125 -4.003906 2.511719 -3.914063 3.03125 -3.773438 C 3.773438 -3.574219 4.292969 -3.410156 4.589844 -3.285156 C 4.878906 -3.15625 5.113281 -2.972656 5.285156 -2.730469 C 5.453125 -2.488281 5.535156 -2.1875 5.539063 -1.828125 C 5.535156 -1.476563 5.433594 -1.144531 5.230469 -0.832031 C 5.023438 -0.519531 4.726563 -0.277344 4.339844 -0.113281 C 3.953125 0.0585938 3.515625 0.140625 3.03125 0.140625 C 2.21875 0.140625 1.601563 -0.0273438 1.179688 -0.363281 C 0.753906 -0.699219 0.484375 -1.195313 0.367188 -1.859375 Z M 0.367188 -1.859375 "/>
</symbol>
<symbol overflow="visible" id="glyph1-0">
<path style="stroke:none;" d="M 0 0.015625 L -8.589844 -3.28125 L -8.589844 -4.507813 L 0 -8.023438 L 0 -6.726563 L -2.601563 -5.726563 L -2.601563 -2.132813 L 0 -1.1875 Z M -3.527344 -2.460938 L -3.527344 -5.375 L -5.90625 -4.476563 C -6.628906 -4.203125 -7.222656 -4 -7.6875 -3.867188 C -7.132813 -3.757813 -6.585938 -3.601563 -6.046875 -3.40625 Z M -3.527344 -2.460938 "/>
</symbol>
<symbol overflow="visible" id="glyph1-1">
<path style="stroke:none;" d="M -2.277344 -4.851563 L -2.144531 -5.890625 C -1.425781 -5.773438 -0.863281 -5.484375 -0.464844 -5.019531 C -0.0585938 -4.550781 0.140625 -3.976563 0.140625 -3.296875 C 0.140625 -2.445313 -0.136719 -1.761719 -0.695313 -1.246094 C -1.25 -0.726563 -2.046875 -0.46875 -3.085938 -0.46875 C -3.753906 -0.46875 -4.34375 -0.578125 -4.851563 -0.800781 C -5.355469 -1.023438 -5.730469 -1.363281 -5.984375 -1.820313 C -6.234375 -2.273438 -6.363281 -2.769531 -6.363281 -3.304688 C -6.363281 -3.980469 -6.191406 -4.53125 -5.847656 -4.964844 C -5.503906 -5.390625 -5.019531 -5.667969 -4.394531 -5.789063 L -4.234375 -4.765625 C -4.652344 -4.664063 -4.96875 -4.492188 -5.179688 -4.246094 C -5.390625 -3.996094 -5.496094 -3.695313 -5.496094 -3.347656 C -5.496094 -2.8125 -5.304688 -2.382813 -4.921875 -2.050781 C -4.539063 -1.71875 -3.9375 -1.550781 -3.117188 -1.554688 C -2.28125 -1.550781 -1.671875 -1.710938 -1.292969 -2.035156 C -0.914063 -2.351563 -0.726563 -2.769531 -0.726563 -3.289063 C -0.726563 -3.695313 -0.851563 -4.042969 -1.105469 -4.324219 C -1.359375 -4.601563 -1.75 -4.777344 -2.277344 -4.851563 Z M -2.277344 -4.851563 "/>
</symbol>
<symbol overflow="visible" id="glyph1-2">
<path style="stroke:none;" d="M 0 -4.867188 L -0.914063 -4.867188 C -0.210938 -4.378906 0.140625 -3.722656 0.140625 -2.894531 C 0.140625 -2.527344 0.0703125 -2.183594 -0.0703125 -1.867188 C -0.210938 -1.546875 -0.386719 -1.308594 -0.597656 -1.15625 C -0.808594 -1 -1.070313 -0.894531 -1.382813 -0.832031 C -1.589844 -0.789063 -1.917969 -0.765625 -2.367188 -0.769531 L -6.222656 -0.769531 L -6.222656 -1.824219 L -2.773438 -1.824219 C -2.21875 -1.820313 -1.847656 -1.84375 -1.65625 -1.886719 C -1.378906 -1.949219 -1.160156 -2.089844 -1.003906 -2.308594 C -0.839844 -2.523438 -0.761719 -2.789063 -0.765625 -3.105469 C -0.761719 -3.417969 -0.84375 -3.714844 -1.007813 -3.996094 C -1.171875 -4.273438 -1.390625 -4.46875 -1.671875 -4.585938 C -1.945313 -4.699219 -2.351563 -4.757813 -2.886719 -4.757813 L -6.222656 -4.757813 L -6.222656 -5.8125 L 0 -5.8125 Z M 0 -4.867188 "/>
</symbol>
<symbol overflow="visible" id="glyph1-3">
<path style="stroke:none;" d="M 0 -0.78125 L -6.222656 -0.78125 L -6.222656 -1.730469 L -5.28125 -1.730469 C -5.71875 -1.96875 -6.011719 -2.191406 -6.152344 -2.398438 C -6.292969 -2.601563 -6.363281 -2.828125 -6.363281 -3.078125 C -6.363281 -3.429688 -6.25 -3.792969 -6.023438 -4.160156 L -5.046875 -3.796875 C -5.195313 -3.539063 -5.273438 -3.28125 -5.273438 -3.023438 C -5.273438 -2.792969 -5.203125 -2.585938 -5.066406 -2.402344 C -4.925781 -2.21875 -4.734375 -2.085938 -4.488281 -2.011719 C -4.113281 -1.890625 -3.703125 -1.832031 -3.257813 -1.835938 L 0 -1.835938 Z M 0 -0.78125 "/>
</symbol>
<symbol overflow="visible" id="glyph1-4">
<path style="stroke:none;" d="M -0.765625 -4.851563 C -0.433594 -4.460938 -0.199219 -4.082031 -0.0625 -3.722656 C 0.0742188 -3.355469 0.140625 -2.96875 0.140625 -2.5625 C 0.140625 -1.875 -0.0234375 -1.351563 -0.359375 -0.984375 C -0.6875 -0.617188 -1.117188 -0.433594 -1.640625 -0.433594 C -1.945313 -0.433594 -2.222656 -0.5 -2.472656 -0.640625 C -2.722656 -0.777344 -2.925781 -0.960938 -3.082031 -1.1875 C -3.234375 -1.410156 -3.347656 -1.664063 -3.429688 -1.945313 C -3.476563 -2.152344 -3.53125 -2.464844 -3.585938 -2.882813 C -3.6875 -3.734375 -3.808594 -4.359375 -3.949219 -4.765625 C -4.089844 -4.765625 -4.179688 -4.769531 -4.226563 -4.769531 C -4.648438 -4.769531 -4.953125 -4.667969 -5.132813 -4.46875 C -5.371094 -4.199219 -5.488281 -3.800781 -5.492188 -3.269531 C -5.488281 -2.773438 -5.402344 -2.40625 -5.230469 -2.171875 C -5.054688 -1.933594 -4.746094 -1.757813 -4.304688 -1.648438 L -4.445313 -0.617188 C -4.886719 -0.707031 -5.242188 -0.863281 -5.515625 -1.078125 C -5.78125 -1.292969 -5.992188 -1.601563 -6.140625 -2.011719 C -6.289063 -2.414063 -6.363281 -2.886719 -6.363281 -3.421875 C -6.363281 -3.953125 -6.300781 -4.382813 -6.175781 -4.714844 C -6.050781 -5.046875 -5.890625 -5.292969 -5.703125 -5.449219 C -5.511719 -5.605469 -5.273438 -5.714844 -4.984375 -5.777344 C -4.804688 -5.808594 -4.480469 -5.824219 -4.015625 -5.828125 L -2.605469 -5.828125 C -1.625 -5.824219 -1.003906 -5.847656 -0.746094 -5.894531 C -0.480469 -5.941406 -0.234375 -6.03125 0 -6.164063 L 0 -5.0625 C -0.21875 -4.953125 -0.472656 -4.882813 -0.765625 -4.851563 Z M -3.121094 -4.765625 C -2.960938 -4.375 -2.828125 -3.800781 -2.726563 -3.039063 C -2.660156 -2.605469 -2.589844 -2.300781 -2.515625 -2.121094 C -2.433594 -1.941406 -2.320313 -1.800781 -2.171875 -1.703125 C -2.019531 -1.605469 -1.851563 -1.558594 -1.671875 -1.558594 C -1.386719 -1.558594 -1.152344 -1.664063 -0.964844 -1.875 C -0.773438 -2.085938 -0.679688 -2.398438 -0.683594 -2.8125 C -0.679688 -3.21875 -0.769531 -3.578125 -0.949219 -3.894531 C -1.128906 -4.210938 -1.371094 -4.445313 -1.679688 -4.59375 C -1.917969 -4.707031 -2.269531 -4.761719 -2.734375 -4.765625 Z M -3.121094 -4.765625 "/>
</symbol>
<symbol overflow="visible" id="glyph1-5">
<path style="stroke:none;" d="M 2.398438 -0.742188 L 1.40625 -0.625 C 1.46875 -0.855469 1.5 -1.058594 1.5 -1.230469 C 1.5 -1.464844 1.460938 -1.652344 1.382813 -1.792969 C 1.304688 -1.933594 1.195313 -2.046875 1.054688 -2.140625 C 0.949219 -2.203125 0.6875 -2.3125 0.269531 -2.460938 C 0.210938 -2.480469 0.125 -2.511719 0.0117188 -2.554688 L -6.222656 -0.195313 L -6.222656 -1.332031 L -2.617188 -2.625 C -2.160156 -2.789063 -1.679688 -2.9375 -1.175781 -3.078125 C -1.65625 -3.195313 -2.128906 -3.339844 -2.59375 -3.507813 L -6.222656 -4.839844 L -6.222656 -5.894531 L 0.105469 -3.527344 C 0.789063 -3.273438 1.257813 -3.074219 1.519531 -2.9375 C 1.863281 -2.746094 2.117188 -2.53125 2.28125 -2.289063 C 2.4375 -2.042969 2.519531 -1.753906 2.523438 -1.421875 C 2.519531 -1.214844 2.476563 -0.988281 2.398438 -0.742188 Z M 2.398438 -0.742188 "/>
</symbol>
<symbol overflow="visible" id="glyph1-6">
<path style="stroke:none;" d=""/>
</symbol>
<symbol overflow="visible" id="glyph1-7">
<path style="stroke:none;" d="M 2.523438 -2.804688 C 1.789063 -2.222656 0.933594 -1.730469 -0.0507813 -1.328125 C -1.035156 -0.925781 -2.054688 -0.726563 -3.109375 -0.726563 C -4.039063 -0.726563 -4.929688 -0.875 -5.78125 -1.179688 C -6.769531 -1.527344 -7.753906 -2.070313 -8.734375 -2.808594 L -8.734375 -3.5625 C -7.917969 -3.089844 -7.339844 -2.777344 -6.996094 -2.625 C -6.457031 -2.386719 -5.894531 -2.199219 -5.308594 -2.0625 C -4.574219 -1.894531 -3.839844 -1.808594 -3.105469 -1.8125 C -1.222656 -1.808594 0.652344 -2.394531 2.523438 -3.5625 Z M 2.523438 -2.804688 "/>
</symbol>
<symbol overflow="visible" id="glyph1-8">
<path style="stroke:none;" d="M -3.011719 -7.054688 L -2.722656 -8.191406 C -1.789063 -7.953125 -1.078125 -7.523438 -0.585938 -6.90625 C -0.0976563 -6.285156 0.144531 -5.527344 0.148438 -4.632813 C 0.144531 -3.707031 -0.0390625 -2.953125 -0.417969 -2.375 C -0.792969 -1.792969 -1.339844 -1.351563 -2.054688 -1.050781 C -2.769531 -0.746094 -3.539063 -0.597656 -4.359375 -0.597656 C -5.253906 -0.597656 -6.03125 -0.765625 -6.699219 -1.109375 C -7.363281 -1.449219 -7.871094 -1.9375 -8.214844 -2.570313 C -8.558594 -3.199219 -8.730469 -3.894531 -8.734375 -4.652344 C -8.730469 -5.511719 -8.511719 -6.234375 -8.078125 -6.820313 C -7.636719 -7.40625 -7.023438 -7.8125 -6.234375 -8.046875 L -5.96875 -6.925781 C -6.589844 -6.722656 -7.046875 -6.433594 -7.335938 -6.058594 C -7.621094 -5.679688 -7.761719 -5.203125 -7.765625 -4.628906 C -7.761719 -3.96875 -7.605469 -3.414063 -7.289063 -2.972656 C -6.96875 -2.527344 -6.542969 -2.21875 -6.011719 -2.039063 C -5.480469 -1.859375 -4.929688 -1.769531 -4.367188 -1.769531 C -3.632813 -1.769531 -2.996094 -1.875 -2.449219 -2.085938 C -1.902344 -2.296875 -1.492188 -2.628906 -1.226563 -3.082031 C -0.953125 -3.53125 -0.820313 -4.015625 -0.824219 -4.539063 C -0.820313 -5.175781 -1.003906 -5.714844 -1.375 -6.15625 C -1.738281 -6.597656 -2.285156 -6.898438 -3.011719 -7.054688 Z M -3.011719 -7.054688 "/>
</symbol>
<symbol overflow="visible" id="glyph1-9">
<path style="stroke:none;" d="M -3.109375 -0.398438 C -4.261719 -0.398438 -5.117188 -0.71875 -5.671875 -1.359375 C -6.132813 -1.894531 -6.363281 -2.546875 -6.363281 -3.316406 C -6.363281 -4.171875 -6.082031 -4.871094 -5.519531 -5.414063 C -4.957031 -5.953125 -4.183594 -6.222656 -3.199219 -6.226563 C -2.394531 -6.222656 -1.761719 -6.101563 -1.308594 -5.867188 C -0.847656 -5.625 -0.492188 -5.277344 -0.238281 -4.820313 C 0.015625 -4.359375 0.140625 -3.859375 0.140625 -3.316406 C 0.140625 -2.441406 -0.136719 -1.734375 -0.695313 -1.203125 C -1.253906 -0.664063 -2.058594 -0.398438 -3.109375 -0.398438 Z M -3.109375 -1.484375 C -2.308594 -1.480469 -1.710938 -1.65625 -1.320313 -2.003906 C -0.921875 -2.347656 -0.726563 -2.785156 -0.726563 -3.316406 C -0.726563 -3.839844 -0.925781 -4.273438 -1.324219 -4.621094 C -1.722656 -4.96875 -2.328125 -5.144531 -3.144531 -5.144531 C -3.914063 -5.144531 -4.496094 -4.96875 -4.894531 -4.617188 C -5.289063 -4.265625 -5.488281 -3.832031 -5.492188 -3.316406 C -5.488281 -2.789063 -5.292969 -2.351563 -4.898438 -2.003906 C -4.5 -1.65625 -3.902344 -1.480469 -3.109375 -1.484375 Z M -3.109375 -1.484375 "/>
</symbol>
<symbol overflow="visible" id="glyph1-10">
<path style="stroke:none;" d="M -1.859375 -0.371094 L -2.023438 -1.414063 C -1.601563 -1.46875 -1.28125 -1.632813 -1.058594 -1.902344 C -0.835938 -2.167969 -0.726563 -2.542969 -0.726563 -3.023438 C -0.726563 -3.507813 -0.824219 -3.867188 -1.019531 -4.101563 C -1.214844 -4.335938 -1.445313 -4.453125 -1.714844 -4.453125 C -1.953125 -4.453125 -2.140625 -4.347656 -2.277344 -4.140625 C -2.367188 -3.996094 -2.488281 -3.636719 -2.636719 -3.0625 C -2.832031 -2.289063 -3 -1.753906 -3.144531 -1.457031 C -3.285156 -1.15625 -3.480469 -0.929688 -3.734375 -0.777344 C -3.984375 -0.621094 -4.265625 -0.542969 -4.570313 -0.546875 C -4.84375 -0.542969 -5.097656 -0.605469 -5.339844 -0.734375 C -5.574219 -0.859375 -5.773438 -1.035156 -5.929688 -1.253906 C -6.046875 -1.417969 -6.148438 -1.640625 -6.234375 -1.925781 C -6.320313 -2.207031 -6.363281 -2.511719 -6.363281 -2.835938 C -6.363281 -3.324219 -6.292969 -3.75 -6.152344 -4.121094 C -6.011719 -4.488281 -5.820313 -4.761719 -5.578125 -4.9375 C -5.335938 -5.113281 -5.015625 -5.234375 -4.617188 -5.304688 L -4.476563 -4.273438 C -4.796875 -4.222656 -5.046875 -4.085938 -5.226563 -3.863281 C -5.40625 -3.636719 -5.496094 -3.320313 -5.496094 -2.914063 C -5.496094 -2.425781 -5.414063 -2.082031 -5.253906 -1.875 C -5.09375 -1.667969 -4.90625 -1.5625 -4.695313 -1.566406 C -4.554688 -1.5625 -4.433594 -1.605469 -4.324219 -1.695313 C -4.210938 -1.777344 -4.117188 -1.914063 -4.042969 -2.097656 C -4.003906 -2.203125 -3.914063 -2.511719 -3.773438 -3.03125 C -3.570313 -3.773438 -3.40625 -4.292969 -3.28125 -4.589844 C -3.15625 -4.878906 -2.972656 -5.113281 -2.730469 -5.285156 C -2.488281 -5.453125 -2.1875 -5.535156 -1.828125 -5.539063 C -1.476563 -5.535156 -1.144531 -5.433594 -0.832031 -5.230469 C -0.519531 -5.023438 -0.277344 -4.726563 -0.113281 -4.339844 C 0.0585938 -3.953125 0.140625 -3.515625 0.140625 -3.03125 C 0.140625 -2.21875 -0.0273438 -1.601563 -0.363281 -1.179688 C -0.699219 -0.753906 -1.195313 -0.484375 -1.859375 -0.371094 Z M -1.859375 -0.371094 "/>
</symbol>
<symbol overflow="visible" id="glyph1-11">
<path style="stroke:none;" d="M -2.578125 -0.382813 L -3.640625 -0.382813 L -3.640625 -3.621094 L -2.578125 -3.621094 Z M -2.578125 -0.382813 "/>
</symbol>
<symbol overflow="visible" id="glyph1-12">
<path style="stroke:none;" d="M 0 -3.382813 L -8.589844 -0.0546875 L -8.589844 -1.285156 L -2.351563 -3.515625 C -1.84375 -3.695313 -1.375 -3.84375 -0.941406 -3.96875 C -1.40625 -4.09375 -1.875 -4.25 -2.347656 -4.429688 L -8.589844 -6.75 L -8.589844 -7.910156 L 0 -4.546875 Z M 0 -3.382813 "/>
</symbol>
<symbol overflow="visible" id="glyph1-13">
<path style="stroke:none;" d="M 0 -0.765625 L -8.589844 -0.769531 L -8.589844 -1.824219 L 0 -1.820313 Z M 0 -0.765625 "/>
</symbol>
<symbol overflow="visible" id="glyph1-14">
<path style="stroke:none;" d="M -7.375 -0.796875 L -8.589844 -0.796875 L -8.589844 -1.851563 L -7.375 -1.851563 Z M 0 -0.796875 L -6.222656 -0.796875 L -6.222656 -1.851563 L 0 -1.851563 Z M 0 -0.796875 "/>
</symbol>
<symbol overflow="visible" id="glyph1-15">
<path style="stroke:none;" d="M 0 -4.828125 L -0.785156 -4.828125 C -0.167969 -4.429688 0.140625 -3.847656 0.140625 -3.085938 C 0.140625 -2.589844 0.00390625 -2.132813 -0.269531 -1.71875 C -0.542969 -1.296875 -0.921875 -0.976563 -1.414063 -0.75 C -1.898438 -0.523438 -2.464844 -0.410156 -3.105469 -0.410156 C -3.726563 -0.410156 -4.289063 -0.511719 -4.796875 -0.71875 C -5.300781 -0.925781 -5.6875 -1.238281 -5.957031 -1.652344 C -6.226563 -2.066406 -6.363281 -2.527344 -6.363281 -3.042969 C -6.363281 -3.414063 -6.28125 -3.75 -6.125 -4.042969 C -5.964844 -4.335938 -5.761719 -4.574219 -5.507813 -4.757813 L -8.589844 -4.757813 L -8.589844 -5.808594 L 0 -5.804688 Z M -3.105469 -1.496094 C -2.308594 -1.492188 -1.710938 -1.660156 -1.316406 -1.996094 C -0.921875 -2.328125 -0.726563 -2.726563 -0.726563 -3.1875 C -0.726563 -3.648438 -0.914063 -4.039063 -1.289063 -4.359375 C -1.664063 -4.679688 -2.238281 -4.839844 -3.015625 -4.84375 C -3.867188 -4.839844 -4.492188 -4.675781 -4.894531 -4.351563 C -5.289063 -4.023438 -5.488281 -3.621094 -5.492188 -3.140625 C -5.488281 -2.671875 -5.296875 -2.277344 -4.917969 -1.964844 C -4.53125 -1.648438 -3.929688 -1.492188 -3.105469 -1.496094 Z M -3.105469 -1.496094 "/>
</symbol>
<symbol overflow="visible" id="glyph1-16">
<path style="stroke:none;" d="M -0.941406 -3.09375 L -0.0117188 -3.246094 C 0.0507813 -2.949219 0.0820313 -2.683594 0.0820313 -2.449219 C 0.0820313 -2.066406 0.0234375 -1.769531 -0.0976563 -1.558594 C -0.21875 -1.347656 -0.378906 -1.199219 -0.574219 -1.113281 C -0.769531 -1.027344 -1.183594 -0.984375 -1.820313 -0.984375 L -5.402344 -0.984375 L -5.402344 -0.210938 L -6.222656 -0.210938 L -6.222656 -0.984375 L -7.765625 -0.984375 L -8.398438 -2.035156 L -6.222656 -2.035156 L -6.222656 -3.09375 L -5.402344 -3.09375 L -5.402344 -2.035156 L -1.761719 -2.03125 C -1.460938 -2.027344 -1.269531 -2.046875 -1.183594 -2.085938 C -1.097656 -2.125 -1.027344 -2.183594 -0.976563 -2.269531 C -0.925781 -2.351563 -0.902344 -2.472656 -0.902344 -2.632813 C -0.902344 -2.742188 -0.914063 -2.898438 -0.941406 -3.09375 Z M -0.941406 -3.09375 "/>
</symbol>
<symbol overflow="visible" id="glyph1-17">
<path style="stroke:none;" d="M 0 -0.789063 L -6.222656 -0.792969 L -6.222656 -1.742188 L -5.335938 -1.742188 C -6.019531 -2.195313 -6.363281 -2.855469 -6.363281 -3.722656 C -6.363281 -4.089844 -6.292969 -4.433594 -6.160156 -4.753906 C -6.023438 -5.066406 -5.847656 -5.304688 -5.632813 -5.460938 C -5.410156 -5.617188 -5.152344 -5.726563 -4.851563 -5.789063 C -4.65625 -5.828125 -4.3125 -5.847656 -3.824219 -5.847656 L 0 -5.847656 L 0 -4.792969 L -3.785156 -4.792969 C -4.214844 -4.792969 -4.535156 -4.75 -4.75 -4.667969 C -4.960938 -4.585938 -5.128906 -4.441406 -5.257813 -4.234375 C -5.382813 -4.023438 -5.449219 -3.777344 -5.449219 -3.5 C -5.449219 -3.046875 -5.304688 -2.660156 -5.019531 -2.335938 C -4.734375 -2.007813 -4.195313 -1.84375 -3.398438 -1.847656 L 0 -1.84375 Z M 0 -0.789063 "/>
</symbol>
<symbol overflow="visible" id="glyph1-18">
<path style="stroke:none;" d="M 2.523438 -1.480469 L 2.523438 -0.726563 C 0.652344 -1.890625 -1.222656 -2.472656 -3.105469 -2.476563 C -3.839844 -2.476563 -4.566406 -2.394531 -5.289063 -2.226563 C -5.875 -2.09375 -6.4375 -1.90625 -6.976563 -1.671875 C -7.328125 -1.515625 -7.914063 -1.203125 -8.734375 -0.726563 L -8.734375 -1.484375 C -7.753906 -2.214844 -6.769531 -2.757813 -5.78125 -3.113281 C -4.929688 -3.410156 -4.039063 -3.5625 -3.109375 -3.5625 C -2.050781 -3.5625 -1.03125 -3.359375 -0.0507813 -2.957031 C 0.933594 -2.550781 1.789063 -2.058594 2.523438 -1.480469 Z M 2.523438 -1.480469 "/>
</symbol>
<symbol overflow="visible" id="glyph2-0">
<path style="stroke:none;" d="M 0.398438 -3.390625 C 0.398438 -4.199219 0.480469 -4.851563 0.648438 -5.351563 C 0.8125 -5.84375 1.0625 -6.226563 1.394531 -6.496094 C 1.722656 -6.761719 2.136719 -6.894531 2.640625 -6.898438 C 3.003906 -6.894531 3.328125 -6.820313 3.609375 -6.675781 C 3.886719 -6.523438 4.113281 -6.3125 4.296875 -6.035156 C 4.476563 -5.753906 4.621094 -5.410156 4.722656 -5.011719 C 4.824219 -4.605469 4.875 -4.066406 4.878906 -3.390625 C 4.875 -2.582031 4.792969 -1.929688 4.628906 -1.4375 C 4.464844 -0.9375 4.214844 -0.554688 3.886719 -0.289063 C 3.554688 -0.015625 3.140625 0.117188 2.640625 0.117188 C 1.972656 0.117188 1.453125 -0.117188 1.078125 -0.59375 C 0.625 -1.164063 0.398438 -2.097656 0.398438 -3.390625 Z M 1.265625 -3.390625 C 1.265625 -2.257813 1.394531 -1.507813 1.660156 -1.136719 C 1.921875 -0.761719 2.25 -0.574219 2.640625 -0.578125 C 3.023438 -0.574219 3.347656 -0.761719 3.613281 -1.140625 C 3.875 -1.511719 4.007813 -2.261719 4.011719 -3.390625 C 4.007813 -4.519531 3.875 -5.269531 3.613281 -5.644531 C 3.347656 -6.011719 3.019531 -6.199219 2.628906 -6.203125 C 2.238281 -6.199219 1.929688 -6.035156 1.703125 -5.710938 C 1.410156 -5.289063 1.265625 -4.515625 1.265625 -3.390625 Z M 1.265625 -3.390625 "/>
</symbol>
<symbol overflow="visible" id="glyph2-1">
<path style="stroke:none;" d="M 0.871094 0 L 0.871094 -0.960938 L 1.832031 -0.960938 L 1.832031 0 Z M 0.871094 0 "/>
</symbol>
<symbol overflow="visible" id="glyph2-2">
<path style="stroke:none;" d="M 0.523438 -1.589844 L 1.335938 -1.664063 C 1.402344 -1.28125 1.53125 -1.003906 1.726563 -0.835938 C 1.917969 -0.660156 2.167969 -0.574219 2.476563 -0.578125 C 2.730469 -0.574219 2.957031 -0.632813 3.15625 -0.753906 C 3.347656 -0.871094 3.507813 -1.03125 3.636719 -1.230469 C 3.757813 -1.425781 3.863281 -1.691406 3.949219 -2.03125 C 4.035156 -2.367188 4.078125 -2.710938 4.078125 -3.066406 C 4.078125 -3.097656 4.074219 -3.15625 4.074219 -3.234375 C 3.902344 -2.964844 3.671875 -2.746094 3.382813 -2.578125 C 3.085938 -2.410156 2.769531 -2.324219 2.433594 -2.328125 C 1.859375 -2.324219 1.378906 -2.53125 0.988281 -2.945313 C 0.59375 -3.355469 0.398438 -3.898438 0.398438 -4.578125 C 0.398438 -5.273438 0.601563 -5.835938 1.015625 -6.261719 C 1.421875 -6.683594 1.9375 -6.894531 2.558594 -6.898438 C 3.003906 -6.894531 3.414063 -6.777344 3.785156 -6.539063 C 4.152344 -6.296875 4.433594 -5.953125 4.628906 -5.511719 C 4.820313 -5.0625 4.914063 -4.417969 4.917969 -3.578125 C 4.914063 -2.695313 4.820313 -1.996094 4.628906 -1.476563 C 4.4375 -0.957031 4.152344 -0.558594 3.777344 -0.289063 C 3.398438 -0.015625 2.957031 0.117188 2.457031 0.117188 C 1.914063 0.117188 1.476563 -0.03125 1.136719 -0.328125 C 0.796875 -0.625 0.589844 -1.042969 0.523438 -1.589844 Z M 3.980469 -4.621094 C 3.976563 -5.101563 3.847656 -5.484375 3.59375 -5.773438 C 3.332031 -6.054688 3.023438 -6.199219 2.664063 -6.203125 C 2.285156 -6.199219 1.957031 -6.046875 1.683594 -5.742188 C 1.402344 -5.433594 1.265625 -5.035156 1.265625 -4.550781 C 1.265625 -4.109375 1.394531 -3.753906 1.660156 -3.484375 C 1.921875 -3.207031 2.25 -3.070313 2.640625 -3.074219 C 3.027344 -3.070313 3.347656 -3.207031 3.601563 -3.484375 C 3.851563 -3.753906 3.976563 -4.132813 3.980469 -4.621094 Z M 3.980469 -4.621094 "/>
</symbol>
<symbol overflow="visible" id="glyph2-3">
<path style="stroke:none;" d="M 4.777344 -5.1875 L 3.9375 -5.125 C 3.859375 -5.453125 3.75 -5.691406 3.617188 -5.84375 C 3.386719 -6.082031 3.105469 -6.203125 2.773438 -6.207031 C 2.5 -6.203125 2.265625 -6.128906 2.066406 -5.980469 C 1.796875 -5.785156 1.585938 -5.503906 1.4375 -5.132813 C 1.28125 -4.757813 1.203125 -4.226563 1.199219 -3.542969 C 1.398438 -3.851563 1.648438 -4.082031 1.945313 -4.230469 C 2.238281 -4.378906 2.542969 -4.453125 2.867188 -4.457031 C 3.425781 -4.453125 3.90625 -4.246094 4.304688 -3.835938 C 4.699219 -3.417969 4.898438 -2.882813 4.898438 -2.230469 C 4.898438 -1.796875 4.804688 -1.394531 4.617188 -1.027344 C 4.429688 -0.652344 4.171875 -0.371094 3.851563 -0.175781 C 3.523438 0.0195313 3.15625 0.117188 2.746094 0.117188 C 2.039063 0.117188 1.464844 -0.140625 1.023438 -0.65625 C 0.578125 -1.171875 0.355469 -2.023438 0.359375 -3.214844 C 0.355469 -4.539063 0.601563 -5.503906 1.097656 -6.113281 C 1.519531 -6.632813 2.097656 -6.894531 2.828125 -6.898438 C 3.363281 -6.894531 3.804688 -6.746094 4.152344 -6.445313 C 4.496094 -6.140625 4.703125 -5.71875 4.777344 -5.1875 Z M 1.332031 -2.226563 C 1.328125 -1.933594 1.390625 -1.652344 1.515625 -1.390625 C 1.636719 -1.121094 1.808594 -0.921875 2.035156 -0.785156 C 2.253906 -0.644531 2.488281 -0.574219 2.734375 -0.578125 C 3.085938 -0.574219 3.390625 -0.71875 3.648438 -1.007813 C 3.902344 -1.292969 4.03125 -1.683594 4.035156 -2.179688 C 4.03125 -2.652344 3.90625 -3.023438 3.65625 -3.300781 C 3.402344 -3.570313 3.082031 -3.707031 2.699219 -3.710938 C 2.316406 -3.707031 1.992188 -3.570313 1.730469 -3.300781 C 1.460938 -3.023438 1.328125 -2.667969 1.332031 -2.226563 Z M 1.332031 -2.226563 "/>
</symbol>
<symbol overflow="visible" id="glyph2-4">
<path style="stroke:none;" d="M 0.398438 -1.800781 L 1.285156 -1.875 C 1.347656 -1.441406 1.5 -1.117188 1.742188 -0.902344 C 1.976563 -0.683594 2.265625 -0.574219 2.605469 -0.578125 C 3.007813 -0.574219 3.351563 -0.726563 3.636719 -1.035156 C 3.914063 -1.339844 4.054688 -1.746094 4.058594 -2.253906 C 4.054688 -2.734375 3.917969 -3.113281 3.652344 -3.394531 C 3.378906 -3.667969 3.027344 -3.808594 2.59375 -3.8125 C 2.316406 -3.808594 2.070313 -3.746094 1.855469 -3.625 C 1.632813 -3.5 1.460938 -3.339844 1.339844 -3.144531 L 0.546875 -3.25 L 1.214844 -6.777344 L 4.632813 -6.777344 L 4.632813 -5.972656 L 1.890625 -5.972656 L 1.519531 -4.125 C 1.925781 -4.410156 2.359375 -4.550781 2.816406 -4.554688 C 3.414063 -4.550781 3.921875 -4.34375 4.335938 -3.929688 C 4.746094 -3.511719 4.949219 -2.976563 4.953125 -2.328125 C 4.949219 -1.703125 4.769531 -1.167969 4.410156 -0.71875 C 3.96875 -0.160156 3.367188 0.117188 2.605469 0.117188 C 1.976563 0.117188 1.464844 -0.0546875 1.074219 -0.40625 C 0.675781 -0.753906 0.453125 -1.21875 0.398438 -1.800781 Z M 0.398438 -1.800781 "/>
</symbol>
<symbol overflow="visible" id="glyph2-5">
<path style="stroke:none;" d="M 0.453125 -5.972656 L 0.453125 -6.78125 L 4.902344 -6.78125 L 4.902344 -6.125 C 4.460938 -5.65625 4.027344 -5.039063 3.601563 -4.269531 C 3.167969 -3.496094 2.835938 -2.703125 2.605469 -1.890625 C 2.433594 -1.3125 2.324219 -0.683594 2.28125 0 L 1.414063 0 C 1.421875 -0.539063 1.53125 -1.191406 1.734375 -1.960938 C 1.9375 -2.722656 2.226563 -3.460938 2.609375 -4.175781 C 2.984375 -4.882813 3.390625 -5.480469 3.820313 -5.972656 Z M 0.453125 -5.972656 "/>
</symbol>
<symbol overflow="visible" id="glyph2-6">
<path style="stroke:none;" d="M 1.695313 -3.726563 C 1.34375 -3.851563 1.085938 -4.03125 0.917969 -4.273438 C 0.746094 -4.507813 0.660156 -4.792969 0.664063 -5.128906 C 0.660156 -5.625 0.839844 -6.046875 1.203125 -6.386719 C 1.558594 -6.726563 2.039063 -6.894531 2.640625 -6.898438 C 3.238281 -6.894531 3.71875 -6.722656 4.085938 -6.375 C 4.449219 -6.027344 4.632813 -5.601563 4.636719 -5.105469 C 4.632813 -4.78125 4.550781 -4.503906 4.382813 -4.269531 C 4.214844 -4.03125 3.960938 -3.851563 3.625 -3.726563 C 4.042969 -3.585938 4.363281 -3.363281 4.585938 -3.058594 C 4.804688 -2.753906 4.914063 -2.386719 4.917969 -1.964844 C 4.914063 -1.371094 4.707031 -0.878906 4.292969 -0.480469 C 3.875 -0.0820313 3.328125 0.117188 2.652344 0.117188 C 1.972656 0.117188 1.425781 -0.0820313 1.011719 -0.484375 C 0.59375 -0.882813 0.386719 -1.382813 0.390625 -1.988281 C 0.386719 -2.429688 0.5 -2.804688 0.730469 -3.109375 C 0.953125 -3.410156 1.273438 -3.617188 1.695313 -3.726563 Z M 1.527344 -5.15625 C 1.523438 -4.828125 1.628906 -4.5625 1.839844 -4.359375 C 2.050781 -4.152344 2.320313 -4.046875 2.65625 -4.050781 C 2.976563 -4.046875 3.246094 -4.148438 3.457031 -4.355469 C 3.664063 -4.558594 3.765625 -4.8125 3.769531 -5.109375 C 3.765625 -5.417969 3.660156 -5.675781 3.445313 -5.890625 C 3.230469 -6.097656 2.964844 -6.203125 2.648438 -6.207031 C 2.324219 -6.203125 2.054688 -6.101563 1.84375 -5.894531 C 1.628906 -5.6875 1.523438 -5.441406 1.527344 -5.15625 Z M 1.257813 -1.984375 C 1.253906 -1.738281 1.308594 -1.503906 1.425781 -1.28125 C 1.535156 -1.054688 1.707031 -0.882813 1.933594 -0.761719 C 2.160156 -0.636719 2.402344 -0.574219 2.664063 -0.578125 C 3.0625 -0.574219 3.394531 -0.703125 3.660156 -0.964844 C 3.921875 -1.222656 4.054688 -1.550781 4.054688 -1.953125 C 4.054688 -2.355469 3.917969 -2.691406 3.648438 -2.960938 C 3.375 -3.222656 3.035156 -3.355469 2.632813 -3.359375 C 2.234375 -3.355469 1.90625 -3.226563 1.648438 -2.964844 C 1.382813 -2.703125 1.253906 -2.375 1.257813 -1.984375 Z M 1.257813 -1.984375 "/>
</symbol>
<symbol overflow="visible" id="glyph2-7">
<path style="stroke:none;" d="M 3.101563 0 L 3.101563 -1.644531 L 0.121094 -1.644531 L 0.121094 -2.417969 L 3.257813 -6.871094 L 3.945313 -6.871094 L 3.945313 -2.417969 L 4.875 -2.417969 L 4.875 -1.644531 L 3.945313 -1.644531 L 3.945313 0 Z M 3.101563 -2.417969 L 3.101563 -5.515625 L 0.953125 -2.417969 Z M 3.101563 -2.417969 "/>
</symbol>
<symbol overflow="visible" id="glyph2-8">
<path style="stroke:none;" d="M 3.578125 0 L 2.734375 0 L 2.734375 -5.375 C 2.527344 -5.179688 2.261719 -4.988281 1.933594 -4.792969 C 1.601563 -4.597656 1.304688 -4.453125 1.046875 -4.359375 L 1.046875 -5.175781 C 1.515625 -5.394531 1.925781 -5.664063 2.28125 -5.980469 C 2.632813 -6.292969 2.882813 -6.597656 3.03125 -6.898438 L 3.578125 -6.898438 Z M 3.578125 0 "/>
</symbol>
<symbol overflow="visible" id="glyph2-9">
<path style="stroke:none;" d="M 4.832031 -0.8125 L 4.832031 0 L 0.289063 0 C 0.28125 -0.203125 0.316406 -0.398438 0.390625 -0.585938 C 0.503906 -0.894531 0.6875 -1.199219 0.945313 -1.5 C 1.195313 -1.796875 1.5625 -2.140625 2.046875 -2.539063 C 2.789063 -3.148438 3.296875 -3.636719 3.5625 -3.996094 C 3.824219 -4.351563 3.953125 -4.6875 3.957031 -5.011719 C 3.953125 -5.339844 3.835938 -5.621094 3.597656 -5.855469 C 3.355469 -6.082031 3.042969 -6.199219 2.664063 -6.203125 C 2.253906 -6.199219 1.929688 -6.078125 1.6875 -5.835938 C 1.441406 -5.589844 1.316406 -5.25 1.316406 -4.824219 L 0.449219 -4.914063 C 0.507813 -5.558594 0.730469 -6.050781 1.121094 -6.390625 C 1.503906 -6.726563 2.023438 -6.894531 2.679688 -6.898438 C 3.335938 -6.894531 3.859375 -6.714844 4.246094 -6.351563 C 4.628906 -5.984375 4.820313 -5.53125 4.824219 -4.992188 C 4.820313 -4.714844 4.765625 -4.441406 4.652344 -4.179688 C 4.539063 -3.910156 4.351563 -3.632813 4.09375 -3.339844 C 3.832031 -3.046875 3.398438 -2.644531 2.792969 -2.132813 C 2.285156 -1.707031 1.960938 -1.417969 1.816406 -1.265625 C 1.671875 -1.113281 1.550781 -0.960938 1.460938 -0.8125 Z M 4.832031 -0.8125 "/>
</symbol>
</g>
<clipPath id="clip1">
  <path d="M 66.960938 35.007813 L 475.992188 35.007813 L 475.992188 238.53125 L 66.960938 238.53125 Z M 66.960938 35.007813 "/>
</clipPath>
</defs>
<g id="surface6">
<rect x="0" y="0" width="504" height="288" style="fill:rgb(100%,100%,100%);fill-opacity:1;stroke:none;"/>
<g style="fill:rgb(0%,0%,0%);fill-opacity:1;">
  <use xlink:href="#glyph0-0" x="240.289063" y="276"/>
  <use xlink:href="#glyph0-1" x="246.962891" y="276"/>
  <use xlink:href="#glyph0-2" x="255.628906" y="276"/>
  <use xlink:href="#glyph0-3" x="262.302734" y="276"/>
  <use xlink:href="#glyph0-4" x="264.96875" y="276"/>
  <use xlink:href="#glyph0-5" x="271.642578" y="276"/>
  <use xlink:href="#glyph0-6" x="278.316406" y="276"/>
  <use xlink:href="#glyph0-7" x="284.990234" y="276"/>
  <use xlink:href="#glyph0-8" x="291.664063" y="276"/>
  <use xlink:href="#glyph0-9" x="295.660156" y="276"/>
</g>
<g style="fill:rgb(0%,0%,0%);fill-opacity:1;">
  <use xlink:href="#glyph1-0" x="14.589844" y="210.625"/>
  <use xlink:href="#glyph1-1" x="14.589844" y="202.621094"/>
  <use xlink:href="#glyph1-1" x="14.589844" y="196.621094"/>
  <use xlink:href="#glyph1-2" x="14.589844" y="190.621094"/>
  <use xlink:href="#glyph1-3" x="14.589844" y="183.947266"/>
  <use xlink:href="#glyph1-4" x="14.589844" y="179.951172"/>
  <use xlink:href="#glyph1-1" x="14.589844" y="173.277344"/>
  <use xlink:href="#glyph1-5" x="14.589844" y="167.277344"/>
  <use xlink:href="#glyph1-6" x="14.589844" y="161.277344"/>
  <use xlink:href="#glyph1-7" x="14.589844" y="157.943359"/>
  <use xlink:href="#glyph1-8" x="14.589844" y="153.947266"/>
  <use xlink:href="#glyph1-3" x="14.589844" y="145.28125"/>
  <use xlink:href="#glyph1-9" x="14.589844" y="141.285156"/>
  <use xlink:href="#glyph1-10" x="14.589844" y="134.611328"/>
  <use xlink:href="#glyph1-10" x="14.589844" y="128.611328"/>
  <use xlink:href="#glyph1-11" x="14.589844" y="122.611328"/>
  <use xlink:href="#glyph1-12" x="14.589844" y="118.615234"/>
  <use xlink:href="#glyph1-4" x="14.589844" y="110.611328"/>
  <use xlink:href="#glyph1-13" x="14.589844" y="103.9375"/>
  <use xlink:href="#glyph1-14" x="14.589844" y="101.271484"/>
  <use xlink:href="#glyph1-15" x="14.589844" y="98.605469"/>
  <use xlink:href="#glyph1-4" x="14.589844" y="91.931641"/>
  <use xlink:href="#glyph1-16" x="14.589844" y="85.257813"/>
  <use xlink:href="#glyph1-14" x="14.589844" y="81.923828"/>
  <use xlink:href="#glyph1-9" x="14.589844" y="79.257813"/>
  <use xlink:href="#glyph1-17" x="14.589844" y="72.583984"/>
  <use xlink:href="#glyph1-18" x="14.589844" y="65.910156"/>
</g>
<path style="fill:none;stroke-width:0.75;stroke-linecap:round;stroke-linejoin:round;stroke:rgb(0%,0%,0%);stroke-opacity:1;stroke-miterlimit:10;" d="M 121.839844 35.007813 L 121.839844 29.339844 "/>
<path style="fill:none;stroke-width:0.75;stroke-linecap:round;stroke-linejoin:round;stroke:rgb(0%,0%,0%);stroke-opacity:1;stroke-miterlimit:10;" d="M 181.496094 35.007813 L 181.496094 29.339844 "/>
<path style="fill:none;stroke-width:0.75;stroke-linecap:round;stroke-linejoin:round;stroke:rgb(0%,0%,0%);stroke-opacity:1;stroke-miterlimit:10;" d="M 241.148438 35.007813 L 241.148438 29.339844 "/>
<path style="fill:none;stroke-width:0.75;stroke-linecap:round;stroke-linejoin:round;stroke:rgb(0%,0%,0%);stroke-opacity:1;stroke-miterlimit:10;" d="M 300.804688 35.007813 L 300.804688 29.339844 "/>
<path style="fill:none;stroke-width:0.75;stroke-linecap:round;stroke-linejoin:round;stroke:rgb(0%,0%,0%);stroke-opacity:1;stroke-miterlimit:10;" d="M 360.457031 35.007813 L 360.457031 29.339844 "/>
<path style="fill:none;stroke-width:0.75;stroke-linecap:round;stroke-linejoin:round;stroke:rgb(0%,0%,0%);stroke-opacity:1;stroke-miterlimit:10;" d="M 420.109375 35.007813 L 420.109375 29.339844 "/>
<path style="fill:none;stroke-width:0.75;stroke-linecap:round;stroke-linejoin:round;stroke:rgb(0%,0%,0%);stroke-opacity:1;stroke-miterlimit:10;" d="M 66.960938 204.558594 L 61.289063 204.558594 "/>
<path style="fill:none;stroke-width:0.75;stroke-linecap:round;stroke-linejoin:round;stroke:rgb(0%,0%,0%);stroke-opacity:1;stroke-miterlimit:10;" d="M 66.960938 170.386719 L 61.289063 170.386719 "/>
<path style="fill:none;stroke-width:0.75;stroke-linecap:round;stroke-linejoin:round;stroke:rgb(0%,0%,0%);stroke-opacity:1;stroke-miterlimit:10;" d="M 66.960938 136.21875 L 61.289063 136.21875 "/>
<path style="fill:none;stroke-width:0.75;stroke-linecap:round;stroke-linejoin:round;stroke:rgb(0%,0%,0%);stroke-opacity:1;stroke-miterlimit:10;" d="M 66.960938 102.046875 L 61.289063 102.046875 "/>
<path style="fill:none;stroke-width:0.75;stroke-linecap:round;stroke-linejoin:round;stroke:rgb(0%,0%,0%);stroke-opacity:1;stroke-miterlimit:10;" d="M 66.960938 67.875 L 61.289063 67.875 "/>
<g style="fill:rgb(0%,0%,0%);fill-opacity:1;">
  <use xlink:href="#glyph2-0" x="26.257813" y="207.992188"/>
  <use xlink:href="#glyph2-1" x="31.596875" y="207.992188"/>
  <use xlink:href="#glyph2-2" x="34.264063" y="207.992188"/>
  <use xlink:href="#glyph2-3" x="39.603125" y="207.992188"/>
  <use xlink:href="#glyph2-3" x="44.942188" y="207.992188"/>
  <use xlink:href="#glyph2-4" x="50.28125" y="207.992188"/>
</g>
<g style="fill:rgb(0%,0%,0%);fill-opacity:1;">
  <use xlink:href="#glyph2-0" x="26.257813" y="173.824219"/>
  <use xlink:href="#glyph2-1" x="31.596875" y="173.824219"/>
  <use xlink:href="#glyph2-2" x="34.264063" y="173.824219"/>
  <use xlink:href="#glyph2-3" x="39.603125" y="173.824219"/>
  <use xlink:href="#glyph2-5" x="44.942188" y="173.824219"/>
  <use xlink:href="#glyph2-0" x="50.28125" y="173.824219"/>
</g>
<g style="fill:rgb(0%,0%,0%);fill-opacity:1;">
  <use xlink:href="#glyph2-0" x="26.257813" y="139.652344"/>
  <use xlink:href="#glyph2-1" x="31.596875" y="139.652344"/>
  <use xlink:href="#glyph2-2" x="34.264063" y="139.652344"/>
  <use xlink:href="#glyph2-3" x="39.603125" y="139.652344"/>
  <use xlink:href="#glyph2-5" x="44.942188" y="139.652344"/>
  <use xlink:href="#glyph2-4" x="50.28125" y="139.652344"/>
</g>
<g style="fill:rgb(0%,0%,0%);fill-opacity:1;">
  <use xlink:href="#glyph2-0" x="26.257813" y="105.484375"/>
  <use xlink:href="#glyph2-1" x="31.596875" y="105.484375"/>
  <use xlink:href="#glyph2-2" x="34.264063" y="105.484375"/>
  <use xlink:href="#glyph2-3" x="39.603125" y="105.484375"/>
  <use xlink:href="#glyph2-6" x="44.942188" y="105.484375"/>
  <use xlink:href="#glyph2-0" x="50.28125" y="105.484375"/>
</g>
<g style="fill:rgb(0%,0%,0%);fill-opacity:1;">
  <use xlink:href="#glyph2-0" x="26.257813" y="71.3125"/>
  <use xlink:href="#glyph2-1" x="31.596875" y="71.3125"/>
  <use xlink:href="#glyph2-2" x="34.264063" y="71.3125"/>
  <use xlink:href="#glyph2-3" x="39.603125" y="71.3125"/>
  <use xlink:href="#glyph2-6" x="44.942188" y="71.3125"/>
  <use xlink:href="#glyph2-4" x="50.28125" y="71.3125"/>
</g>
<path style="fill:none;stroke-width:0.75;stroke-linecap:round;stroke-linejoin:round;stroke:rgb(0%,0%,0%);stroke-opacity:1;stroke-miterlimit:10;" d="M 121.839844 237.53125 L 121.839844 243.199219 "/>
<path style="fill:none;stroke-width:0.75;stroke-linecap:round;stroke-linejoin:round;stroke:rgb(0%,0%,0%);stroke-opacity:1;stroke-miterlimit:10;" d="M 181.496094 237.53125 L 181.496094 243.199219 "/>
<path style="fill:none;stroke-width:0.75;stroke-linecap:round;stroke-linejoin:round;stroke:rgb(0%,0%,0%);stroke-opacity:1;stroke-miterlimit:10;" d="M 241.148438 237.53125 L 241.148438 243.199219 "/>
<path style="fill:none;stroke-width:0.75;stroke-linecap:round;stroke-linejoin:round;stroke:rgb(0%,0%,0%);stroke-opacity:1;stroke-miterlimit:10;" d="M 300.804688 237.53125 L 300.804688 243.199219 "/>
<path style="fill:none;stroke-width:0.75;stroke-linecap:round;stroke-linejoin:round;stroke:rgb(0%,0%,0%);stroke-opacity:1;stroke-miterlimit:10;" d="M 360.457031 237.53125 L 360.457031 243.199219 "/>
<path style="fill:none;stroke-width:0.75;stroke-linecap:round;stroke-linejoin:round;stroke:rgb(0%,0%,0%);stroke-opacity:1;stroke-miterlimit:10;" d="M 420.109375 237.53125 L 420.109375 243.199219 "/>
<g style="fill:rgb(0%,0%,0%);fill-opacity:1;">
  <use xlink:href="#glyph2-7" x="119.171875" y="255.742188"/>
</g>
<g style="fill:rgb(0%,0%,0%);fill-opacity:1;">
  <use xlink:href="#glyph2-3" x="178.828125" y="255.742188"/>
</g>
<g style="fill:rgb(0%,0%,0%);fill-opacity:1;">
  <use xlink:href="#glyph2-6" x="238.480469" y="255.742188"/>
</g>
<g style="fill:rgb(0%,0%,0%);fill-opacity:1;">
  <use xlink:href="#glyph2-8" x="295.464844" y="255.742188"/>
  <use xlink:href="#glyph2-0" x="300.803906" y="255.742188"/>
</g>
<g style="fill:rgb(0%,0%,0%);fill-opacity:1;">
  <use xlink:href="#glyph2-8" x="355.117188" y="255.742188"/>
  <use xlink:href="#glyph2-9" x="360.45625" y="255.742188"/>
</g>
<g style="fill:rgb(0%,0%,0%);fill-opacity:1;">
  <use xlink:href="#glyph2-8" x="414.769531" y="255.742188"/>
  <use xlink:href="#glyph2-7" x="420.108594" y="255.742188"/>
</g>
<path style="fill:none;stroke-width:0.75;stroke-linecap:round;stroke-linejoin:round;stroke:rgb(0%,0%,0%);stroke-opacity:1;stroke-miterlimit:10;" d="M 474.992188 204.558594 L 480.660156 204.558594 "/>
<path style="fill:none;stroke-width:0.75;stroke-linecap:round;stroke-linejoin:round;stroke:rgb(0%,0%,0%);stroke-opacity:1;stroke-miterlimit:10;" d="M 474.992188 170.386719 L 480.660156 170.386719 "/>
<path style="fill:none;stroke-width:0.75;stroke-linecap:round;stroke-linejoin:round;stroke:rgb(0%,0%,0%);stroke-opacity:1;stroke-miterlimit:10;" d="M 474.992188 136.21875 L 480.660156 136.21875 "/>
<path style="fill:none;stroke-width:0.75;stroke-linecap:round;stroke-linejoin:round;stroke:rgb(0%,0%,0%);stroke-opacity:1;stroke-miterlimit:10;" d="M 474.992188 102.046875 L 480.660156 102.046875 "/>
<path style="fill:none;stroke-width:0.75;stroke-linecap:round;stroke-linejoin:round;stroke:rgb(0%,0%,0%);stroke-opacity:1;stroke-miterlimit:10;" d="M 474.992188 67.875 L 480.660156 67.875 "/>
<g clip-path="url(#clip1)" clip-rule="nonzero">
<path style="fill:none;stroke-width:0.75;stroke-linecap:round;stroke-linejoin:round;stroke:rgb(90.196078%,90.196078%,90.196078%);stroke-opacity:1;stroke-miterlimit:10;" d="M 66.960938 204.558594 L 474.992188 204.558594 "/>
<path style="fill:none;stroke-width:0.75;stroke-linecap:round;stroke-linejoin:round;stroke:rgb(90.196078%,90.196078%,90.196078%);stroke-opacity:1;stroke-miterlimit:10;" d="M 66.960938 170.386719 L 474.992188 170.386719 "/>
<path style="fill:none;stroke-width:0.75;stroke-linecap:round;stroke-linejoin:round;stroke:rgb(90.196078%,90.196078%,90.196078%);stroke-opacity:1;stroke-miterlimit:10;" d="M 66.960938 136.21875 L 474.992188 136.21875 "/>
<path style="fill:none;stroke-width:0.75;stroke-linecap:round;stroke-linejoin:round;stroke:rgb(90.196078%,90.196078%,90.196078%);stroke-opacity:1;stroke-miterlimit:10;" d="M 66.960938 102.046875 L 474.992188 102.046875 "/>
<path style="fill:none;stroke-width:0.75;stroke-linecap:round;stroke-linejoin:round;stroke:rgb(90.196078%,90.196078%,90.196078%);stroke-opacity:1;stroke-miterlimit:10;" d="M 66.960938 67.875 L 474.992188 67.875 "/>
<path style="fill:none;stroke-width:0.75;stroke-linecap:round;stroke-linejoin:round;stroke:rgb(90.196078%,90.196078%,90.196078%);stroke-opacity:1;stroke-miterlimit:10;" d="M 121.839844 237.53125 L 121.839844 35.007813 "/>
<path style="fill:none;stroke-width:0.75;stroke-linecap:round;stroke-linejoin:round;stroke:rgb(90.196078%,90.196078%,90.196078%);stroke-opacity:1;stroke-miterlimit:10;" d="M 181.496094 237.53125 L 181.496094 35.007813 "/>
<path style="fill:none;stroke-width:0.75;stroke-linecap:round;stroke-linejoin:round;stroke:rgb(90.196078%,90.196078%,90.196078%);stroke-opacity:1;stroke-miterlimit:10;" d="M 241.148438 237.53125 L 241.148438 35.007813 "/>
<path style="fill:none;stroke-width:0.75;stroke-linecap:round;stroke-linejoin:round;stroke:rgb(90.196078%,90.196078%,90.196078%);stroke-opacity:1;stroke-miterlimit:10;" d="M 300.804688 237.53125 L 300.804688 35.007813 "/>
<path style="fill:none;stroke-width:0.75;stroke-linecap:round;stroke-linejoin:round;stroke:rgb(90.196078%,90.196078%,90.196078%);stroke-opacity:1;stroke-miterlimit:10;" d="M 360.457031 237.53125 L 360.457031 35.007813 "/>
<path style="fill:none;stroke-width:0.75;stroke-linecap:round;stroke-linejoin:round;stroke:rgb(90.196078%,90.196078%,90.196078%);stroke-opacity:1;stroke-miterlimit:10;" d="M 420.109375 237.53125 L 420.109375 35.007813 "/>
<path style="fill:none;stroke-width:0.75;stroke-linecap:round;stroke-linejoin:round;stroke:rgb(0%,50.196078%,100%);stroke-opacity:1;stroke-miterlimit:10;" d="M 94.414063 225.09375 C 94.414063 228.292969 89.613281 228.292969 89.613281 225.09375 C 89.613281 221.894531 94.414063 221.894531 94.414063 225.09375 "/>
<path style="fill:none;stroke-width:0.75;stroke-linecap:round;stroke-linejoin:round;stroke:rgb(0%,50.196078%,100%);stroke-opacity:1;stroke-miterlimit:10;" d="M 124.242188 218.246094 C 124.242188 221.445313 119.441406 221.445313 119.441406 218.246094 C 119.441406 215.046875 124.242188 215.046875 124.242188 218.246094 "/>
<path style="fill:none;stroke-width:0.75;stroke-linecap:round;stroke-linejoin:round;stroke:rgb(0%,50.196078%,100%);stroke-opacity:1;stroke-miterlimit:10;" d="M 154.070313 54.304688 C 154.070313 57.503906 149.269531 57.503906 149.269531 54.304688 C 149.269531 51.105469 154.070313 51.105469 154.070313 54.304688 "/>
<path style="fill:none;stroke-width:0.75;stroke-linecap:round;stroke-linejoin:round;stroke:rgb(0%,50.196078%,100%);stroke-opacity:1;stroke-miterlimit:10;" d="M 183.894531 47.445313 C 183.894531 50.644531 179.09375 50.644531 179.09375 47.445313 C 179.09375 44.242188 183.894531 44.242188 183.894531 47.445313 "/>
<path style="fill:none;stroke-width:0.75;stroke-linecap:round;stroke-linejoin:round;stroke:rgb(0%,50.196078%,100%);stroke-opacity:1;stroke-miterlimit:10;" d="M 213.722656 108.929688 C 213.722656 112.128906 208.921875 112.128906 208.921875 108.929688 C 208.921875 105.730469 213.722656 105.730469 213.722656 108.929688 "/>
<path style="fill:none;stroke-width:0.75;stroke-linecap:round;stroke-linejoin:round;stroke:rgb(0%,50.196078%,100%);stroke-opacity:1;stroke-miterlimit:10;" d="M 243.550781 156.769531 C 243.550781 159.96875 238.75 159.96875 238.75 156.769531 C 238.75 153.566406 243.550781 153.566406 243.550781 156.769531 "/>
<path style="fill:none;stroke-width:0.75;stroke-linecap:round;stroke-linejoin:round;stroke:rgb(0%,50.196078%,100%);stroke-opacity:1;stroke-miterlimit:10;" d="M 273.375 115.707031 C 273.375 118.910156 268.578125 118.910156 268.578125 115.707031 C 268.578125 112.507813 273.375 112.507813 273.375 115.707031 "/>
<path style="fill:none;stroke-width:0.75;stroke-linecap:round;stroke-linejoin:round;stroke:rgb(0%,50.196078%,100%);stroke-opacity:1;stroke-miterlimit:10;" d="M 303.203125 156.734375 C 303.203125 159.933594 298.402344 159.933594 298.402344 156.734375 C 298.402344 153.535156 303.203125 153.535156 303.203125 156.734375 "/>
<path style="fill:none;stroke-width:0.75;stroke-linecap:round;stroke-linejoin:round;stroke:rgb(0%,50.196078%,100%);stroke-opacity:1;stroke-miterlimit:10;" d="M 333.03125 136.199219 C 333.03125 139.398438 328.230469 139.398438 328.230469 136.199219 C 328.230469 132.996094 333.03125 132.996094 333.03125 136.199219 "/>
<path style="fill:none;stroke-width:0.75;stroke-linecap:round;stroke-linejoin:round;stroke:rgb(0%,50.196078%,100%);stroke-opacity:1;stroke-miterlimit:10;" d="M 362.855469 149.894531 C 362.855469 153.09375 358.058594 153.09375 358.058594 149.894531 C 358.058594 146.691406 362.855469 146.691406 362.855469 149.894531 "/>
<path style="fill:none;stroke-width:0.75;stroke-linecap:round;stroke-linejoin:round;stroke:rgb(0%,50.196078%,100%);stroke-opacity:1;stroke-miterlimit:10;" d="M 392.683594 156.699219 C 392.683594 159.898438 387.882813 159.898438 387.882813 156.699219 C 387.882813 153.5 392.683594 153.5 392.683594 156.699219 "/>
<path style="fill:none;stroke-width:0.75;stroke-linecap:round;stroke-linejoin:round;stroke:rgb(0%,50.196078%,100%);stroke-opacity:1;stroke-miterlimit:10;" d="M 422.511719 129.378906 C 422.511719 132.578125 417.710938 132.578125 417.710938 129.378906 C 417.710938 126.175781 422.511719 126.175781 422.511719 129.378906 "/>
<path style="fill:none;stroke-width:0.75;stroke-linecap:round;stroke-linejoin:round;stroke:rgb(0%,50.196078%,100%);stroke-opacity:1;stroke-miterlimit:10;" d="M 452.335938 163.539063 C 452.335938 166.742188 447.539063 166.742188 447.539063 163.539063 C 447.539063 160.339844 452.335938 160.339844 452.335938 163.539063 "/>
<path style="fill:none;stroke-width:0.75;stroke-linecap:round;stroke-linejoin:round;stroke:rgb(0%,50.196078%,100%);stroke-opacity:1;stroke-miterlimit:10;" d="M 92.015625 225.09375 L 121.839844 218.246094 L 151.667969 54.304688 L 181.496094 47.445313 L 211.324219 108.929688 L 241.148438 156.769531 L 270.976563 115.707031 L 300.804688 156.734375 L 330.628906 136.199219 L 360.457031 149.894531 L 390.285156 156.699219 L 420.109375 129.378906 L 449.9375 163.539063 "/>
</g>
<path style="fill:none;stroke-width:0.75;stroke-linecap:round;stroke-linejoin:round;stroke:rgb(0%,0%,0%);stroke-opacity:1;stroke-miterlimit:10;" d="M 66.960938 237.53125 L 474.992188 237.53125 L 474.992188 35.007813 L 66.960938 35.007813 Z M 66.960938 237.53125 "/>
</g>
</svg>
